I
1130 Generated by WorldEditor 2.4.1r2

1    330 0 0 KCRQ McClellan Palomar
1302 city Carlsbad
1302 country United States
1302 datum_lat 33.12825
1302 datum_lon -117.280083333
1302 faa_code CRQ
1302 gui_label 2D
1302 iata_code CLD
1302 icao_code KCRQ
1302 region_code K2
1302 state California
1302 transition_alt 18000
1302 transition_level 18000
100 50.00 1 0 0.00 1 2 1  06  33.12697447 -117.28795216 93 95 2 9 0 0 24  33.12951147 -117.27224939 0 63 2 9 0 0
110 2 0.00 0.0 New Taxiway 5
111  33.12656336 -117.27659754
111  33.12645899 -117.27638932 9
111  33.12649086 -117.27637409 9
111  33.12654831 -117.27637233 9
111  33.12662344 -117.27638289 9
111  33.12668540 -117.27639732
111  33.12666167 -117.27656431
111  33.12661755 -117.27655879
113  33.12658956 -117.27657110
110 2 0.00 0.0 New Taxiway 4
111  33.12783156 -117.27947021 3 102
111  33.12799091 -117.27925818 3 102
111  33.12800352 -117.27922273
111  33.12800454 -117.27949820 3 102
113  33.12784985 -117.27970130
110 2 0.00 0.0 New Taxiway 3
111  33.12972974 -117.27229856 3 102
111  33.12974457 -117.27232192 3 102
111  33.12980567 -117.27234320 3 102
111  33.13033217 -117.27245809 3 102
111  33.13039999 -117.27250186 3 102
111  33.13043664 -117.27256314 3 102
111  33.13046963 -117.27266819 3 102
111  33.13047880 -117.27278419 3 102
111  33.13039999 -117.27329851 3 102
111  33.13037743 -117.27333456 3 102
111  33.13034870 -117.27336534 3 102
111  33.13023527 -117.27345066 3 102
111  33.13021116 -117.27346941 3 102
111  33.13018676 -117.27353020 3 102
111  33.12969919 -117.27656685
111  33.12855395 -117.28370013 3 102
111  33.12843685 -117.28367733 3 102
111  33.12853846 -117.28302076 3 102
111  33.12853388 -117.28295328 3 102
111  33.12850639 -117.28292045 3 102
111  33.12844682 -117.28289309 3 102
111  33.12828645 -117.28285662 3 102
111  33.12821619 -117.28285662 3 102
111  33.12812913 -117.28288580 3 102
111  33.12805582 -117.28294781 3 102
111  33.12799416 -117.28303963
111  33.12809574 -117.28241392 3 102
111  33.12811483 -117.28248839 3 102
111  33.12815429 -117.28259022 3 102
111  33.12819247 -117.28263734 3 102
111  33.12827648 -117.28266925 3 102
111  33.12847122 -117.28273309 3 102
111  33.12852849 -117.28272701 3 102
111  33.12858068 -117.28270269 3 102
111  33.12862395 -117.28258110 3 102
111  33.12895730 -117.28056661 3 102
111  33.12895942 -117.28047921 3 102
111  33.12894563 -117.28041082 3 102
111  33.12889896 -117.28029810 3 102
111  33.12863816 -117.27982560 3 102
111  33.12860761 -117.27978456 3 102
111  33.12857961 -117.27976480 3 102
111  33.12854906 -117.27976480 3 102
111  33.12851724 -117.27979824
111  33.12859769 -117.27931395 3 102
112  33.12861933 -117.27940514  33.12862569 -117.27942946 3 102
111  33.12862569 -117.27942946 3 102
111  33.12866642 -117.27952065 3 102
111  33.12889935 -117.27995306 3 102
111  33.12893250 -117.27998824 3 102
111  33.12896343 -117.27998560 3 102
111  33.12902973 -117.27994954 3 102
111  33.12905580 -117.27990396 3 102
111  33.12908408 -117.27977309 3 102
111  33.13021834 -117.27273388 3 102
111  33.13020815 -117.27267461 3 102
111  33.13018524 -117.27262597 3 102
111  33.13016615 -117.27260469 3 102
111  33.13011397 -117.27258037 3 102
111  33.12979449 -117.27251350 3 102
111  33.12975122 -117.27251198 3 102
111  33.12972322 -117.27252870 3 102
113  33.12968432 -117.27259415
110 2 0.00 0.0 New Taxiway 2
111  33.12675677 -117.28789705 3 102
111  33.12672590 -117.28789617 3 102
111  33.12662778 -117.28786661 3 102
111  33.12653586 -117.28781384 3 102
111  33.12645101 -117.28774207 3 102
111  33.12638465 -117.28764762 3 102
111  33.12632632 -117.28754123 3 102
111  33.12627753 -117.28740318 3 102
111  33.12625419 -117.28726387 3 102
111  33.12625313 -117.28710302 3 102
111  33.12625101 -117.28695104 3 102
111  33.12595885 -117.28646687 3 102
111  33.12610968 -117.28549752 3 102
111  33.12647045 -117.28536596 3 102
111  33.12650851 -117.28528314 9
111  33.12679963 -117.28345284 3 102
111  33.12680332 -117.28339933 3 102
111  33.12678981 -117.28336855 3 102
111  33.12677263 -117.28334143 3 102
111  33.12674562 -117.28332604 3 102
111  33.12670633 -117.28331724 9
111  33.12634274 -117.28322630
111  33.12637220 -117.28302987 9
111  33.12675986 -117.28313235 3 102
111  33.12680078 -117.28312013 3 102
111  33.12683044 -117.28310242 3 102
111  33.12685141 -117.28306394 3 102
111  33.12687341 -117.28298393 9
111  33.12729476 -117.28045468 3 102
111  33.12729660 -117.28041657 3 102
111  33.12728678 -117.28036966 3 102
111  33.12727020 -117.28033008 3 102
111  33.12724933 -117.28030223 3 102
111  33.12720023 -117.28028610 9
111  33.12495558 -117.27974324
111  33.12464664 -117.27939007 9
111  33.12725112 -117.27998147 3 102
111  33.12729973 -117.27998235 3 102
111  33.12733585 -117.27996837 3 102
111  33.12736676 -117.27993222 3 102
111  33.12738591 -117.27988824 3 102
111  33.12740212 -117.27982931 9
111  33.12772813 -117.27778174 3 102
111  33.12772686 -117.27773310 3 102
111  33.12771922 -117.27768751 3 102
111  33.12770522 -117.27764951 3 102
111  33.12768104 -117.27762672 3 102
111  33.12763394 -117.27760392 3
111  33.12668608 -117.27738596 3
111  33.12665536 -117.27739580 3
111  33.12663327 -117.27742585 3
111  33.12661056 -117.27749255 3
111  33.12660380 -117.27755339
111  33.12645627 -117.27752388 3
111  33.12646864 -117.27743417 3
111  33.12646069 -117.27740039 3
111  33.12643859 -117.27735395 3
111  33.12640515 -117.27732651 3
111  33.12626871 -117.27730056 3
111  33.12620761 -117.27728780 3
111  33.12615568 -117.27723308 3
111  33.12610681 -117.27713642 3
111  33.12608237 -117.27703429 3
111  33.12609153 -117.27692851 3
111  33.12613125 -117.27680997 3
111  33.12645899 -117.27638932
111  33.12656336 -117.27659754
111  33.12633298 -117.27691670
111  33.12631898 -117.27697901 9
111  33.12632534 -117.27705652 9
111  33.12635334 -117.27712187 9
111  33.12643226 -117.27715835 9
111  33.12766062 -117.27745725 3 102
111  33.12769067 -117.27746069 3 102
111  33.12772442 -117.27745458 3 102
111  33.12774847 -117.27743870 3 102
111  33.12776125 -117.27741977 3 102
111  33.12777916 -117.27737885 3 102
111  33.12784610 -117.27694077 3 102
111  33.12784168 -117.27690822 3 102
111  33.12783210 -117.27687480 3 102
111  33.12780706 -117.27684930 3 102
111  33.12776065 -117.27683083 9
111  33.12666167 -117.27656431
111  33.12668540 -117.27639732 9
111  33.12778868 -117.27667362 3 102
111  33.12782980 -117.27667582 3 102
111  33.12786172 -117.27666483 3 102
111  33.12788136 -117.27664870 3 102
111  33.12790433 -117.27660890 3 102
111  33.12791939 -117.27654111 3 102
111  33.12792027 -117.27648939 3 102
111  33.12791232 -117.27645034 3 102
111  33.12789376 -117.27641340 3 102
111  33.12782835 -117.27638912 9
111  33.12719373 -117.27622276
111  33.12720106 -117.27606255 9
111  33.12786174 -117.27623442 3 102
111  33.12790225 -117.27624468 3 102
111  33.12793417 -117.27624102 3 102
111  33.12795841 -117.27622080 3 102
111  33.12797407 -117.27619191 3 102
111  33.12801335 -117.27596250 3 102
111  33.12801350 -117.27590826 3 102
111  33.12800491 -117.27587821 3 102
111  33.12798036 -117.27585256 3 102
111  33.12792573 -117.27583130 3 102
111  33.12791345 -117.27582910
111  33.12796384 -117.27553531 3 102
111  33.12800433 -117.27554600 3 102
111  33.12803161 -117.27554600 3 102
111  33.12806486 -117.27553480 3 102
111  33.12807637 -117.27551444 3 102
111  33.12807892 -117.27549103 3 102
111  33.12806266 -117.27546657 3 102
111  33.12797781 -117.27544651 9
111  33.12642198 -117.27506795
111  33.12653596 -117.27489397
111  33.12660457 -117.27476590 9
111  33.12764603 -117.27502128
111  33.12780656 -117.27506159 9
111  33.12804091 -117.27512164 3 102
111  33.12809288 -117.27513051 3 102
111  33.12811940 -117.27512545 3 102
111  33.12813849 -117.27511025 3 102
111  33.12815652 -117.27507732 9
111  33.12837127 -117.27372767 3 102
111  33.12838349 -117.27364013 3 102
111  33.12838349 -117.27355623 3 102
111  33.12836363 -117.27346504 3 102
111  33.12832460 -117.27334126 3 102
111  33.12823424 -117.27319383 3 102
111  33.12819542 -117.27316191 3 102
111  33.12816817 -117.27315576 3 102
111  33.12812618 -117.27316191 3 102
111  33.12810630 -117.27320941
111  33.12794720 -117.27334545 3
111  33.12799668 -117.27309158 3
111  33.12804617 -117.27302154 3
111  33.12808466 -117.27297248 3
111  33.12810676 -117.27292410 3
111  33.12812665 -117.27284406 3
111  33.12816540 -117.27256619 3
111  33.12816010 -117.27253980 3
111  33.12814772 -117.27252292 3
111  33.12809557 -117.27250392
111  33.12811237 -117.27240154 3
111  33.12816010 -117.27242370 3
111  33.12817336 -117.27241948 3
111  33.12818573 -117.27240049 3
111  33.12823550 -117.27211477 3 102
111  33.12825465 -117.27208223 3 102
111  33.12851770 -117.27176913 3 102
111  33.12853832 -117.27176561 3 102
111  33.12855453 -117.27177264 3 102
111  33.12857073 -117.27178760 3 102
111  33.12881285 -117.27217557 3 102
111  33.12884085 -117.27218317 3 102
111  33.12892740 -117.27215277 3 102
111  33.12903177 -117.27214669 3 102
111  33.12912809 -117.27215679 3 102
111  33.12929181 -117.27220038
111  33.12913389 -117.27318691 3 102
111  33.12911173 -117.27311667 3 102
111  33.12906228 -117.27306679 3 102
111  33.12896936 -117.27302149 3 102
111  33.12888942 -117.27298887 3 102
111  33.12879608 -117.27298760 3 102
111  33.12872396 -117.27299900 3 102
111  33.12866880 -117.27303447 3 102
111  33.12862956 -117.27310666 3 102
111  33.12861153 -117.27318519 3 102
111  33.12848860 -117.27388771 3 102
111  33.12848639 -117.27400117 3 102
111  33.12851806 -117.27411552 3 102
111  33.12857846 -117.27421490 3 102
111  33.12865359 -117.27427031 3 102
111  33.12873167 -117.27428351 3 102
111  33.12880940 -117.27428217 3 102
111  33.12886611 -117.27426107 3 102
111  33.12892577 -117.27421885 3 102
111  33.12897954 -117.27413177
111  33.12888110 -117.27474227 3 102
111  33.12885679 -117.27465696 3 102
111  33.12881555 -117.27458307 3 102
111  33.12876841 -117.27452854 3 102
111  33.12871316 -117.27450304 3 102
111  33.12862625 -117.27448369 3 102
111  33.12854891 -117.27449072 3 102
111  33.12846610 -117.27453651 3 102
111  33.12841454 -117.27458709 3 102
111  33.12837336 -117.27463603 3 102
111  33.12834611 -117.27474157 3 102
111  33.12787152 -117.27768100 3 102
111  33.12786388 -117.27786885 3 102
111  33.12787916 -117.27800199 3 102
111  33.12792193 -117.27813695 3 102
111  33.12810666 -117.27877524 3 102
111  33.12814349 -117.27883153 3 102
111  33.12819137 -117.27884121 3 102
111  33.12822378 -117.27881394
111  33.12810582 -117.27954462 3 102
111  33.12809218 -117.27950715 3 102
111  33.12806592 -117.27948415 3 102
111  33.12804393 -117.27947865 3 102
111  33.12800454 -117.27949820
111  33.12800352 -117.27922273 3 102
111  33.12800659 -117.27918641 3 102
111  33.12800482 -117.27913363 3 102
111  33.12792792 -117.27886661 3 102
111  33.12788726 -117.27880645 3 102
111  33.12783688 -117.27877795 3 102
111  33.12777678 -117.27877478 3 102
111  33.12772551 -117.27880539 3 102
111  33.12769369 -117.27887083 3 102
111  33.12761948 -117.27926824 3 102
111  33.12762009 -117.27934960 3 102
111  33.12763482 -117.27943682 3 102
111  33.12766306 -117.27949693 3 102
111  33.12771093 -117.27951745 3 102
111  33.12777047 -117.27951818 3 102
111  33.12783156 -117.27947021
111  33.12784985 -117.27970130 3 102
111  33.12758133 -117.28005094 3 102
111  33.12752559 -117.28013484 3 102
111  33.12748914 -117.28022055 3 102
111  33.12745944 -117.28033960 3 102
111  33.12713110 -117.28224700 3 102
111  33.12712983 -117.28237011 3 102
111  33.12716674 -117.28245370 3 102
111  33.12722020 -117.28252057 3 102
111  33.12729147 -117.28255401 3 102
111  33.12735384 -117.28255705 3 102
111  33.12741112 -117.28253425 3 102
111  33.12748166 -117.28246637 3 102
111  33.12764607 -117.28226500 3 102
111  33.12767853 -117.28218506
111  33.12757065 -117.28285497 3 102
111  33.12755285 -117.28282345 3 102
111  33.12752829 -117.28280879 3 102
111  33.12749822 -117.28281245 3 102
111  33.12746262 -117.28283957 3 102
111  33.12700760 -117.28346489 3 102
111  33.12696941 -117.28353455 3 102
111  33.12693229 -117.28360547 3 102
111  33.12691426 -117.28369033 3 102
111  33.12654630 -117.28595515 3 102
111  33.12648979 -117.28627796 3 102
111  33.12643633 -117.28667007 3 102
111  33.12639967 -117.28698376 3 102
111  33.12639051 -117.28713696 3 102
111  33.12640450 -117.28728892 3 102
111  33.12644374 -117.28745104 3 102
111  33.12650420 -117.28757642 3 102
111  33.12655617 -117.28764481 3 102
111  33.12661451 -117.28768914 3 102
111  33.12667921 -117.28769421 3 102
111  33.12674709 -117.28767394 3 102
111  33.12679164 -117.28761568 3 102
113  33.12682134 -117.28752829
130 Airport Boundary 1
111  33.12790982 -117.29051810
111  33.12525429 -117.28988397
111  33.12597605 -117.28482721
111  33.12338861 -117.28427438
111  33.12439601 -117.27721097
111  33.12778462 -117.27192885
111  33.12964366 -117.26706829
113  33.13157329 -117.26858546
120 Linear Feature 15
111  33.12841765 -117.27308521 1 101
116  33.12861051 -117.27296740  33.12871663 -117.27275620
120 Linear Feature 14
111  33.12806038 -117.27314951 1 101
111  33.12808167 -117.27309922 1 101
111  33.12810875 -117.27306390 1 101
111  33.12815186 -117.27302439 1 101
111  33.12821493 -117.27300326 1 101
111  33.12829290 -117.27300326 1 101
111  33.12835840 -117.27303181 1 101
111  33.12841765 -117.27308519 1 101
116  33.12851394 -117.27339822  33.12848150 -117.27357698
120 Linear Feature 13
111  33.12789328 -117.27368008 1 101
116  33.12797346 -117.27363758  33.12798399 -117.27357113
120 Linear Feature 13
111  33.12783017 -117.27403707 1 101
116  33.12790897 -117.27399417  33.12791950 -117.27392772
120 Linear Feature 13
111  33.12776991 -117.27437405 1 101
116  33.12784871 -117.27433097  33.12785924 -117.27426452
120 Linear Feature 13
111  33.12770328 -117.27474419 1 101
116  33.12778229 -117.27470152  33.12779282 -117.27463507
120 Linear Feature 12
111  33.12789329 -117.27368006 1 101
116  33.12794888 -117.27376799  33.12793516 -117.27384041
120 Linear Feature 12
111  33.12783018 -117.27403704 1 101
116  33.12788560 -117.27412477  33.12787188 -117.27419718
120 Linear Feature 12
111  33.12776992 -117.27437403 1 101
116  33.12782518 -117.27446177  33.12781146 -117.27453418
120 Linear Feature 12
111  33.12770329 -117.27474417 1 101
116  33.12775888 -117.27483210  33.12774516 -117.27490452
120 Linear Feature 11
111  33.12759391 -117.27359704 1 101
115  33.12789328 -117.27368008
120 Linear Feature 11
111  33.12741073 -117.27391900 1 101
115  33.12783017 -117.27403704
120 Linear Feature 11
111  33.12730520 -117.27424569 1 101
115  33.12776991 -117.27437403
120 Linear Feature 11
111  33.12699714 -117.27454633 1 101
115  33.12770328 -117.27474417
120 Linear Feature 7
111  33.12735102 -117.27712245 1 101
116  33.12736213 -117.27746478  33.12756788 -117.27751478
120 Linear Feature 7
111  33.12708488 -117.27706038 1 101
116  33.12709476 -117.27740091  33.12730052 -117.27745091
120 Linear Feature 7
111  33.12682540 -117.27700228 1 101
116  33.12683681 -117.27733924  33.12704256 -117.27738924
120 Linear Feature 7
111  33.12656193 -117.27693972 1 101
116  33.12657338 -117.27727627  33.12677913 -117.27732627
120 Linear Feature 7
111  33.12629387 -117.27687989 1 101
116  33.12630638 -117.27721234  33.12651214 -117.27726234
120 Linear Feature 6
111  33.12759150 -117.27679435 1 101
116  33.12770931 -117.27673685  33.12777548 -117.27675194
120 Linear Feature 6
111  33.12732537 -117.27673229 1 101
116  33.12745186 -117.27667342  33.12751804 -117.27668851
120 Linear Feature 6
111  33.12706589 -117.27667419 1 101
116  33.12719293 -117.27660971  33.12725910 -117.27662480
120 Linear Feature 6
111  33.12680241 -117.27661163 1 101
116  33.12693118 -117.27654536  33.12699735 -117.27656045
120 Linear Feature 6
111  33.12653417 -117.27655212 1 101
116  33.12667625 -117.27648262  33.12674243 -117.27649771
120 Linear Feature 47
111  33.12771191 -117.27509380 1 101
116  33.12761633 -117.27518170  33.12753971 -117.27516165
120 Linear Feature 46
111  33.12806038 -117.27314949 1 101
111  33.12771197 -117.27509364 1 101
116  33.12777281 -117.27521997  33.12786087 -117.27524225
120 Linear Feature 45
111  33.12907921 -117.28008311 1 101
116  33.12891398 -117.28012503  33.12878520 -117.27994815
120 Linear Feature 44
111  33.12898976 -117.28025439 1 101
116  33.12902914 -117.28041259  33.12901864 -117.28048028
120 Linear Feature 43
111  33.12830423 -117.27972224 1 101
116  33.12861294 -117.27961015  33.12881694 -117.27995290
120 Linear Feature 42
111  33.12898978 -117.28025443 1 101
111  33.12857230 -117.27954484 1 101
116  33.12842879 -117.27896343  33.12847212 -117.27867888
120 Linear Feature 41
111  33.12781653 -117.28274157 1 101
116  33.12750975 -117.28261189  33.12718332 -117.28299631
120 Linear Feature 40
111  33.12806214 -117.28272061 1 101
116  33.12786226 -117.28245839  33.12790405 -117.28221388
120 Linear Feature 39
111  33.12806243 -117.28272063 1 101
116  33.12779289 -117.28288779  33.12775424 -117.28313231
120 Linear Feature 38
111  33.12854968 -117.28282986 1 101
116  33.12861763 -117.28295269  33.12859868 -117.28306898
120 Linear Feature 37
111  33.12806200 -117.28272057 1 101
111  33.12854968 -117.28282985 1 101
116  33.12865004 -117.28274593  33.12866818 -117.28264269
120 Linear Feature 36
111  33.13028063 -117.27269817 1 101
111  33.12965335 -117.27655308 1 101
111  33.12912575 -117.27977739 1 101
111  33.12899233 -117.28065493 1 101
111  33.12869149 -117.28249137 1 101
111  33.12851738 -117.28357499 1 101
116  33.12856648 -117.28364735  33.12863126 -117.28366107
120 Linear Feature 35
111  33.12974341 -117.27241777 1 101
111  33.13020527 -117.27252196 1 101
116  33.13028063 -117.27269815  33.13025379 -117.27286882
120 Linear Feature 34
111  33.12944854 -117.27263872 1 101
116  33.12974341 -117.27241776  33.13002775 -117.27247525
120 Linear Feature 33
111  33.13014194 -117.27259245 54 104
115  33.13016783 -117.27242237
120 Linear Feature 32
111  33.12895333 -117.27998751 54 104
115  33.12889708 -117.28029408
120 Linear Feature 31
111  33.12850327 -117.28273115 54 104
115  33.12847843 -117.28290495
120 Linear Feature 30
111  33.12630101 -117.28746783 54 104
115  33.12643328 -117.28741020
120 Linear Feature 29
111  33.12701016 -117.28346074 54 104
115  33.12717158 -117.28246062
120 Linear Feature 28
111  33.12755550 -117.28008942 54 104
115  33.12765308 -117.27947693
120 Linear Feature 27
111  33.12776828 -117.27877836 54 104
115  33.12788599 -117.27802399
120 Linear Feature 26
111  33.12844936 -117.27455123 54 104
115  33.12851828 -117.27412023
120 Linear Feature 25
111  33.12869509 -117.27301737 54 104
115  33.12883196 -117.27218139
120 Linear Feature 19
111  33.12729886 -117.28015037 1 101
116  33.12745924 -117.28010777  33.12750735 -117.28002038
120 Linear Feature 18
111  33.12729877 -117.28015031 1 101
116  33.12742413 -117.28007187  33.12744387 -117.27995505
120 Linear Feature 17
111  33.12494985 -117.27960618 1 101
111  33.12729875 -117.28015036 1 101
116  33.12738416 -117.28031361  33.12735978 -117.28045915
120 Linear Feature 16
111  33.12682287 -117.28325015 1 101
116  33.12702941 -117.28323841  33.12707227 -117.28318271
120 Linear Feature 15
111  33.12682257 -117.28325010 1 101
116  33.12691459 -117.28320038  33.12692649 -117.28313061
120 Linear Feature 14
111  33.12530982 -117.28285572 1 101
111  33.12682254 -117.28324999 1 101
116  33.12688893 -117.28336971  33.12687290 -117.28346510
120 Linear Feature 13
111  33.12745471 -117.28268169 1 101
116  33.12703671 -117.28242846  33.12705743 -117.28206120
120 Linear Feature 13
111  33.12786347 -117.27957002 1 101
116  33.12753302 -117.27941795  33.12749540 -117.27910058
120 Linear Feature 12
111  33.12750975 -117.28261189 1 101
111  33.12703013 -117.28323717 1 101
116  33.12685195 -117.28359941  33.12681512 -117.28380118
120 Linear Feature 12
111  33.12801437 -117.27937706 1 101
111  33.12756739 -117.27994935 1 101
116  33.12738416 -117.28031361  33.12734733 -117.28051538
120 Linear Feature 11
111  33.12795428 -117.28189425 1 101
116  33.12750975 -117.28261189  33.12708731 -117.28304647
120 Linear Feature 11
111  33.12847268 -117.27868786 1 101
116  33.12801437 -117.27937706  33.12759192 -117.27981165
120 Linear Feature 10
111  33.12798873 -117.27871699 1 101
116  33.12764029 -117.27873868  33.12750970 -117.27905749
120 Linear Feature 9
111  33.12808682 -117.27906413 1 101
111  33.12781381 -117.27809831 1 101
116  33.12777771 -117.27786056  33.12779404 -117.27775083
120 Linear Feature 8
111  33.12825833 -117.28000187 1 101
116  33.12808683 -117.27906414  33.12785033 -117.27836354
120 Linear Feature 7
111  33.12899289 -117.27444893 1 101
116  33.12917920 -117.27430026  33.12921055 -117.27410794
120 Linear Feature 6
111  33.12899295 -117.27444885 1 101
116  33.12911745 -117.27470355  33.12907827 -117.27493227
120 Linear Feature 5
111  33.12852717 -117.27434790 1 101
116  33.12838805 -117.27411754  33.12841489 -117.27397027
120 Linear Feature 4
111  33.12899291 -117.27444875 1 101
111  33.12852714 -117.27434787 1 101
116  33.12831589 -117.27452970  33.12828037 -117.27475301
120 Linear Feature 3
111  33.12633168 -117.28696251 1 101
111  33.12658295 -117.28531059 1 101
111  33.12684998 -117.28361159 1 101
111  33.12708312 -117.28213328 1 101
111  33.12756314 -117.27923145 1 101
111  33.12786475 -117.27730452 1 101
111  33.12828033 -117.27473331 1 101
111  33.12857185 -117.27306721 1 101
111  33.12861051 -117.27296740 1 101
111  33.12867319 -117.27286386 1 101
111  33.12878393 -117.27273162 1 101
111  33.12906876 -117.27239237 1 101
112  33.12929360 -117.27235452  33.12945006 -117.27240123 1 101
115  33.12942392 -117.27278822
120 Linear Feature 2
111  33.12670981 -117.28781132 1 101
112  33.12641486 -117.28756266  33.12628752 -117.28735170 1 101
115  33.12633168 -117.28696249
120 Linear Feature 1
111  33.12703205 -117.28758885 1 101
116  33.12670981 -117.28781132  33.12644205 -117.28771820
120 Linear Feature 23
111  33.12810432 -117.27530184 1 101
116  33.12819908 -117.27523608  33.12821395 -117.27514207
120 Linear Feature 23
111  33.12793534 -117.27633139 1 101
116  33.12803228 -117.27626693  33.12804715 -117.27617292
120 Linear Feature 23
111  33.12786463 -117.27677511 1 101
116  33.12796077 -117.27671053  33.12797564 -117.27661653
120 Linear Feature 22
111  33.12691577 -117.27500925 1 101
111  33.12810432 -117.27530184 1 101
116  33.12816601 -117.27544039  33.12814712 -117.27555821
120 Linear Feature 22
111  33.12707747 -117.27611991 1 101
111  33.12793534 -117.27633139 1 101
116  33.12799928 -117.27647042  33.12798039 -117.27658823
120 Linear Feature 22
111  33.12667609 -117.27648251 1 101
111  33.12786463 -117.27677511 1 101
116  33.12792801 -117.27691403  33.12790911 -117.27703185
120 Linear Feature 21
111  33.12773510 -117.27755397 1 101
116  33.12783504 -117.27749447  33.12784937 -117.27740453
120 Linear Feature 20
111  33.12630635 -117.27721232 1 101
111  33.12669186 -117.27730464 1 101
111  33.12773504 -117.27755394 1 101
116  33.12780638 -117.27767884  33.12779066 -117.27778352
14  33.12681773 -117.27590033 82 0 McClellan Palomar
1300  33.12735102 -117.27712245 -131.2 gate jets|turboprops|props|fighters 5
1301 B airline 
1300  33.12708488 -117.27706038 -131.2 gate jets|turboprops|props|fighters 4
1301 B airline 
1300  33.12682540 -117.27700228 -131.2 gate jets|turboprops|props|fighters 3
1301 B airline 
1300  33.12656193 -117.27693972 -131.2 gate jets|turboprops|props|fighters 2
1301 B airline 
1300  33.12535160 -117.28252409 441.3 gate jets|turboprops|props|fighters G64
1301 A general_aviation 
1300  33.12551065 -117.28255637 441.3 gate jets|turboprops|props|fighters G65
1301 A general_aviation 
1300  33.12565932 -117.28258616 441.3 gate jets|turboprops|props|fighters G66
1301 A general_aviation 
1300  33.12580798 -117.28261719 441.3 gate jets|turboprops|props|fighters G67
1301 A general_aviation 
1300  33.12641180 -117.28281891 171.5 gate jets|turboprops|props|fighters G68
1301 B airline 
1300  33.12644923 -117.28254333 171.5 gate jets|turboprops|props|fighters G69
1301 B airline 
1300  33.12648042 -117.28228563 171.5 gate jets|turboprops|props|fighters G70
1301 B airline 
1300  33.12651634 -117.28202393 171.5 gate jets|turboprops|props|fighters G71
1301 B airline 
1300  33.12655377 -117.28176324 171.5 gate jets|turboprops|props|fighters G72
1301 B airline 
1300  33.12659016 -117.28150504 171.5 gate jets|turboprops|props|fighters G73
1301 B airline 
1300  33.12685116 -117.28108300 259.6 gate jets|turboprops|props|fighters G74
1301 B military 
1300  33.12662072 -117.28102921 259.6 gate jets|turboprops|props|fighters G75
1301 B military 
1300  33.12693533 -117.27974060 171.3 tie_down jets|turboprops|props|fighters G76
1301 A general_aviation 
1300  33.12696782 -117.27952595 171.3 tie_down jets|turboprops|props|fighters G77
1301 A general_aviation 
1300  33.12699429 -117.27932911 171.3 tie_down jets|turboprops|props|fighters G78
1301 A general_aviation 
1300  33.12701768 -117.27913566 171.3 tie_down jets|turboprops|props|fighters G79
1301 A general_aviation 
1300  33.12703760 -117.27895360 171.3 tie_down jets|turboprops|props|fighters G80
1301 A general_aviation 
1300  33.12705144 -117.27873449 171.3 tie_down jets|turboprops|props|fighters G81
1301 A general_aviation 
1300  33.12707951 -117.27854332 171.3 tie_down jets|turboprops|props|fighters G82
1301 A general_aviation 
1300  33.12710654 -117.27835960 171.3 tie_down jets|turboprops|props|fighters G83
1301 A general_aviation 
1300  33.12713461 -117.27816347 171.3 tie_down jets|turboprops|props|fighters G84
1301 A general_aviation 
1300  33.12713253 -117.27796485 171.3 tie_down jets|turboprops|props|fighters G85
1301 A general_aviation 
1300  33.12879737 -117.28337582 349.1 tie_down jets|turboprops|props|fighters G63
1301 A general_aviation 
1300  33.12897327 -117.28231965 349.1 tie_down jets|turboprops|props|fighters G57
1301 A general_aviation 
1300  33.12915212 -117.28125744 349.1 tie_down jets|turboprops|props|fighters G51
1301 A general_aviation 
1300  33.12932866 -117.28021166 349.1 tie_down jets|turboprops|props|fighters G45
1301 A general_aviation 
1300  33.12950545 -117.27916025 349.1 tie_down jets|turboprops|props|fighters G39
1301 A general_aviation 
1300  33.12967970 -117.27811175 349.1 tie_down jets|turboprops|props|fighters G33
1301 A general_aviation 
1300  33.12985647 -117.27706092 349.1 tie_down jets|turboprops|props|fighters G27
1301 A general_aviation 
1300  33.12820565 -117.27411640 349.1 tie_down jets|turboprops|props|fighters G22
1301 A general_aviation 
1300  33.12882731 -117.28318663 349.1 tie_down jets|turboprops|props|fighters G62
1301 A general_aviation 
1300  33.12900616 -117.28212442 349.1 tie_down jets|turboprops|props|fighters G56
1301 A general_aviation 
1300  33.12918270 -117.28107865 349.1 tie_down jets|turboprops|props|fighters G50
1301 A general_aviation 
1300  33.12935949 -117.28002724 349.1 tie_down jets|turboprops|props|fighters G44
1301 A general_aviation 
1300  33.12953374 -117.27897874 349.1 tie_down jets|turboprops|props|fighters G38
1301 A general_aviation 
1300  33.12971051 -117.27792791 349.1 tie_down jets|turboprops|props|fighters G32
1301 A general_aviation 
1300  33.12805969 -117.27498338 349.1 tie_down jets|turboprops|props|fighters G17
1301 A general_aviation 
1300  33.12698027 -117.27477072 258.7 tie_down jets|turboprops|props|fighters G4
1301 A general_aviation 
1300  33.12823560 -117.27393094 349.1 tie_down jets|turboprops|props|fighters G23
1301 A general_aviation 
1300  33.12885726 -117.28300116 349.1 tie_down jets|turboprops|props|fighters G61
1301 A general_aviation 
1300  33.12903612 -117.28193896 349.1 tie_down jets|turboprops|props|fighters G55
1301 A general_aviation 
1300  33.12921265 -117.28089318 349.1 tie_down jets|turboprops|props|fighters G49
1301 A general_aviation 
1300  33.12938944 -117.27984177 349.1 tie_down jets|turboprops|props|fighters G43
1301 A general_aviation 
1300  33.12956369 -117.27879327 349.1 tie_down jets|turboprops|props|fighters G37
1301 A general_aviation 
1300  33.12974046 -117.27774245 349.1 tie_down jets|turboprops|props|fighters G31
1301 A general_aviation 
1300  33.12808964 -117.27479791 349.1 tie_down jets|turboprops|props|fighters G18
1301 A general_aviation 
1300  33.12713534 -117.27480796 258.7 tie_down jets|turboprops|props|fighters G5
1301 A general_aviation 
1300  33.12740691 -117.27413703 258.7 tie_down jets|turboprops|props|fighters G12
1301 A general_aviation 
1300  33.12734665 -117.27447403 258.7 tie_down jets|turboprops|props|fighters G9
1301 A general_aviation 
1300  33.12826477 -117.27375790 349.1 tie_down jets|turboprops|props|fighters G24
1301 A general_aviation 
1300  33.12888643 -117.28282812 349.1 tie_down jets|turboprops|props|fighters G60
1301 A general_aviation 
1300  33.12906528 -117.28176592 349.1 tie_down jets|turboprops|props|fighters G54
1301 A general_aviation 
1300  33.12924182 -117.28072014 349.1 tie_down jets|turboprops|props|fighters G48
1301 A general_aviation 
1300  33.12941861 -117.27966873 349.1 tie_down jets|turboprops|props|fighters G42
1301 A general_aviation 
1300  33.12959286 -117.27862023 349.1 tie_down jets|turboprops|props|fighters G36
1301 A general_aviation 
1300  33.12976963 -117.27756940 349.1 tie_down jets|turboprops|props|fighters G30
1301 A general_aviation 
1300  33.12811881 -117.27462487 349.1 tie_down jets|turboprops|props|fighters G19
1301 A general_aviation 
1300  33.12728002 -117.27484417 258.7 tie_down jets|turboprops|props|fighters G6
1301 A general_aviation 
1300  33.12761000 -117.27381708 258.7 tie_down jets|turboprops|props|fighters G15
1301 A general_aviation 
1300  33.12755072 -117.27417531 258.7 tie_down jets|turboprops|props|fighters G13
1301 A general_aviation 
1300  33.12749046 -117.27451230 258.7 tie_down jets|turboprops|props|fighters G10
1301 A general_aviation 
1300  33.12829567 -117.27358587 349.1 tie_down jets|turboprops|props|fighters G25
1301 A general_aviation 
1300  33.12891734 -117.28265610 349.1 tie_down jets|turboprops|props|fighters G59
1301 A general_aviation 
1300  33.12909619 -117.28159389 349.1 tie_down jets|turboprops|props|fighters G53
1301 A general_aviation 
1300  33.12927273 -117.28054811 349.1 tie_down jets|turboprops|props|fighters G47
1301 A general_aviation 
1300  33.12944951 -117.27949670 349.1 tie_down jets|turboprops|props|fighters G41
1301 A general_aviation 
1300  33.12962377 -117.27844820 349.1 tie_down jets|turboprops|props|fighters G35
1301 A general_aviation 
1300  33.12980054 -117.27739738 349.1 tie_down jets|turboprops|props|fighters G29
1301 A general_aviation 
1300  33.12814971 -117.27445285 349.1 tie_down jets|turboprops|props|fighters G20
1301 A general_aviation 
1300  33.12742383 -117.27488244 258.7 tie_down jets|turboprops|props|fighters G7
1301 A general_aviation 
1300  33.12774996 -117.27385284 258.7 tie_down jets|turboprops|props|fighters G16
1301 A general_aviation 
1300  33.12769068 -117.27421106 258.7 tie_down jets|turboprops|props|fighters G14
1301 A general_aviation 
1300  33.12763042 -117.27454805 258.7 tie_down jets|turboprops|props|fighters G11
1301 A general_aviation 
1300  33.12832450 -117.27341847 349.1 tie_down jets|turboprops|props|fighters G26
1301 A general_aviation 
1300  33.12894616 -117.28248869 349.1 tie_down jets|turboprops|props|fighters G58
1301 A general_aviation 
1300  33.12912502 -117.28142648 349.1 tie_down jets|turboprops|props|fighters G52
1301 A general_aviation 
1300  33.12930156 -117.28038071 349.1 tie_down jets|turboprops|props|fighters G46
1301 A general_aviation 
1300  33.12947834 -117.27932930 349.1 tie_down jets|turboprops|props|fighters G40
1301 A general_aviation 
1300  33.12965259 -117.27828079 349.1 tie_down jets|turboprops|props|fighters G34
1301 A general_aviation 
1300  33.12982936 -117.27722997 349.1 tie_down jets|turboprops|props|fighters G28
1301 A general_aviation 
1300  33.12817854 -117.27428544 349.1 tie_down jets|turboprops|props|fighters G21
1301 A general_aviation 
1300  33.12756379 -117.27491819 258.7 tie_down jets|turboprops|props|fighters G8
1301 A general_aviation 
1300  33.12716025 -117.27776934 171.3 tie_down jets|turboprops|props|fighters G86
1301 A general_aviation 
1300  33.12770355 -117.27613281 -100.9 gate jets|turboprops|props|fighters G3
1301 B airline 
1300  33.12749023 -117.27607918 -100.9 gate jets|turboprops|props|fighters G2
1301 B airline 
1300  33.12728688 -117.27602406 -100.9 gate jets|turboprops|props|fighters G1
1301 B airline 
1300  33.12612643 -117.28400763 -190.0 gate jets|turboprops|props|fighters 101
1301 C cargo 
1300  33.12606987 -117.28535471 -138.8 gate jets|turboprops|props|fighters C1
1301 C cargo 
1300  33.12605940 -117.28448785 -190.0 gate jets|turboprops|props|fighters 100
1301 C airline 
1300  33.12629371 -117.27688014 -131.2 gate jets|turboprops|props|fighters 1
1301 B airline 
1200 
1201  33.12494824 -117.27960401 both 0 _stop
1201  33.12841481 -117.27313055 both 1 _stop
1201  33.12831600 -117.27300542 both 2 _stop
1201  33.12816929 -117.27301436 both 3 _stop
1201  33.12807356 -117.27314313 both 4 _stop
1201  33.12800217 -117.27349526 both 5 _stop
1201  33.12759233 -117.27359422 both 6 _start
1201  33.12796578 -117.27369772 both 7 _split
1201  33.12740969 -117.27391165 both 8 _start
1201  33.12790363 -117.27404356 both 9 _split
1201  33.12730550 -117.27423770 both 10 _start
1201  33.12784191 -117.27438702 both 11 _split
1201  33.12700190 -117.27454445 both 12 _start
1201  33.12777774 -117.27474414 both 13 _split
1201  33.12691416 -117.27500677 both 14 _stop
1201  33.12819554 -117.27532776 both 15 _split
1201  33.12769537 -117.27520246 both 16 _split
1201  33.12703682 -117.28024159 both 17 _stop
1201  33.12744455 -117.27748660 both 18 _split
1201  33.12705742 -117.28010237 both 19 _split
1201  33.12525802 -117.28284475 both 20 _stop
1201  33.12668255 -117.28054116 both 21 _stop
1201  33.12616820 -117.27717671 both 22 _start
1201  33.12659244 -117.27647553 both 23 _stop
1201  33.12733713 -117.27550243 both 24 _stop
1201  33.12813361 -117.27569915 both 25 _split
1201  33.12716497 -117.27613999 both 26 _stop
1201  33.12798228 -117.27660671 both 27 _stop
1201  33.12802202 -117.27636836 both 28 _split
1201  33.12723731 -117.28122064 both 29 _stop
1201  33.12732107 -117.28070184 both 30 _split
1201  33.12740462 -117.28018441 both 31 _split
1201  33.12746653 -117.27980096 both 32 _split
1201  33.12769617 -117.27837870 both 33 _split
1201  33.12782528 -117.27757905 both 34 _split
1201  33.12795015 -117.27680567 both 35 _split
1201  33.12682408 -117.28379276 both 36 _stop
1201  33.12690643 -117.28328018 both 37 _split
1201  33.12633434 -117.28696580 both 38 _stop
1201  33.12632928 -117.28724424 both 39 _stop
1201  33.12635908 -117.28741677 both 40 _split
1201  33.12963106 -117.27672393 both 41 _split
1201  33.12895396 -117.28367656 both 42 _split
1201  33.13005986 -117.27684234 both 43 _split
1201  33.12965134 -117.27659845 both 44 _stop
1201  33.12852304 -117.28357926 both 45 _split
1201  33.12864007 -117.28285518 both 46 _split
1201  33.12904807 -117.28033088 both 47 _split
1201  33.12838637 -117.27921355 both 48 _split
1201  33.12912541 -117.27236771 both 49 _stop
1201  33.12857614 -117.27304535 both 50 _split
1201  33.12946624 -117.27252984 both 51 _split
1201  33.12949335 -117.27236206 both 52 06/24_split
1201  33.13030293 -117.27255407 both 53 _split
1201  33.12799242 -117.27869758 both 54 _stop
1201  33.12809331 -117.27905589 both 55 _stop
1201  33.12826777 -117.27994763 both 56 _split
1201  33.12812656 -117.27922587 both 57 _split
1201  33.12783204 -117.27960881 both 58 _stop
1201  33.12804416 -117.27934625 both 59 _stop
1201  33.12745717 -117.28269097 both 60 _stop
1201  33.12696358 -117.28292446 both 61 _split
1201  33.12791281 -117.28214462 both 62 _split
1201  33.12846404 -117.27873287 both 63 06/24_split
1201  33.12914979 -117.27448851 both 64 06/24_split
1201  33.12836560 -117.27430796 both 65 _split
1201  33.12853041 -117.27331961 both 66 _split
1201  33.12647859 -117.28765461 both 67 _stop
1201  33.12667519 -117.28780287 both 68 _stop
1201  33.12951154 -117.27224946 both 69 _stop
1201  33.12697451 -117.28795213 both 70 _start
1201  33.12698766 -117.28787071 both 71 06/24_split
1201  33.12782782 -117.28267067 both 72 06/24_split
1202 31 19 twoway taxiway_B 
1202 19 0 twoway taxiway_B 
1202 1 66 twoway taxiway_A 
1202 2 1 twoway taxiway_A 
1202 3 2 twoway taxiway_A 
1202 4 3 twoway taxiway_A 
1202 5 4 twoway taxiway_A 
1202 16 13 twoway taxiway_A 
1202 13 11 twoway taxiway_A 
1202 11 9 twoway taxiway_A 
1202 9 7 twoway taxiway_A 
1202 7 5 twoway taxiway_A 
1202 6 7 twoway taxiway_A 
1202 8 9 twoway taxiway_A 
1202 10 11 twoway taxiway_A 
1202 12 13 twoway taxiway_A 
1202 15 16 twoway taxiway_A 
1202 16 14 twoway taxiway_A 
1202 18 19 twoway taxiway_A 
1202 19 17 twoway taxiway_A 
1202 37 20 twoway taxiway_A 
1202 30 21 twoway taxiway_B 
1202 22 18 twoway taxiway_B 
1202 18 34 twoway taxiway_B 
1202 35 23 twoway taxiway_B 
1202 25 24 twoway taxiway_B 
1202 28 26 twoway taxiway_B 
1202 27 28 twoway taxiway_C 
1202 28 25 twoway taxiway_C 
1202 25 15 twoway taxiway_C 
1202 15 65 twoway taxiway_C 
1202 65 66 twoway taxiway_C 
1202 66 50 twoway taxiway_C 
1202 29 30 twoway taxiway_C 
1202 30 31 twoway taxiway_C 
1202 31 32 twoway taxiway_C 
1202 32 33 twoway taxiway_C 
1202 33 34 twoway taxiway_C 
1202 34 35 twoway taxiway_C 
1202 35 27 twoway taxiway_C 
1202 36 37 twoway taxiway_C 
1202 37 61 twoway taxiway_C 
1202 61 29 twoway taxiway_C 
1202 38 36 twoway taxiway_C 
1202 39 38 twoway taxiway_C 
1202 40 39 twoway taxiway_C 
1202 41 43 twoway taxiway_A 
1202 45 42 twoway taxiway_A 
1202 43 42 twoway taxiway_A 
1202 44 53 twoway taxiway_A 
1202 45 46 twoway taxiway_A 
1202 46 47 twoway taxiway_A 
1202 47 41 twoway taxiway_A 
1202 41 44 twoway taxiway_A 
1202 46 72 twoway taxiway_A 
1204 departure 06,24
1204 arrival 06,24
1202 48 47 twoway taxiway_A 
1204 departure 06,24
1204 arrival 06,24
1202 52 53 twoway taxiway_A 
1204 departure 06,24
1204 arrival 06,24
1202 49 50 twoway taxiway_C 
1204 departure 06,24
1204 arrival 06,24
1202 51 49 twoway taxiway_C 
1204 departure 06,24
1204 arrival 06,24
1202 64 65 twoway taxiway_C 
1204 departure 06,24
1204 arrival 06,24
1202 54 33 twoway taxiway_C 
1204 departure 06,24
1204 arrival 06,24
1202 55 54 twoway taxiway_C 
1204 departure 06,24
1204 arrival 06,24
1202 56 57 twoway taxiway_C 
1204 departure 06,24
1204 arrival 06,24
1202 57 55 twoway taxiway_C 
1204 departure 06,24
1204 arrival 06,24
1202 58 32 twoway taxiway_C 
1204 departure 06,24
1204 arrival 06,24
1202 59 58 twoway taxiway_C 
1204 departure 06,24
1204 arrival 06,24
1202 63 57 twoway taxiway_C 
1204 departure 06,24
1204 arrival 06,24
1202 57 59 twoway taxiway_C 
1204 departure 06,24
1204 arrival 06,24
1202 60 61 twoway taxiway_C 
1204 departure 06,24
1204 arrival 06,24
1202 62 60 twoway taxiway_C 
1204 departure 06,24
1204 arrival 06,24
1202 67 40 twoway taxiway_C 
1204 departure 06,24
1204 arrival 06,24
1202 68 67 twoway taxiway_C 
1204 departure 06,24
1204 arrival 06,24
1202 71 68 twoway taxiway_C 
1204 departure 06,24
1204 arrival 06,24
1202 70 71 twoway runway 06/24
1204 departure 06,24
1204 arrival 06,24
1204 ils 06,24
1202 71 72 twoway runway 06/24
1204 departure 06,24
1204 arrival 06,24
1204 ils 06,24
1202 72 62 twoway runway 06/24
1204 departure 06,24
1204 arrival 06,24
1204 ils 06,24
1202 62 56 twoway runway 06/24
1204 departure 06,24
1204 arrival 06,24
1204 ils 06,24
1202 56 48 twoway runway 06/24
1204 departure 06,24
1204 arrival 06,24
1204 ils 06,24
1202 48 63 twoway runway 06/24
1204 departure 06,24
1204 arrival 06,24
1204 ils 06,24
1202 63 64 twoway runway 06/24
1204 departure 06,24
1204 arrival 06,24
1204 ils 06,24
1202 64 51 twoway runway 06/24
1204 departure 06,24
1204 arrival 06,24
1204 ils 06,24
1202 51 52 twoway runway 06/24
1204 departure 06,24
1204 arrival 06,24
1204 ils 06,24
1202 52 69 twoway runway 06/24
1204 departure 06,24
1204 arrival 06,24
1204 ils 06,24
99
