I
1130 Generated by WorldEditor 2.4.1r2

1    689 0 0 VTPM MaeSot intl
1302 city Mae Sot
1302 country Thailand
1302 datum_lat 16.699833333
1302 datum_lon 098.543483333
1302 faa_code 
1302 gui_label 3D
1302 iata_code MAQ
1302 icao_code VTPM
1302 region_code VT
1302 state Tak Province
1302 transition_alt 11000
1302 transition_level 13000
1302 flatten 1
100 41.00 1 1 0.50 1 2 1  09  16.69978319  098.54025784 408 0 3 6 1 1 27  16.70007300  098.55998682 0 0 2 6 1 1
110 2 0.00 90.0 New Taxiway 6
111  16.70144826  098.54471425
111  16.70147638  098.54642195
111  16.70223797  098.54640972
113  16.70221789  098.54470603
110 1 0.00 90.0 New Taxiway 3
111  16.70110488  098.54257093
111  16.70111132  098.54289063
112  16.70108856  098.54304385  16.70106737  098.54308728
112  16.70102970  098.54314299  16.70101322  098.54316184
112  16.70096143  098.54321100  16.70093867  098.54322821
112  16.70087275  098.54325033  16.70085156  098.54325524
112  16.70073698  098.54327819  16.70071343  098.54328064
111  16.70061238  098.54328710
112  16.70053999  098.54328324  16.70052182  098.54328087
111  16.70040138  098.54326770
112  16.70034269  098.54325617  16.70032849  098.54325233
112  16.70022228  098.54319052  16.70017127  098.54314272
112  16.70013879  098.54309017  16.70012838  098.54307074
112  16.70009842  098.54299463  16.70009464  098.54298396
111  16.70009048  098.54295788
111  16.70015537  098.54695839
112  16.70016773  098.54681104  16.70017378  098.54676955
112  16.70020822  098.54671107  16.70021958  098.54669210
112  16.70028028  098.54663009  16.70030571  098.54661065
112  16.70037020  098.54658030  16.70039972  098.54657034
112  16.70047012  098.54655612  16.70050509  098.54654948
111  16.70056731  098.54654237
112  16.70103560  098.54650795  16.70109906  098.54650455
111  16.70143267  098.54649775
111  16.70242200  098.54647467
111  16.70239284  098.54455218
111  16.70220490  098.54454731
111  16.70204141  098.54463455
111  16.70187979  098.54463507
112  16.70182224  098.54460398  16.70180099  098.54457269
111  16.70180644  098.54454196
113  16.70178668  098.54255999
111  16.70111698  098.54396387
112  16.70112298  098.54401508  16.70112461  098.54403499
111  16.70112570  098.54416928
111  16.70112734  098.54429332
112  16.70112025  098.54436103  16.70111208  098.54439346
112  16.70108156  098.54445889  16.70106357  098.54449076
112  16.70099164  098.54457838  16.70096112  098.54460570
112  16.70084285  098.54463528  16.70078454  098.54464495
112  16.70067663  098.54465520  16.70062322  098.54465804
112  16.70048831  098.54464238  16.70043708  098.54463384
112  16.70028830  098.54459515  16.70024470  098.54457068
112  16.70016894  098.54447509  16.70014823  098.54444209
112  16.70011737  098.54433947  16.70011465  098.54429736
111  16.70011292  098.54407728
112  16.70012313  098.54395962  16.70013566  098.54391239
112  16.70021911  098.54378897  16.70028691  098.54372703
112  16.70035567  098.54371393  16.70039726  098.54370328
112  16.70053774  098.54367870  16.70061465  098.54367788
112  16.70076768  098.54368853  16.70086342  098.54369918
112  16.70097957  098.54374425  16.70103058  098.54377866
114  16.70108317  098.54386387  16.70110671  098.54391057
111  16.70084848  098.54504261
111  16.70105597  098.54505393
112  16.70119971  098.54508083  16.70124853  098.54510490
112  16.70133668  098.54520260  16.70136923  098.54527905
112  16.70138702  098.54542349  16.70139172  098.54549396
111  16.70139251  098.54568487
112  16.70137917  098.54584382  16.70136033  098.54590363
112  16.70131874  098.54597328  16.70129284  098.54601916
112  16.70124732  098.54605685  16.70121358  098.54607816
112  16.70111940  098.54610437  16.70106996  098.54611994
112  16.70089260  098.54613223  16.70082118  098.54613633
111  16.70065171  098.54613762
112  16.70046728  098.54613188  16.70041862  098.54612369
112  16.70027187  098.54606060  16.70024048  098.54602619
112  16.70017455  098.54592377  16.70015807  098.54587789
112  16.70014159  098.54576154  16.70014002  098.54571074
111  16.70013610  098.54539611
112  16.70015572  098.54529451  16.70017848  098.54524781
112  16.70023184  098.54515112  16.70026716  098.54510770
112  16.70031660  098.54508148  16.70035349  098.54506427
113  16.70051358  098.54505854
110 1 0.00 90.0 New Taxiway 2
111  16.69979895  098.55999000
111  16.69980756  098.56055708
111  16.70035094  098.56055708
111  16.70034561  098.56005859
111  16.70048216  098.56005941
111  16.70046943  098.55929322
111  16.70035293  098.55909887
112  16.70033658  098.55906141  16.70033159  098.55904766
113  16.70032679  098.55899946
110 1 0.00 90.0 New Taxiway 1
111  16.69935599  098.53867985
112  16.69947753  098.53881527  16.69950151  098.53889436
111  16.69950156  098.53901036
111  16.69951115  098.54021409
111  16.69937539  098.54021865
111  16.69938948  098.54089667
112  16.69939137  098.54094013  16.69939402  098.54095317
111  16.69940263  098.54096543
111  16.69952124  098.54118128
111  16.69950839  098.54026224
111  16.69998553  098.54025460
111  16.70005250  098.54025352
111  16.70003200  098.53888847
112  16.70003750  098.53881801  16.70003985  098.53879670
112  16.70005241  098.53875738  16.70005869  098.53874017
111  16.70008145  098.53871805
111  16.70016335  098.53864836
111  16.70014432  098.53745865
113  16.69933726  098.53747040
130 Airport Boundary 10
111  16.69814288  098.53694099
111  16.69683345  098.54163039
111  16.69752960  098.54317045
111  16.69764813  098.54688412
111  16.69785372  098.56351912
111  16.70101111  098.56436200
111  16.70210867  098.56417513
111  16.70190983  098.54849816
111  16.70277023  098.54853293
111  16.70277657  098.54802293
111  16.70359994  098.54799272
111  16.70422957  098.54699662
111  16.70380875  098.54618834
111  16.70508884  098.54544519
111  16.70328837  098.54184044
111  16.70266380  098.54223411
111  16.70220418  098.54169166
111  16.70206429  098.54172643
111  16.70089859  098.54046072
111  16.70040180  098.53752788
111  16.70029579  098.53729647
113  16.70011873  098.53720605
120 Linear Feature 5
111  16.70064096  098.54360337 62 104
115  16.70063720  098.54336275
120 Linear Feature 4
111  16.70066416  098.54496794 62 104
115  16.70065921  098.54473785
120 Linear Feature 3
111  16.70068792  098.54645050 62 104
115  16.70068637  098.54622629
120 Linear Feature 5
111  16.70130310  098.54483158 60
115  16.70155007  098.54482202
120 Linear Feature 4
111  16.70004113  098.54402481 53 102
112  16.70005863  098.54391822  16.70007096  098.54387960 53 102
112  16.70011980  098.54379049  16.70015062  098.54374731 53 102
112  16.70020581  098.54370082  16.70023284  098.54367953 53 102
112  16.70030634  098.54364883  16.70032910  098.54364042 53 102
112  16.70043058  098.54362210  16.70048416  098.54361715 53 102
111  16.70061460  098.54360644 53 102
112  16.70066109  098.54360847  16.70067623  098.54360950 53 102
111  16.70089606  098.54362952 53 102
112  16.70095506  098.54364305  16.70097735  098.54365048 53 102
112  16.70101623  098.54368365  16.70102477  098.54369058 53 102
112  16.70109400  098.54375395  16.70113715  098.54380345
111  16.70109400  098.54375395
112  16.70109400  098.54375395  16.70111249  098.54377516 53 102
112  16.70113757  098.54381470  16.70114859  098.54383394
111  16.70113757  098.54381470
112  16.70113757  098.54381470  16.70115227  098.54384036 53 102
112  16.70116892  098.54388563  16.70117624  098.54390714
111  16.70116892  098.54388563
112  16.70116892  098.54388563  16.70118172  098.54392326 53 102
112  16.70119405  098.54400346  16.70119879  098.54405544 53 102
112  16.70119785  098.54415644  16.70119879  098.54419753 53 102
111  16.70119858  098.54430591 53 102
112  16.70119337  098.54436482  16.70118815  098.54439898 53 102
112  16.70116539  098.54446037  16.70114974  098.54449800 53 102
112  16.70110944  098.54455691  16.70109237  098.54457968 53 102
112  16.70101413  098.54464701  16.70097335  098.54467573 53 102
112  16.70090412  098.54470147  16.70086412  098.54471508 53 102
112  16.70080084  098.54472341  16.70077357  098.54472713 53 102
112  16.70067878  098.54473430  16.70065223  098.54473479 53 102
111  16.70059485  098.54472984 53 102
111  16.70043723  098.54471059 53 102
112  16.70032081  098.54468164  16.70027438  098.54466310 53 102
112  16.70017741  098.54459609  16.70014805  098.54456615 53 102
112  16.70009345  098.54449081  16.70006282  098.54443718 53 102
115  16.70004537  098.54436017
120 Linear Feature 3
111  16.70006120  098.54534836 53 102
112  16.70011761  098.54517527  16.70016503  098.54510266 53 102
112  16.70027151  098.54502517  16.70033710  098.54498804 53 102
111  16.70041516  098.54498352 53 102
111  16.70074909  098.54496771 53 102
112  16.70099097  098.54498003  16.70103463  098.54498249 53 102
112  16.70112654  098.54498399  16.70116000  098.54498541 53 102
112  16.70124399  098.54502177  16.70127949  098.54503959 53 102
112  16.70135187  098.54510803  16.70138670  098.54514653 53 102
112  16.70142767  098.54523778  16.70144405  098.54528554 53 102
112  16.70145430  098.54535255  16.70146113  098.54540674 53 102
111  16.70145908  098.54547232 53 102
111  16.70146420  098.54575909 53 102
112  16.70144355  098.54589357  16.70142585  098.54594695 53 102
112  16.70136489  098.54604242  16.70132359  098.54609580 53 102
112  16.70122920  098.54615124  16.70118397  098.54617588 53 102
112  16.70106106  098.54619230  16.70101976  098.54619743 53 102
111  16.70085064  098.54622104 53 102
112  16.70076018  098.54622720  16.70074248  098.54622720 53 102
111  16.70044750  098.54620565 53 102
112  16.70032214  098.54617601  16.70027503  098.54615320 53 102
112  16.70019855  098.54609046  16.70016577  098.54605838 53 102
112  16.70011183  098.54596642  16.70009135  098.54592293 53 102
115  16.70007154  098.54585307
120 Linear Feature 2
111  16.70002452  098.54287013 53 102
111  16.70002370  098.54296338 53 102
112  16.70002859  098.54300487  16.70003491  098.54302880 53 102
112  16.70005823  098.54309893  16.70007325  098.54312822 53 102
112  16.70011276  098.54318433  16.70012778  098.54320207 53 102
112  16.70019219  098.54326230  16.70021392  098.54327880 53 102
112  16.70027121  098.54330718  16.70030763  098.54332322 53 102
112  16.70037022  098.54333926  16.70039811  098.54334520 53 102
111  16.70043339  098.54334401 53 102
111  16.70058574  098.54336212 53 102
111  16.70064964  098.54335899 53 102
111  16.70081244  098.54333997 53 102
112  16.70090438  098.54331866  16.70095733  098.54330092 53 102
112  16.70103399  098.54324357  16.70106600  098.54321717 53 102
112  16.70113712  098.54311692  16.70117664  098.54305132 53 102
111  16.70118059  098.54296592 53 102
111  16.70117757  098.54263672 53 102
111  16.70171337  098.54263425 53 102
111  16.70173639  098.54449323 53 102
112  16.70174648  098.54461351  16.70175738  098.54465262 53 102
112  16.70179959  098.54468629  16.70183183  098.54470857 53 102
111  16.70185905  098.54470886 53 102
111  16.70221154  098.54471028 53 102
111  16.70224072  098.54640762 53 102
111  16.70079697  098.54643808 53 102
111  16.70043443  098.54648775 53 102
112  16.70038116  098.54649774  16.70035931  098.54650486 53 102
112  16.70025894  098.54655976  16.70022343  098.54658542 53 102
112  16.70013107  098.54671015  16.70008683  098.54679313 53 102
115  16.70008716  098.54685766
120 Linear Feature 11
111  16.70021050  098.54348385 60 105
112  16.70008806  098.54351704  16.70003084  098.54354378
111  16.70008806  098.54351704
112  16.70008806  098.54351704  16.70006426  098.54352816 60 105
112  16.70002249  098.54355479  16.70000236  098.54356900
111  16.70002249  098.54355479
112  16.70002249  098.54355479  16.70000288  098.54356863 60 105
112  16.69996732  098.54360198  16.69994995  098.54361975
111  16.69996732  098.54360198
112  16.69996732  098.54360198  16.69995965  098.54360982 60 105
112  16.69994473  098.54362685  16.69993732  098.54363561
111  16.69994473  098.54362685
112  16.69994473  098.54362685  16.69992434  098.54365095 60 105
112  16.69989546  098.54370194  16.69988274  098.54372677
111  16.69989546  098.54370194
112  16.69989546  098.54370194  16.69988234  098.54372755 60 105
112  16.69986625  098.54377081  16.69985961  098.54378988
111  16.69986625  098.54377081
112  16.69986625  098.54377081  16.69985317  098.54380836 60 105
112  16.69984827  098.54385047  16.69984500  098.54387266 60 105
111  16.69984445  098.54393126 60 105
111  16.69984713  098.54443832 60 105
112  16.69989791  098.54461733  16.69994197  098.54468135 60 105
112  16.70000419  098.54474441  16.70005097  098.54478139 60 105
112  16.70011638  098.54480963  16.70014911  098.54482297 60 105
115  16.70022736  098.54483747
120 Linear Feature 10
111  16.70154744  098.54456616 60 101
112  16.70150994  098.54468152  16.70148200  098.54473100
111  16.70150994  098.54468152
112  16.70150994  098.54468152  16.70149916  098.54470061 60 101
112  16.70148160  098.54472596  16.70147312  098.54473720
111  16.70148160  098.54472596
112  16.70148160  098.54472596  16.70146809  098.54474385 60 101
112  16.70144101  098.54476641  16.70142596  098.54477832
111  16.70144101  098.54476641
112  16.70144101  098.54476641  16.70141651  098.54478581 60 101
112  16.70137826  098.54480582  16.70135066  098.54482064 60 101
115  16.70130283  098.54483216
120 Linear Feature 9
111  16.70155610  098.54509048 60 101
112  16.70150944  098.54495398  16.70147682  098.54490470
111  16.70150944  098.54495398
112  16.70150944  098.54495398  16.70147682  098.54490470 60 101
112  16.70141472  098.54486567  16.70136502  098.54483481 60 101
111  16.70130291  098.54483182 60 101
111  16.70066773  098.54483429 60 105
111  16.70022686  098.54483742 60 105
112  16.70004594  098.54490163  16.69996812  098.54495489 60 105
112  16.69993215  098.54501702  16.69990664  098.54505184 60 105
112  16.69987525  098.54513924  16.69986217  098.54518226 60 105
111  16.69985955  098.54527648 60 105
111  16.69987460  098.54590601 60 105
112  16.69988065  098.54597134  16.69988622  098.54600919
111  16.69988065  098.54597134
112  16.69988065  098.54597134  16.69988330  098.54598936 60 105
112  16.69989257  098.54603064  16.69989804  098.54605153
111  16.69989257  098.54603064
112  16.69989257  098.54603064  16.69989879  098.54605444 60 105
112  16.69991841  098.54610129  16.69992966  098.54612368
111  16.69991841  098.54610129
112  16.69991841  098.54610129  16.69993593  098.54613616 60 105
112  16.69996589  098.54618160  16.69997960  098.54620090
111  16.69996589  098.54618160
112  16.69996589  098.54618160  16.69998493  098.54620841 60 105
112  16.70000474  098.54622761  16.70001044  098.54623317
111  16.70000474  098.54622761
112  16.70000474  098.54622761  16.70001067  098.54623339 60 105
112  16.70004842  098.54626504  16.70006974  098.54628148
111  16.70004842  098.54626504
112  16.70004842  098.54626504  16.70006237  098.54627579 60 105
112  16.70009499  098.54629657  16.70011156  098.54630606
111  16.70009499  098.54629657
112  16.70009499  098.54629657  16.70013688  098.54632057 60 105
112  16.70019440  098.54633822  16.70022768  098.54634760 60 105
115  16.70025030  098.54635278
120 Linear Feature 8
111  16.69982188  098.54251448 60 105
111  16.69982973  098.54303313 60 105
112  16.69984294  098.54316612  16.69985112  098.54319884 60 105
112  16.69989336  098.54328514  16.69992515  098.54334488
111  16.69989336  098.54328514
112  16.69989336  098.54328514  16.69991144  098.54331255 60 105
112  16.69994240  098.54335038  16.69995731  098.54336719
111  16.69994240  098.54335038
112  16.69994240  098.54335038  16.69995895  098.54336904 60 105
112  16.69998918  098.54339372  16.70000424  098.54340494
111  16.69998918  098.54339372
112  16.69998918  098.54339372  16.70001780  098.54341506 60 105
112  16.70007832  098.54344748  16.70012274  098.54346824 60 105
112  16.70017642  098.54347934  16.70018482  098.54348163 60 105
111  16.70020978  098.54348413 60 105
111  16.70064901  098.54347466 60 101
111  16.70156547  098.54345490 60 101
112  16.70158209  098.54348488  16.70158736  098.54350885
111  16.70158209  098.54348488
112  16.70158209  098.54348488  16.70158387  098.54349297 60 101
112  16.70158468  098.54351574  16.70158441  098.54352838
111  16.70158468  098.54351574
112  16.70158468  098.54351574  16.70158441  098.54352816 60 101
112  16.70158138  098.54354699  16.70157955  098.54355557
111  16.70158138  098.54354699
112  16.70158138  098.54354699  16.70157585  098.54357301 60 101
112  16.70155689  098.54359313  16.70154910  098.54360254
111  16.70155689  098.54359313
112  16.70155689  098.54359313  16.70154653  098.54360564 60 101
111  16.70153236  098.54361759 60 101
111  16.70157115  098.54605957 60 101
112  16.70152827  098.54619206  16.70149034  098.54624873
111  16.70152827  098.54619206
112  16.70152827  098.54619206  16.70151958  098.54620504 60 101
112  16.70150279  098.54622594  16.70149451  098.54623566
111  16.70150279  098.54622594
112  16.70150279  098.54622594  16.70147491  098.54625866 60 101
112  16.70142952  098.54628629  16.70140935  098.54629787
111  16.70142952  098.54628629
112  16.70142952  098.54628629  16.70140336  098.54630131 60 101
112  16.70136019  098.54631496  16.70133534  098.54631906 60 101
111  16.70130264  098.54632111 60 101
111  16.70069638  098.54633934 60 105
111  16.70025065  098.54635275 60 105
112  16.70012543  098.54638748  16.70006876  098.54641536
111  16.70012543  098.54638748
112  16.70012543  098.54638748  16.70010668  098.54639670 60
112  16.70007683  098.54641439  16.70006274  098.54642342
111  16.70007683  098.54641439
112  16.70007683  098.54641439  16.70004833  098.54643266 60
112  16.70000118  098.54648136  16.69997565  098.54651030
111  16.70000118  098.54648136
112  16.70000118  098.54648136  16.69998254  098.54650249 60 105
112  16.69995319  098.54654470  16.69993988  098.54656551
111  16.69995319  098.54654470
112  16.69995319  098.54654470  16.69993926  098.54656648 60 105
112  16.69992052  098.54660711  16.69991271  098.54662660
111  16.69992052  098.54660711
112  16.69992052  098.54660711  16.69990526  098.54664523 60 105
112  16.69989436  098.54670156  16.69989000  098.54672773 60 105
111  16.69989054  098.54675106 60 105
115  16.69989550  098.54731982
120 Linear Feature 7
111  16.69979978  098.54070179 60 105
112  16.69984338  098.54059596  16.69984938  098.54052597
111  16.69984338  098.54059596
112  16.69984338  098.54059596  16.69984648  098.54055985 60 105
112  16.69983356  098.54050860  16.69982589  098.54048626
111  16.69983356  098.54050860
112  16.69983356  098.54050860  16.69982636  098.54048764 60 105
112  16.69981048  098.54046250  16.69980392  098.54045256
111  16.69981048  098.54046250
112  16.69981048  098.54046250  16.69980292  098.54045104 60 105
112  16.69976843  098.54041938  16.69974954  098.54040421
111  16.69976843  098.54041938
112  16.69976843  098.54041938  16.69975347  098.54040737 60 105
112  16.69971967  098.54038893  16.69970291  098.54038168
111  16.69971967  098.54038893
112  16.69971967  098.54038893  16.69971016  098.54038482 60 105
112  16.69968812  098.54038091  16.69967646  098.54037958
111  16.69968812  098.54038091
112  16.69968812  098.54038091  16.69967645  098.54037958 60 105
112  16.69965139  098.54038044  16.69963927  098.54038136
111  16.69965139  098.54038044
112  16.69965139  098.54038044  16.69962732  098.54038227 60 105
112  16.69958820  098.54039552  16.69957235  098.54040304
111  16.69958820  098.54039552
112  16.69958820  098.54039552  16.69957541  098.54040159 60 105
112  16.69955489  098.54041645  16.69954579  098.54042355
111  16.69955489  098.54041645
112  16.69955489  098.54041645  16.69954137  098.54042701 60 105
111  16.69953300  098.54043613 60 105
111  16.69953789  098.54085579 60 105
112  16.69954584  098.54092217  16.69955492  098.54094904 60 105
111  16.69956779  098.54097432 60 105
111  16.69974838  098.54128901 60 105
112  16.69975910  098.54131103  16.69976514  098.54132397
111  16.69975910  098.54131103
112  16.69975910  098.54131103  16.69976727  098.54132854 60 105
112  16.69978298  098.54137176  16.69978799  098.54139041
111  16.69978298  098.54137176
112  16.69978298  098.54137176  16.69978651  098.54138488 60 105
112  16.69978927  098.54141940  16.69979020  098.54143603
111  16.69978927  098.54141940
112  16.69978927  098.54141940  16.69979064  098.54144387 60 105
111  16.69979006  098.54146564 60 105
115  16.69979732  098.54199643
21  16.70067105  098.54648762 6 179.7 3.00 New Light Fixture 5
21  16.70063966  098.54363244 6 180.0 3.00 New Light Fixture 4
21  16.70063429  098.54333832 6 180.0 3.00 New Light Fixture 4
21  16.70065270  098.54470422 6 180.0 3.00 New Light Fixture 4
21  16.70065839  098.54500627 6 180.0 3.00 New Light Fixture 4
21  16.70067240  098.54619285 6 180.0 3.00 New Light Fixture 4
21  16.69957473  098.55715386 2 269.4 3.00 New Light Fixture 3
21  16.69952691  098.54975869 3 90.0 3.00 New Light Fixture 7
14  16.70192483  098.54332978 197 0 MaeSot intl
1300  16.70211545  098.54596123 -0.7 gate jets|turboprops|props 3
1301 C airline 
1300  16.70216962  098.54543636 0.8 gate jets|turboprops|props 2
1301 D airline 
1300  16.70209269  098.54481903 0.0 gate jets|turboprops|props 1
1301 C airline 
1300  16.70154183  098.54421234 268.8 gate jets|turboprops|props 2
1301 C airline 
1300  16.70153758  098.54394397 88.8 gate jets|turboprops|props 1
1301 C airline 
1200 
1201  16.70007298  098.55998683 both 0 _stop
1201  16.69983352  098.54051367 both 1 A_stop
1201  16.69966759  098.54038291 both 2 A_stop
1201  16.69978569  098.54043204 both 3 A_split
1201  16.69978988  098.54071317 both 4 09/27_split
1201  16.69953312  098.54043606 both 5 A_stop
1201  16.69953816  098.54085518 both 6 A_stop
1201  16.69954954  098.54093366 both 7 A_stop
1201  16.69958130  098.54099765 both 8 A_stop
1201  16.69974797  098.54128823 both 9 A_stop
1201  16.69977852  098.54135795 both 10 A_stop
1201  16.69978945  098.54142064 both 11 A_stop
1201  16.69982296  098.54296418 both 12 A_stop
1201  16.69982275  098.54295442 both 13 A_split
1201  16.69985047  098.54484129 both 14 09/27_split
1201  16.69987288  098.54636673 both 15 09/27_split
1201  16.69994836  098.54335958 both 16 A_stop
1201  16.69985326  098.54318202 both 17 A_split
1201  16.70020920  098.54348371 both 18 A_stop
1201  16.70007635  098.54344331 both 19 A_split
1201  16.70140827  098.54345803 both 20 A_stop
1201  16.70064581  098.54347436 both 21 A_split
1201  16.70150833  098.54351702 both 22 A_stop
1201  16.70147685  098.54347782 both 23 A_split
1201  16.70153241  098.54361756 both 24 A_stop
1201  16.70152770  098.54357028 both 25 A_split
1201  16.70157107  098.54604853 both 26 A_stop
1201  16.70155156  098.54482171 both 27 A_split
1201  16.70066604  098.54483190 both 28 B_split
1201  16.70148847  098.54624045 both 29 A_stop
1201  16.70155094  098.54614782 both 30 A_split
1201  16.70130615  098.54632092 both 31 A_stop
1201  16.70141558  098.54629368 both 32 A_split
1201  16.70069672  098.54633890 both 33 A_start
1201  16.69978313  098.54025783 both 34 _start
1202 33 15 twoway taxiway_C C
1204 departure 09,27
1204 arrival 09,27
1204 ils 09,27
1202 27 28 twoway taxiway_C B
1202 28 14 twoway taxiway_C B
1204 departure 09,27
1204 arrival 09,27
1204 ils 09,27
1202 34 3 twoway runway 09/27
1204 departure 09,27
1204 arrival 09,27
1204 ils 09,27
1202 3 4 twoway runway 09/27
1204 departure 09,27
1204 arrival 09,27
1204 ils 09,27
1202 4 13 twoway runway 09/27
1204 departure 09,27
1204 arrival 09,27
1204 ils 09,27
1202 13 14 twoway runway 09/27
1204 departure 09,27
1204 arrival 09,27
1204 ils 09,27
1202 14 15 twoway runway 09/27
1204 departure 09,27
1204 arrival 09,27
1204 ils 09,27
1202 15 0 twoway runway 09/27
1204 departure 09,27
1204 arrival 09,27
1204 ils 09,27
1202 1 4 oneway taxiway_C A
1203  16.69987544  098.54060834
1203  16.69978988  098.54071317
1204 departure 09,27
1204 arrival 09,27
1204 ils 09,27
1202 2 3 oneway taxiway_C A
1203  16.69972289  098.54038695
1203  16.69975740  098.54039995
1204 departure 09,27
1204 arrival 09,27
1204 ils 09,27
1202 3 1 oneway taxiway_C A
1203  16.69980284  098.54045149
1203  16.69981770  098.54047795
1204 departure 09,27
1204 arrival 09,27
1204 ils 09,27
1202 5 2 twoway taxiway_C A
1203  16.69953312  098.54043606
1203  16.69957878  098.54037643
1204 departure 09,27
1204 arrival 09,27
1204 ils 09,27
1202 6 5 oneway taxiway_C A
1204 departure 09,27
1204 arrival 09,27
1204 ils 09,27
1202 7 6 oneway taxiway_C A
1203  16.69953726  098.54090177
1203  16.69953816  098.54085518
1204 departure 09,27
1204 arrival 09,27
1204 ils 09,27
1202 8 7 oneway taxiway_C A
1203  16.69958130  098.54099765
1203  16.69956182  098.54096556
1204 departure 09,27
1204 arrival 09,27
1204 ils 09,27
1202 9 8 oneway taxiway_C A
1204 departure 09,27
1204 arrival 09,27
1204 ils 09,27
1202 10 9 oneway taxiway_C A
1203  16.69976834  098.54132356
1203  16.69974797  098.54128823
1204 departure 09,27
1204 arrival 09,27
1204 ils 09,27
1202 11 10 oneway taxiway_C A
1203  16.69978945  098.54142064
1203  16.69978870  098.54139235
1204 departure 09,27
1204 arrival 09,27
1204 ils 09,27
1202 12 13 twoway taxiway_C A
1204 departure 09,27
1204 arrival 09,27
1204 ils 09,27
1202 13 11 oneway taxiway_C A
1204 departure 09,27
1204 arrival 09,27
1204 ils 09,27
1202 16 17 oneway taxiway_C A
1203  16.69990107  098.54331741
1203  16.69987161  098.54324964
1204 departure 09,27
1204 arrival 09,27
1204 ils 09,27
1202 17 12 oneway taxiway_C A
1203  16.69982364  098.54307290
1203  16.69982296  098.54296418
1204 departure 09,27
1204 arrival 09,27
1204 ils 09,27
1202 18 19 oneway taxiway_C A
1203  16.70020920  098.54348371
1203  16.70015105  098.54347783
1204 departure 09,27
1204 arrival 09,27
1204 ils 09,27
1202 19 16 oneway taxiway_C A
1203  16.70003631  098.54342480
1203  16.69999151  098.54339806
1204 departure 09,27
1204 arrival 09,27
1204 ils 09,27
1202 20 21 twoway taxiway_C A
1202 21 18 twoway taxiway_C A
1204 departure 09,27
1204 arrival 09,27
1204 ils 09,27
1202 22 23 twoway taxiway_C A
1203  16.70150022  098.54350032
1203  16.70148893  098.54348641
1202 23 20 twoway taxiway_C A
1203  16.70144528  098.54345538
1203  16.70140827  098.54345803
1202 24 25 twoway taxiway_C A
1203  16.70153241  098.54361756
1203  16.70153472  098.54359984
1202 25 22 twoway taxiway_C A
1203  16.70152414  098.54355530
1203  16.70151819  098.54353730
1202 26 27 twoway taxiway_C A
1202 27 24 twoway taxiway_C A
1202 29 30 twoway taxiway_C A
1203  16.70151939  098.54620989
1203  16.70153879  098.54617730
1202 30 26 twoway taxiway_C A
1203  16.70157364  098.54609276
1203  16.70157107  098.54604853
1202 31 32 twoway taxiway_C A
1203  16.70130615  098.54632092
1203  16.70135310  098.54632650
1202 32 29 twoway taxiway_C A
1203  16.70143832  098.54628174
1203  16.70146313  098.54626470
1202 33 31 twoway taxiway_C A
99
