I
1130 Generated by WorldEditor 2.4.1r2

1    250 0 0 LERI Alcantarilla
1302 city Alcantarilla
1302 country Spain
1302 datum_lat 37.952222222
1302 datum_lon -1.230833333
1302 faa_code 
1302 gui_label 2D
1302 iata_code 
1302 icao_code LERI
1302 region_code LE
1302 state Murcia
1302 transition_alt 6000
1302 transition_level 
100 45.00 1 0 0.00 0 0 1  07  37.95061000 -001.23577000 0 0 2 0 0 0 25  37.95408000 -001.22605000 0 0 2 0 0 0
110 1 0.00 0.0 New Taxiway 138
111  37.95850861 -001.22845896
112  37.95828896 -001.22844549  37.95822797 -001.22845777
112  37.95811978 -001.22850385  37.95808203 -001.22852103
112  37.95801482 -001.22848376  37.95798390 -001.22846169
112  37.95820051 -001.22834116  37.95820826 -001.22833256
114  37.95839295 -001.22826612  37.95839876 -001.22826735
110 1 0.00 0.0 New Taxiway 122
111  37.95779285 -001.23068669
111  37.95671459 -001.23313206
111  37.95659492 -001.23301821
112  37.95654000 -001.23302187  37.95649953 -001.23306953
111  37.95647351 -001.23312086
111  37.95645327 -001.23316852
111  37.95578262 -001.23269558
111  37.95604299 -001.23218636
111  37.95668706 -001.23267434
111  37.95674142 -001.23267611
111  37.95717359 -001.23174257
111  37.95709692 -001.23168776
111  37.95704952 -001.23177617
111  37.95692266 -001.23170014
111  37.95707740 -001.23139780
111  37.95724748 -001.23151096
112  37.95730778 -001.23147112  37.95734167 -001.23139336
111  37.95744203 -001.23113114
112  37.95743088 -001.23103743  37.95738488 -001.23101975
111  37.95724408 -001.23088891
113  37.95744901 -001.23040800
110 1 0.00 0.0 New Taxiway 117
111  37.95769884 -001.22760869
111  37.95857300 -001.22830821
111  37.95851056 -001.22843580
112  37.95832671 -001.22834781  37.95828855 -001.22833901
112  37.95818102 -001.22845780  37.95813245 -001.22851499
111  37.95800063 -001.22847540
111  37.95784453 -001.22879656
111  37.95801104 -001.22898134
111  37.95798329 -001.22910893
111  37.95837181 -001.22935530
111  37.95776474 -001.23068834
111  37.95685936 -001.23001082
111  37.95689751 -001.22991403
111  37.95666163 -001.22970726
113  37.95715074 -001.22881857
110 2 0.00 326.0 New Taxiway 3
111  37.95502031 -001.22705870
111  37.95534710 -001.22639557
111  37.95727155 -001.22791523
111  37.95750031 -001.22753761
111  37.95768057 -001.22771161
113  37.95715173 -001.22881321
110 1 0.00 328.0 New Taxiway 9
111  37.95726429 -001.22793824
111  37.95534104 -001.22640667
111  37.95539580 -001.22629474
111  37.95724977 -001.22776784
111  37.95744268 -001.22749118
113  37.95750646 -001.22754005
110 1 0.00 327.0 New Taxiway 2
111  37.95425053 -001.22613773 3 102
111  37.95497310 -001.22669492
112  37.95497310 -001.22669492  37.95509711 -001.22680643 3 102
111  37.95528508 -001.22652915 102
111  37.95503483 -001.22707252 3 102
111  37.95446839 -001.22662585
112  37.95446839 -001.22662585  37.95422715 -001.22648574 3 102
113  37.95398909 -001.22692977 102
130 Airport Boundary 1
111  37.95138371 -001.23856074
111  37.94918439 -001.23634882
111  37.94977593 -001.23036702
111  37.95070635 -001.22932166
111  37.95159507 -001.22621913
111  37.95425042 -001.22482760
111  37.95529700 -001.22605859
111  37.95640424 -001.22677025
111  37.95808786 -001.22398130
111  37.96015068 -001.22569314
113  37.95408358 -001.23881079
120 Linear Feature 14
111  37.95463694 -001.22643839 4 104
115  37.95453214 -001.22666059
120 Linear Feature 13
111  37.95702245 -001.22847711 1 101
111  37.95718750 -001.22815476 1 101
112  37.95711818 -001.22799149  37.95702594 -001.22791351
111  37.95711818 -001.22799149 1 101
111  37.95568798 -001.22683854
112  37.95568798 -001.22683854  37.95557320 -001.22675276 1 101
111  37.95547273 -001.22697634
112  37.95547273 -001.22697634  37.95534770 -001.22716609 1 101
111  37.95503528 -001.22688630 1 101
111  37.95446422 -001.22646348
112  37.95446422 -001.22646348  37.95400789 -001.22618670 1 101
115  37.95385684 -001.22668118
1300  37.95567847 -001.22735280 238.3 gate jets 6
1301 B military 
1300  37.95593457 -001.22760428 238.0 gate jets 5
1301 B general_aviation 
1300  37.95613858 -001.22781539 236.5 gate jets 4
1301 B general_aviation 
1300  37.95637072 -001.22796024 -126.0 gate jets 3
1301 A general_aviation 
1300  37.95659090 -001.22810365 237.5 gate jets 2
1301 A general_aviation 
1300  37.95679014 -001.22827497 237.9 gate jets 1
1301 A general_aviation 
1054 118100 TWR
1200 
1201  37.95403384 -001.22642384 both 0 N_stop
1201  37.95435423 -001.22640245 both 1 N_stop
1201  37.95458790 -001.22654605 both 2 N_stop
1201  37.95512751 -001.22695238 both 3 N_stop
1201  37.95546236 -001.22697071 both 4 N_stop
1201  37.95568880 -001.22683934 both 5 N_stop
1201  37.95714623 -001.22802475 both 6 N_start
1201  37.95071290 -001.23547194 both 7 N_stop
1201  37.95388713 -001.22660630 both 8 07/25_split
1201  37.95396900 -001.22637763 both 9 N_start
1202 0 8 twoway taxiway_B None
1204 departure 07,25
1204 arrival 07,25
1202 1 0 twoway taxiway_B None
1204 departure 07,25
1204 arrival 07,25
1202 2 1 twoway taxiway_B None
1202 3 2 twoway taxiway_B None
1202 4 3 twoway taxiway_B None
1202 5 4 twoway taxiway_B None
1202 6 5 twoway taxiway_B None
1202 7 8 twoway runway 07/25
1204 departure 07,25
1204 arrival 07,25
1204 ils 07,25
1202 8 9 twoway runway 07/25
1204 departure 07,25
1204 arrival 07,25
1204 ils 07,25
99
