I
1130 Generated by WorldEditor 2.4.1r2

1    485 0 0 SKVP valledupar
1302 city Valledupar
1302 country Colombia
1302 datum_lat 10.435130556
1302 datum_lon -73.249397222
1302 faa_code 
1302 gui_label 3D
1302 iata_code VUP
1302 icao_code SKVP
1302 region_code SK
1302 state César Department
1302 transition_alt 18000
1302 transition_level 19000
100 45.00 1 0 0.80 1 2 1  02  10.42579049 -073.25103794 0 0 3 12 0 0 20  10.44445727 -073.24775991 0 0 3 12 0 0
110 1 0.00 0.0 New Taxiway 1
111  10.43341533 -073.24886466
111  10.43223387 -073.24970153
111  10.43186431 -073.24976810
113  10.43307164 -073.24891681
110 1 0.00 0.0 New Taxiway 3
111  10.42582530 -073.25124086
111  10.42579422 -073.25124661
111  10.42572708 -073.25084618
111  10.42569533 -073.25065679 102
111  10.42636853 -073.25054442 102
111  10.42654727 -073.25064875
111  10.42660354 -073.25069138
113  10.42575947 -073.25083835
110 2 0.00 0.0 New Taxiway 2
111  10.42579422 -073.25124661 106
111  10.42511547 -073.25136099 106
111  10.42501823 -073.25077773 106
113  10.42569533 -073.25065679
110 1 0.20 0.0 New Taxiway 1
111  10.43351280 -073.24947358
112  10.43356920 -073.24942836  10.43356703 -073.24942505
111  10.43359849 -073.24939196
111  10.43362669 -073.24933571
111  10.43364079 -073.24928939
111  10.43365055 -073.24925189
111  10.43365164 -073.24918462
111  10.43363971 -073.24912506
111  10.43361368 -073.24906109
111  10.43358005 -073.24900594
111  10.43352923 -073.24894854
111  10.43345579 -073.24890534
111  10.43339498 -073.24889021
111  10.43334783 -073.24888172
111  10.43332907 -073.24888101
111  10.43328915 -073.24888714
111  10.43258634 -073.24900592
111  10.43253352 -073.24874232
111  10.43265540 -073.24871785
111  10.43258787 -073.24828366
111  10.43263524 -073.24824855
111  10.43281683 -073.24820655
111  10.43282996 -073.24824399
111  10.43427953 -073.24796756
111  10.43428694 -073.24802341
111  10.43440923 -073.24869125
111  10.43410402 -073.24874641
111  10.43403707 -073.24876384
111  10.43399958 -073.24877758
111  10.43396253 -073.24880019
111  10.43392025 -073.24883964
111  10.43388755 -073.24888485
111  10.43386620 -073.24893094
111  10.43385225 -073.24897881
111  10.43384266 -073.24904707
111  10.43384701 -073.24910868
111  10.43387317 -073.24918846
111  10.43391458 -073.24926869
111  10.43396863 -073.24932232
111  10.43401222 -073.24935113
111  10.43405451 -073.24936930
113  10.43407499 -073.24937506
110 2 0.00 0.0 New Taxiway 5
111  10.43474887 -073.24925729
112  10.43476675 -073.24922743  10.43476803 -073.24922613
112  10.43478016 -073.24918198  10.43478016 -073.24917873
111  10.43477814 -073.24911605
111  10.43457127 -073.24785046
111  10.43436910 -073.24827347
111  10.43450677 -073.24832409
111  10.43465071 -073.24833964
111  10.43466138 -073.24840415
111  10.43461527 -073.24838860
111  10.43448563 -073.24836335
111  10.43452425 -073.24850453
111  10.43452333 -073.24855595
111  10.43448655 -073.24862700
111  10.43444333 -073.24866066
111  10.43440196 -073.24867095
111  10.43438724 -073.24860176
111  10.43443230 -073.24861205
111  10.43446816 -073.24858680
111  10.43448838 -073.24853725
111  10.43449298 -073.24850266
111  10.43444241 -073.24835587
111  10.43434495 -073.24833718
111  10.43431369 -073.24818478
111  10.43434035 -073.24818946
111  10.43436518 -073.24814832
111  10.43449574 -073.24786504
111  10.43448930 -073.24778089
111  10.43461251 -073.24775939
111  10.43473906 -073.24848630
111  10.43483580 -073.24910716
111  10.43485766 -073.24916625
111  10.43489011 -073.24920791
113  10.43490980 -073.24922901
110 1 0.00 0.0 New Taxiway 4
111  10.44449145 -073.24796113 102
111  10.44452317 -073.24813158 102
111  10.44389077 -073.24823927 102
113  10.44368050 -073.24810309
110 2 0.00 0.0 New Taxiway 21
111  10.43422916 -073.24797962
111  10.43419777 -073.24761317
111  10.43427621 -073.24760372
111  10.43426787 -073.24755789
111  10.43434810 -073.24754388
111  10.43437556 -073.24772177
111  10.43426953 -073.24774237
113  10.43428272 -073.24796933
110 2 0.00 0.0 New Taxiway 11
111  10.43306377 -073.24820492
111  10.43282863 -073.24824595
111  10.43281344 -073.24819623
111  10.43279768 -073.24819754
111  10.43278950 -073.24816673
111  10.43286547 -073.24814626
111  10.43288236 -073.24813768
111  10.43288365 -073.24812975
111  10.43287976 -073.24811589
111  10.43285443 -073.24810796
111  10.43282586 -073.24811127
111  10.43275314 -073.24813570
111  10.43271641 -073.24815514
111  10.43262216 -073.24816313
111  10.43259747 -073.24803649
111  10.43295847 -073.24795484
111  10.43297340 -073.24799709
111  10.43293509 -073.24800502
111  10.43295953 -073.24810986
111  10.43296276 -073.24813409
111  10.43322846 -073.24805541
113  10.43324415 -073.24814345
110 1 0.00 0.0 New Taxiway 8
111  10.43438349 -073.24745730
111  10.43434713 -073.24750386
111  10.43429193 -073.24752713
111  10.43425692 -073.24753398
111  10.43314164 -073.24772216
111  10.43311336 -073.24754828
111  10.43309901 -073.24753544
111  10.43307888 -073.24754072
111  10.43305096 -073.24754931
111  10.43302368 -073.24756449
111  10.43292979 -073.24763642
111  10.43291483 -073.24767160
111  10.43290174 -073.24772199
111  10.43290641 -073.24773435
111  10.43295831 -073.24795764
111  10.43268498 -073.24801514
111  10.43265805 -073.24784126
111  10.43280077 -073.24781936
111  10.43278596 -073.24774405
111  10.43279269 -073.24772078
111  10.43282204 -073.24770940
111  10.43280212 -073.24768929
111  10.43279162 -073.24768579
111  10.43276806 -073.24770010
111  10.43262204 -073.24778822
111  10.43257254 -073.24781861
111  10.43253705 -073.24778209
111  10.43270263 -073.24768085
111  10.43284386 -073.24759391
111  10.43300501 -073.24749377
111  10.43303119 -073.24746620
111  10.43307887 -073.24738348
111  10.43309664 -073.24721329
111  10.43312469 -073.24717336
111  10.43315679 -073.24713536
111  10.43318114 -073.24711831
111  10.43329010 -073.24708867
111  10.43332041 -073.24707547
111  10.43335720 -073.24703365
111  10.43337121 -073.24699591
111  10.43351946 -073.24697356
111  10.43351834 -073.24700550
111  10.43354078 -073.24702946
111  10.43357332 -073.24704886
111  10.43386955 -073.24699067
111  10.43408274 -073.24695302
111  10.43417924 -073.24694161
111  10.43424545 -073.24696899
111  10.43429369 -073.24700094
111  10.43433521 -073.24705570
111  10.43437224 -073.24712986
111  10.43439468 -073.24722456
111  10.43441937 -073.24730443
111  10.43441712 -073.24737403
113  10.43440254 -073.24742879
111  10.43346852 -073.24708060
111  10.43346874 -073.24707375
111  10.43344003 -073.24702908
111  10.43343438 -073.24702223
111  10.43342524 -073.24702223
111  10.43342155 -073.24702400
111  10.43341872 -073.24703085
111  10.43340893 -073.24706733
111  10.43340502 -073.24708392
111  10.43340415 -073.24708856
111  10.43340828 -073.24709298
111  10.43341256 -073.24709385
113  10.43346700 -073.24708352
111  10.43425735 -073.24713163
111  10.43425479 -073.24709831
111  10.43424390 -073.24706730
111  10.43422097 -073.24704407
111  10.43420037 -073.24704159
111  10.43418268 -073.24704927
111  10.43390078 -073.24709037
111  10.43363055 -073.24713379
111  10.43336371 -073.24718045
111  10.43323668 -073.24720370
111  10.43319384 -073.24723321
111  10.43318019 -073.24726485
111  10.43317601 -073.24729756
111  10.43317481 -073.24731903
111  10.43320791 -073.24744780
111  10.43321124 -073.24749026
111  10.43321312 -073.24751801
111  10.43321838 -073.24754934
111  10.43324393 -073.24758029
111  10.43326685 -073.24758984
111  10.43330130 -073.24758664
111  10.43330197 -073.24759502
111  10.43423027 -073.24742746
111  10.43423978 -073.24742331
111  10.43427062 -073.24739855
111  10.43428469 -073.24735949
111  10.43427753 -073.24730661
111  10.43426694 -073.24726433
111  10.43425482 -073.24723880
113  10.43424752 -073.24718067
110 2 0.00 0.0 New Taxiway 40
111  10.43448328 -073.24846999
111  10.43437570 -073.24850463
111  10.43435325 -073.24838766
113  10.43444530 -073.24835543
130 Airport Boundary 6
111  10.44585355 -073.25011944
111  10.43066024 -073.25093075
111  10.43022362 -073.25096565
111  10.43026203 -073.25118577
111  10.42461673 -073.25216820
111  10.42457940 -073.25212437
111  10.42469100 -073.25074545
111  10.42474945 -073.25068127
111  10.42484986 -073.25061396
111  10.42509197 -073.25045704
111  10.42518116 -073.25042019
111  10.42526483 -073.25040056
111  10.42575475 -073.25030568
111  10.42658985 -073.25016843
111  10.42734029 -073.25004513
111  10.42805413 -073.24992183
111  10.42818739 -073.24988779
111  10.42819509 -073.24987733
111  10.42819129 -073.24984126
111  10.42815785 -073.24885566
111  10.42818122 -073.24879792
111  10.42821776 -073.24874783
111  10.42825590 -073.24870906
111  10.42832263 -073.24867352
111  10.42846086 -073.24861051
111  10.42865787 -073.24857336
111  10.42908104 -073.24848320
111  10.42919909 -073.24848319
111  10.42935010 -073.24854182
111  10.42950934 -073.24865069
111  10.42960263 -073.24870948
111  10.42970150 -073.24867911
111  10.43076581 -073.24835628
111  10.43154273 -073.24810520
111  10.43248565 -073.24780916
111  10.43252881 -073.24777738
111  10.43300333 -073.24748620
111  10.43306616 -073.24738302
111  10.43309622 -073.24719041
111  10.43316183 -073.24712144
111  10.43322015 -073.24709813
111  10.43331167 -073.24707022
111  10.43333865 -073.24703277
111  10.43336144 -073.24699066
111  10.43353047 -073.24696664
111  10.43353365 -073.24698766
111  10.43439383 -073.24683708
111  10.43451210 -073.24753303
111  10.43457880 -073.24751840
111  10.43459696 -073.24754761
111  10.43510023 -073.24746260
111  10.43601009 -073.24734749
111  10.44134275 -073.24649389
111  10.44555391 -073.24583346
113  10.44580337 -073.24579782
120 Linear Feature 5
111  10.43296196 -073.24909193 10
111  10.43174695 -073.24995835 10
115  10.43143337 -073.25002208
120 Linear Feature 12
111  10.43257195 -073.24781715 20
111  10.43279090 -073.24768362 20
111  10.43280172 -073.24768704 20
111  10.43282440 -073.24771010 20
111  10.43279568 -073.24772169 20
111  10.43278781 -073.24774444 20
115  10.43280271 -073.24781905
120 Linear Feature 10
111  10.44327451 -073.24797997 10
111  10.44358295 -073.24792396 10
111  10.44394597 -073.24812076 10
111  10.44428542 -073.24807383 10
112  10.44434348 -073.24772715  10.44420532 -073.24751581 10
111  10.44385962 -073.24784978 10
115  10.44368989 -073.24787854
120 Linear Feature 9
111  10.42707500 -073.25078573 10
111  10.42660334 -073.25086203 10
111  10.42613168 -073.25067492 10
111  10.42595660 -073.25070944 10
112  10.42591798 -073.25078755  10.42591177 -073.25081592
111  10.42591798 -073.25078755
112  10.42591798 -073.25078755  10.42592903 -073.25087400 10
112  10.42612632 -073.25101644  10.42633853 -073.25091212
111  10.42612632 -073.25101644
112  10.42612632 -073.25101644  10.42619637 -073.25099315 10
112  10.42630677 -073.25094862  10.42635617 -073.25093368
111  10.42630677 -073.25094862
112  10.42630677 -073.25094862  10.42645750 -073.25091683 10
115  10.42651758 -073.25091108
120 Linear Feature 4
111  10.43324749 -073.24886162 10 101
116  10.43319757 -073.24880881  10.43316843 -073.24881027
120 Linear Feature 8
111  10.43266040 -073.24888462 24
115  10.43264526 -073.24881658
120 Linear Feature 8
111  10.43266226 -073.24888403 24
115  10.43264711 -073.24881599
120 Linear Feature 7
111  10.43269716 -073.24880766 24
115  10.43259198 -073.24882964
120 Linear Feature 7
111  10.43269693 -073.24880578 24
115  10.43259175 -073.24882775
120 Linear Feature 6
111  10.43271556 -073.24887188 24
115  10.43260480 -073.24889209
120 Linear Feature 6
111  10.43271595 -073.24887375 24
115  10.43260514 -073.24889386
120 Linear Feature 3
111  10.43296749 -073.24908760 10 101
111  10.43324749 -073.24886162 10 101
116  10.43331687 -073.24878633  10.43334879 -073.24876569
120 Linear Feature 2
111  10.43291674 -073.24903303 4
115  10.43300967 -073.24914388
120 Linear Feature 10
111  10.43423674 -073.24747674 20
111  10.43428793 -073.24746298 20
111  10.43432029 -073.24743366 20
111  10.43434206 -073.24739596 20
111  10.43434736 -073.24733912 20
111  10.43432912 -073.24724818 20
111  10.43431794 -073.24733254 20
111  10.43431794 -073.24739237 20
111  10.43430205 -073.24741810 20
113  10.43427498 -073.24745280 20
120 Linear Feature 9
111  10.43316328 -073.24730469 20
111  10.43316550 -073.24724403 20
111  10.43318669 -073.24720670 20
111  10.43323753 -073.24718085 20
111  10.43329755 -073.24716433 20
111  10.43349385 -073.24713346 20
111  10.43371486 -073.24709828 20
111  10.43391681 -073.24705735 20
111  10.43415901 -073.24702002 20
115  10.43420067 -073.24702433
120 Linear Feature 8
111  10.43329533 -073.24759691 20
111  10.43325084 -073.24759260 20
111  10.43322683 -073.24757753 20
111  10.43321271 -073.24755240 20
111  10.43320353 -073.24747198 20
115  10.43320565 -073.24744398
120 Linear Feature 7
111  10.43351325 -073.24697862 20
111  10.43351266 -073.24701153 20
111  10.43356915 -073.24705461 20
111  10.43367271 -073.24703486 20
111  10.43401435 -073.24697173 20
111  10.43415549 -073.24695058 20
111  10.43422245 -073.24696461 20
111  10.43428070 -073.24699871 20
111  10.43433366 -073.24706273 20
111  10.43437250 -073.24715069 20
111  10.43440015 -073.24726437 20
111  10.43440957 -073.24737506 20
111  10.43438780 -073.24744087 20
111  10.43432660 -073.24750429 20
115  10.43426658 -073.24752165
120 Linear Feature 6
111  10.43314111 -073.24768273 20
111  10.43311757 -073.24754572 20
111  10.43310336 -073.24753424 20
111  10.43308974 -073.24753279 20
111  10.43302820 -073.24755509 20
111  10.43298445 -073.24758538 20
111  10.43292315 -073.24763548 20
111  10.43289844 -073.24770130 20
115  10.43289962 -073.24772882
120 Linear Feature 5
111  10.43342399 -073.24709512 20
111  10.43340672 -073.24709580 20
111  10.43340059 -073.24708624 20
111  10.43341967 -073.24702232 20
111  10.43342771 -073.24701992 20
111  10.43343670 -073.24702088 20
111  10.43347170 -073.24707402 20
113  10.43346815 -073.24708604 20
120 Linear Feature 4
111  10.43253952 -073.24778230 20
111  10.43265488 -073.24771310 20
111  10.43285866 -073.24758754 20
111  10.43300529 -073.24749653 20
111  10.43303430 -073.24746911 20
111  10.43305759 -073.24742839 20
111  10.43308456 -073.24738227 20
111  10.43310175 -073.24721715 20
111  10.43316481 -073.24713320 20
111  10.43318361 -073.24712364 20
111  10.43330497 -073.24708915 20
111  10.43333685 -073.24706422 20
111  10.43335932 -073.24704054 20
115  10.43337607 -073.24699857
120 Linear Feature 3
111  10.43285797 -073.24771594 22
111  10.43286895 -073.24764647 22
115  10.43288603 -073.24760677
120 Linear Feature 2
111  10.43420862 -073.24748967 22
111  10.43343747 -073.24761622 22
111  10.43323859 -073.24764600 22
111  10.43318368 -073.24761870 22
111  10.43314341 -073.24751697 22
115  10.43312389 -073.24741895
120 Linear Feature 1
111  10.43255837 -073.24779646 22
111  10.43279689 -073.24764972 22
111  10.43300798 -073.24752937 22
111  10.43310193 -073.24745865 22
111  10.43313365 -073.24740779 22
111  10.43312755 -073.24727379 22
111  10.43317392 -073.24717826 22
111  10.43323371 -073.24714849 22
111  10.43345090 -073.24711623 22
111  10.43385843 -073.24703931 22
111  10.43413907 -073.24698099 22
111  10.43425254 -073.24701821 22
111  10.43430379 -073.24712367 22
115  10.43432209 -073.24723409
120 Linear Feature 23
111  10.43379918 -073.24869456 10
111  10.43378816 -073.24868865 10
111  10.43377641 -073.24868060 10
111  10.43377022 -073.24867040 10
115  10.43376515 -073.24866223
120 Linear Feature 43
111  10.43297199 -073.24862602 10
115  10.43296709 -073.24860277
120 Linear Feature 42
111  10.43322112 -073.24836315 10
115  10.43320042 -073.24836698
120 Linear Feature 41
111  10.43352163 -073.24830111 10
115  10.43350441 -073.24830442
120 Linear Feature 40
111  10.43375938 -073.24825891 10
115  10.43374865 -073.24826082
120 Linear Feature 39
111  10.43406625 -073.24820697 10
115  10.43404756 -073.24821059
120 Linear Feature 38
111  10.43284416 -073.24883351 2
111  10.43282312 -073.24883142 2
115  10.43280766 -073.24883074
120 Linear Feature 37
111  10.43283646 -073.24879228 2
111  10.43282800 -073.24881394 2
111  10.43280567 -073.24883116 2
115  10.43278027 -073.24883820
120 Linear Feature 36
111  10.43286059 -073.24863753 10
115  10.43296919 -073.24861470
120 Linear Feature 35
111  10.43284277 -073.24863628 10
111  10.43282763 -073.24862777 10
111  10.43280999 -073.24861454 10
115  10.43280333 -073.24860682
120 Linear Feature 34
112  10.43281961 -073.24869408  10.43281996 -073.24869281 10
111  10.43282353 -073.24867615 10
111  10.43282870 -073.24866654 10
115  10.43283565 -073.24865494
120 Linear Feature 33
111  10.43364356 -073.24866294 10
111  10.43363304 -073.24862319 10
111  10.43362047 -073.24860414 10
111  10.43360533 -073.24858849 10
111  10.43359070 -073.24857674 10
111  10.43357710 -073.24856135 10
111  10.43356709 -073.24854726 10
111  10.43356042 -073.24853787 10
115  10.43355358 -073.24851819
120 Linear Feature 32
111  10.43388404 -073.24861825 10
111  10.43388094 -073.24859954 10
111  10.43386739 -073.24857293 10
111  10.43385261 -073.24855477 10
111  10.43383259 -073.24853598 10
111  10.43381874 -073.24852596 10
111  10.43380888 -073.24851031 10
111  10.43379841 -073.24848682 10
115  10.43378971 -073.24846074
120 Linear Feature 31
111  10.43375828 -073.24864133 10
111  10.43375544 -073.24860231 10
111  10.43376221 -073.24857350 10
111  10.43377946 -073.24854188 10
111  10.43378839 -073.24852435 10
111  10.43379239 -073.24850838 10
111  10.43379228 -073.24847751 10
111  10.43378685 -073.24844169 10
115  10.43375471 -073.24826031
120 Linear Feature 30
111  10.43351925 -073.24868764 10
111  10.43351558 -073.24864836 10
111  10.43352379 -073.24861053 10
112  10.43353765 -073.24858705  10.43353816 -073.24858574 10
111  10.43354688 -073.24856487 10
111  10.43355304 -073.24854895 10
111  10.43355534 -073.24852907 10
111  10.43355202 -073.24850799 10
111  10.43353490 -073.24841951 10
115  10.43351351 -073.24830459
120 Linear Feature 29
111  10.43325018 -073.24857154 10
111  10.43325950 -073.24858908 10
111  10.43328336 -073.24862117 10
111  10.43330287 -073.24864204 10
111  10.43332340 -073.24866814 10
111  10.43333392 -073.24868901 10
111  10.43333956 -073.24871275 10
115  10.43334060 -073.24872058
120 Linear Feature 28
112  10.43321514 -073.24874380  10.43321544 -073.24874449 10
111  10.43321164 -073.24870872 10
111  10.43321613 -073.24868023 10
111  10.43322567 -073.24865612 10
111  10.43323676 -073.24864046 10
111  10.43324477 -073.24862167 10
111  10.43324908 -073.24860038 10
111  10.43325090 -073.24857492 10
111  10.43323553 -073.24849330 10
115  10.43321089 -073.24836564
120 Linear Feature 27
111  10.43332887 -073.24878400 10
111  10.43333943 -073.24876972 10
111  10.43334157 -073.24875646 10
115  10.43334187 -073.24874277
120 Linear Feature 26
111  10.43325176 -073.24879755 10
111  10.43323615 -073.24878646 10
111  10.43322912 -073.24877650 10
115  10.43322264 -073.24876366
120 Linear Feature 25
111  10.43356426 -073.24873986 10
111  10.43355072 -073.24873442 10
111  10.43353789 -073.24872446 10
115  10.43352553 -073.24870812
120 Linear Feature 24
111  10.43361399 -073.24873188 10
111  10.43362896 -073.24872065 10
111  10.43363645 -073.24870651 10
111  10.43364179 -073.24869293 10
115  10.43364333 -073.24868473
120 Linear Feature 22
112  10.43385873 -073.24868336  10.43385910 -073.24868311 10
111  10.43386628 -073.24867971 10
112  10.43387172 -073.24867128  10.43387197 -073.24867103 10
112  10.43387841 -073.24866310  10.43387841 -073.24866285 10
111  10.43388200 -073.24865329 10
115  10.43388389 -073.24864035
120 Linear Feature 21
111  10.43406086 -073.24858643 10
111  10.43405771 -073.24854967 10
111  10.43406541 -073.24850901 10
111  10.43407332 -073.24849074 10
111  10.43408517 -073.24846381 10
111  10.43408987 -073.24844837 10
111  10.43409487 -073.24843039 10
115  10.43409621 -073.24841473
120 Linear Feature 20
111  10.43418590 -073.24856243 10
111  10.43417718 -073.24852747 10
111  10.43415460 -073.24849590 10
111  10.43413407 -073.24847268 10
111  10.43411816 -073.24845676 10
111  10.43410071 -073.24843197 10
111  10.43409481 -073.24841032 10
111  10.43407243 -073.24829327 10
111  10.43406259 -073.24823436 10
115  10.43405725 -073.24820942
120 Linear Feature 18
111  10.43410429 -073.24863917 10
111  10.43409163 -073.24863482 10
111  10.43408094 -073.24862377 10
111  10.43407203 -073.24861254 10
115  10.43406954 -073.24860855
120 Linear Feature 17
111  10.43418271 -073.24862515 10
111  10.43418786 -073.24860672 10
115  10.43418901 -073.24858647
120 Linear Feature 8
111  10.43356988 -073.24898005 4
115  10.43385794 -073.24892879
120 Linear Feature 11
111  10.43353494 -073.24946938 53 102
111  10.43356413 -073.24944045 53 102
111  10.43359849 -073.24940438 53 102
111  10.43363692 -073.24932736 53 102
111  10.43364985 -073.24927814 53 102
111  10.43365761 -073.24921953 53 102
111  10.43365059 -073.24915189 53 102
111  10.43364025 -073.24910906 53 102
111  10.43361253 -073.24904707 53 102
111  10.43358334 -073.24900123 53 102
111  10.43354417 -073.24895727 53 102
111  10.43349466 -073.24892082 53 102
111  10.43344154 -073.24889682 53 102
111  10.43338193 -073.24888445 53 102
111  10.43222895 -073.24969981
111  10.43188755 -073.24975699 53 102
111  10.43306886 -073.24892179 53 102
111  10.43277674 -073.24897003 53 102
111  10.43261982 -073.24899520 53 102
111  10.43258981 -073.24899974 53 102
111  10.43253873 -073.24874393 53 102
111  10.43266132 -073.24872056 53 102
115  10.43259300 -073.24829400
120 Linear Feature 47
111  10.43298410 -073.24824660 53
115  10.43427731 -073.24800455
120 Linear Feature 10
111  10.43427957 -073.24800233 53 102
115  10.43440495 -073.24868518
120 Linear Feature 9
111  10.43440495 -073.24868518 53 102
111  10.43417038 -073.24872846 53 102
111  10.43405731 -073.24874966 53 102
111  10.43399583 -073.24877099 53 102
111  10.43394662 -073.24880517 53 102
111  10.43391121 -073.24884170 53 102
111  10.43387246 -073.24889884 53 102
111  10.43385433 -073.24894834 53 102
111  10.43384502 -073.24898666 53 102
111  10.43383597 -073.24904448 53 102
111  10.43383905 -073.24910737 53 102
111  10.43386445 -073.24918642 53 102
111  10.43389910 -073.24925922 53 102
111  10.43393220 -073.24929732 53 102
111  10.43396479 -073.24932706 53 102
111  10.43400215 -073.24935430 53 102
115  10.43406628 -073.24937662
120 Linear Feature 16
111  10.43377510 -073.24869868 10 101
115  10.43359034 -073.24873584
120 Linear Feature 15
111  10.43369168 -073.24881970 10 101
111  10.43368496 -073.24880354 10 101
111  10.43366597 -073.24878032 10 101
111  10.43364520 -073.24876211 10 101
111  10.43361505 -073.24874498 10 101
111  10.43359285 -073.24873541 10 101
111  10.43355097 -073.24874198 10 101
111  10.43290418 -073.24886466 10 101
111  10.43288733 -073.24886421 10 101
111  10.43286206 -073.24885474 10 101
111  10.43284565 -073.24883490 10 101
111  10.43283235 -073.24877178 10 101
115  10.43279960 -073.24858744
120 Linear Feature 14
111  10.43371546 -073.24895030 10 101
111  10.43369129 -073.24881776 10 101
111  10.43370246 -073.24877015 10 101
112  10.43372641 -073.24873174  10.43372853 -073.24873066 10 101
111  10.43374769 -073.24871605 10 101
111  10.43377429 -073.24869873 10 101
115  10.43418256 -073.24862467
120 Linear Feature 13
111  10.43378174 -073.24933889 10 105
111  10.43378216 -073.24937168 10 105
111  10.43378037 -073.24945037 10 105
111  10.43375739 -073.24954971 10 105
112  10.43372466 -073.24961238  10.43372466 -073.24961425 10
111  10.43369524 -073.24963763 10
111  10.43349387 -073.24967970 10
115  10.43340560 -073.24969559
120 Linear Feature 12
111  10.43462635 -073.24948360 10
111  10.43405278 -073.24958215 10
111  10.43395745 -073.24956115 10 105
111  10.43389072 -073.24951430 10 105
111  10.43381918 -073.24943814 10 105
111  10.43378608 -073.24936186 10 105
111  10.43374062 -073.24910459 10 105
115  10.43371764 -073.24895934
120 Linear Feature 60
111  10.43305268 -073.24870210 20
111  10.43288457 -073.24873210 20
111  10.43285181 -073.24853670 20
113  10.43301895 -073.24851027 20
120 Linear Feature 59
111  10.43304978 -073.24870020 20
111  10.43288657 -073.24872914 20
111  10.43285474 -073.24853909 20
113  10.43301697 -073.24851319 20
120 Linear Feature 65
111  10.43427055 -073.24827868 25
111  10.43414543 -073.24819267 25
111  10.43412691 -073.24808880 25
111  10.43419695 -073.24807735 25
111  10.43421985 -073.24808439 25
111  10.43423268 -073.24809718 25
113  10.43423909 -073.24811335 25
120 Linear Feature 64
111  10.43396918 -073.24822679 25
111  10.43390699 -073.24831421 25
111  10.43387472 -073.24813893 25
113  10.43395040 -073.24812453 25
120 Linear Feature 63
111  10.43339304 -073.24841444 25
111  10.43330028 -073.24835038 25
111  10.43328192 -073.24825036 25
113  10.43336015 -073.24823514 25
120 Linear Feature 62
111  10.43310738 -073.24828243 25
111  10.43312639 -073.24838124 25
112  10.43306424 -073.24847288  10.43306424 -073.24847262 25
113  10.43303078 -073.24829553 25
120 Linear Feature 58
111  10.43305122 -073.24870114 30
111  10.43288565 -073.24873052 30
111  10.43285319 -073.24853791 30
113  10.43301785 -073.24851173 30
120 Linear Feature 53
111  10.43306275 -073.24848005 32
115  10.43302755 -073.24829402
120 Linear Feature 52
111  10.43310605 -073.24871384 32
111  10.43307825 -073.24871904 32
111  10.43299963 -073.24829833 32
115  10.43311092 -073.24827858
120 Linear Feature 51
111  10.43343879 -073.24865248 32
111  10.43336274 -073.24823164 32
115  10.43327817 -073.24824773
120 Linear Feature 48
111  10.43394810 -073.24855843 32
111  10.43387129 -073.24813579 32
115  10.43395305 -073.24812112
120 Linear Feature 46
111  10.43389420 -073.24843798 32
111  10.43344602 -073.24852268 32
111  10.43343004 -073.24844253 32
111  10.43329723 -073.24835228 32
111  10.43327817 -073.24824773 32
111  10.43310970 -073.24827883 32
111  10.43312928 -073.24838273 32
111  10.43306275 -073.24848005 32
111  10.43310605 -073.24871384 32
111  10.43346833 -073.24864736 32
115  10.43344602 -073.24852268
120 Linear Feature 49
111  10.43368627 -073.24847656 32
111  10.43362820 -073.24818072 32
111  10.43360227 -073.24818582 32
115  10.43365952 -073.24848274
120 Linear Feature 45
111  10.43431041 -073.24849162 32
111  10.43427128 -073.24828282 32
111  10.43414298 -073.24819520 32
111  10.43412327 -073.24808984 32
111  10.43395305 -073.24812112 32
111  10.43397282 -073.24822787 32
111  10.43390418 -073.24832418 32
111  10.43388080 -073.24835838 32
113  10.43391752 -073.24856344 32
120 Linear Feature 70
111  10.43429378 -073.24824182 22
115  10.43425992 -073.24807665
120 Linear Feature 69
111  10.43433814 -073.24848460 22
115  10.43429930 -073.24826818
120 Linear Feature 68
111  10.43292727 -073.24828569 22
115  10.43408760 -073.24806920
120 Linear Feature 67
111  10.43265640 -073.24833745 22
115  10.43287929 -073.24829552
120 Linear Feature 66
111  10.43268939 -073.24871889 22
115  10.43263671 -073.24842077
120 Linear Feature 44
111  10.43266647 -073.24872869 24
111  10.43260086 -073.24831882 24
111  10.43305544 -073.24823858 24
111  10.43427660 -073.24800937 24
111  10.43436294 -073.24848338 24
111  10.43431290 -073.24849183 24
111  10.43424073 -073.24810478 24
111  10.43423008 -073.24808573 24
111  10.43421153 -073.24807684 24
111  10.43419794 -073.24807410 24
111  10.43416928 -073.24807765 24
111  10.43360471 -073.24818285 24
111  10.43270426 -073.24835205 24
111  10.43267617 -073.24836300 24
111  10.43266553 -073.24837491 24
111  10.43265842 -073.24838975 24
111  10.43265714 -073.24841611 24
111  10.43266623 -073.24846317 24
113  10.43271342 -073.24872008 24
120 Linear Feature 22
111  10.43361097 -073.24844312 10
111  10.43347366 -073.24846986 10
111  10.43346460 -073.24841898 10
113  10.43360191 -073.24839223 10
120 Linear Feature 21
111  10.43385135 -073.24839729 10
111  10.43371277 -073.24842519 10
111  10.43370239 -073.24837319 10
113  10.43384097 -073.24834530 10
21  10.44142480 -073.24782455 3 188.3 3.00 New Light Fixture 4
21  10.42834872 -073.25100269 2 10.4 3.00 New Light Fixture 3
20  10.43391223 -073.24903330 279.0 0 2 {@R}02-20{@L}A
20  10.43315654 -073.24947986 11.3 0 2 {@Y}A{^r}
20  10.43354080 -073.24910032 278.2 0 2 {@L}A{@R}02-20
20  10.43442797 -073.24925387 188.9 0 2 {@Y,^l}A
14  10.43298137 -073.24782925 82 0 valledupar
1300  10.43297229 -073.24861454 12.6 tie_down jets|turboprops|props GA 05
1301 A general_aviation 
1300  10.43321036 -073.24836130 102.8 tie_down jets|turboprops GA 04
1301 C airline 
1300  10.43351351 -073.24830459 100.5 tie_down jets|turboprops|props GA 03
1301 B general_aviation 
1300  10.43375462 -073.24826072 99.1 tie_down jets|turboprops|props GA 02
1301 B general_aviation 
1300  10.43405716 -073.24821135 100.6 tie_down heavy|jets|turboprops GA 01
1301 C airline 
19  10.43542804 -073.24849518 0 New Windsock 7
19  10.42718641 -073.25156018 0 New Windsock 6
19  10.44487806 -073.24924391 0 New Windsock 5
1200 
1201  10.43280873 -073.24865014 both 0 N_split
1201  10.43280572 -073.24863320 both 1 N_stop
1201  10.43283934 -073.24882227 both 2 N_stop
1201  10.43287199 -073.24886633 both 3 N_stop
1201  10.43319162 -073.24881057 both 4 N_stop
1201  10.43358606 -073.24875744 both 5 N_stop
1201  10.43329701 -073.24879674 both 6 N_split
1201  10.43412775 -073.24857486 both 7 N_stop
1201  10.43417765 -073.24863413 both 8 N_stop
1201  10.43384661 -073.24869641 both 9 N_split
1201  10.43414712 -073.24863964 both 10 N_split
1201  10.44445128 -073.24776500 both 11 N_stop
1201  10.42579669 -073.25104040 both 12 N_start
1201  10.43170704 -073.24999570 both 13 02/20_split
1201  10.43380995 -073.24852141 both 14 N_stop
1201  10.43382994 -073.24962991 both 15 02/20_split
1201  10.43372031 -073.24896697 both 16 N_split
1201  10.43370753 -073.24890413 both 17 N_split
1201  10.43286933 -073.24863945 both 18 N_stop
1201  10.43356318 -073.24857373 both 19 N_stop
1201  10.43324628 -073.24886359 both 20 N_stop
1201  10.43296578 -073.24908968 both 21 N_stop
1201  10.43328678 -073.24871874 both 22 N_stop
1202 17 9 twoway taxiway_C N
1202 2 0 twoway taxiway_A N
1202 0 1 twoway taxiway_A N
1202 3 2 twoway taxiway_A N
1202 4 3 twoway taxiway_B N
1202 5 6 twoway taxiway_C N
1202 10 7 twoway taxiway_C N
1202 9 10 twoway taxiway_C N
1202 10 8 twoway taxiway_C N
1202 15 16 twoway taxiway_C N
1204 departure 02,20
1204 arrival 02,20
1202 16 17 twoway taxiway_C N
1202 17 5 twoway taxiway_C N
1202 12 13 twoway runway 02/20
1204 departure 02,20
1204 arrival 02,20
1204 ils 02,20
1202 13 15 twoway runway 02/20
1204 departure 02,20
1204 arrival 02,20
1204 ils 02,20
1202 15 11 twoway runway 02/20
1204 departure 02,20
1204 arrival 02,20
1204 ils 02,20
1202 9 14 twoway taxiway_B N
1202 0 18 twoway taxiway_A N
1202 5 19 twoway taxiway_B N
1202 13 21 twoway taxiway_C N
1204 departure 02,20
1204 arrival 02,20
1202 21 20 twoway taxiway_C N
1202 20 6 twoway taxiway_C N
1202 6 22 twoway taxiway_C N
1202 6 4 twoway taxiway_C N
99
