I
1130 Generated by WorldEditor 2.4.1r2

1     89 0 0 LEJR Jerez de la Frontera
1302 city Jerez de la Forntera
1302 country Spain
1302 datum_lat 36.744722222
1302 datum_lon -6.06
1302 faa_code 
1302 gui_label 3D
1302 iata_code XRY
1302 icao_code LEJR
1302 region_code LE
1302 state Andalucía
1302 transition_alt 6000
1302 transition_level 
100 45.00 1 1 0.50 1 1 0  02  36.73497658 -006.06481484 0 62 3 5 0 1 20  36.75429365 -006.05538549 0 59 3 3 0 1
110 1 0.00 0.0 New Taxiway 1
111  36.74483230 -006.06790536
111  36.74482508 -006.06757310
111  36.74503286 -006.06755960
111  36.74504761 -006.06790172
113  36.74487010 -006.06790553
110 2 0.00 21.4 Concrete Apron
111  36.74697965 -006.06216361
111  36.75017055 -006.06060199
111  36.75086649 -006.06280684
113  36.74767628 -006.06436757
110 1 0.00 0.0 Concrete GA Apron
111  36.74421750 -006.06801079
111  36.74418365 -006.06801192
111  36.74418129 -006.06796237
111  36.74414591 -006.06796178
111  36.74414591 -006.06790737
111  36.74410429 -006.06790763
111  36.74410486 -006.06785576
111  36.74403364 -006.06785571
111  36.74403259 -006.06780001
111  36.74349017 -006.06782401
111  36.74340773 -006.06446697
111  36.74394828 -006.06444280
111  36.74394687 -006.06438846
111  36.74401060 -006.06438486
111  36.74400876 -006.06434271
111  36.74404813 -006.06434115
111  36.74404507 -006.06426872
111  36.74406533 -006.06426957
113  36.74412803 -006.06427123
110 2 0.00 0.0 Concrete Heli Parking
111  36.74468172 -006.06782157
111  36.74468013 -006.06777752
111  36.74444527 -006.06779241
111  36.74444225 -006.06766090
111  36.74450614 -006.06765574
111  36.74460108 -006.06765193
111  36.74472712 -006.06764437
111  36.74475300 -006.06762666
111  36.74483793 -006.06762157
113  36.74484216 -006.06781799
110 1 0.25 21.4 Asphalt GA Apron
111  36.74435242 -006.07056181
112  36.74435242 -006.07056181  36.74428937 -006.07056889
112  36.74420857 -006.07044682  36.74420622 -006.07035166
111  36.74420857 -006.07044682
111  36.74420559 -006.07038262
111  36.74342100 -006.06869698
112  36.74342100 -006.06869698  36.74338767 -006.06862760
112  36.74337966 -006.06851358  36.74337661 -006.06842985
111  36.74337966 -006.06851358
112  36.74329085 -006.06456800  36.74328883 -006.06450758
112  36.74338967 -006.06437742  36.74348651 -006.06436986
111  36.74400876 -006.06434271
111  36.74401060 -006.06438486
111  36.74394687 -006.06438846
111  36.74394828 -006.06444280
111  36.74340773 -006.06446697
111  36.74349017 -006.06782401
111  36.74403259 -006.06780001
111  36.74403364 -006.06785571
111  36.74410486 -006.06785576
111  36.74410429 -006.06790763
111  36.74414591 -006.06790737
111  36.74414591 -006.06796178
111  36.74418129 -006.06796237
111  36.74418365 -006.06801192
111  36.74421750 -006.06801079
111  36.74412803 -006.06427123
111  36.74406533 -006.06426957
111  36.74404271 -006.06342332
111  36.74439307 -006.06341445
111  36.74439308 -006.06352977
111  36.74439311 -006.06382412
111  36.74440264 -006.06425593
111  36.74440520 -006.06434548
111  36.74448462 -006.06717887
111  36.74464213 -006.06717350
111  36.74472264 -006.06717179
111  36.74471672 -006.06690462
111  36.74494345 -006.06689130
111  36.74496541 -006.06761392
111  36.74483793 -006.06762157
111  36.74475479 -006.06762656
111  36.74472712 -006.06764437
111  36.74460108 -006.06765193
112  36.74464730 -006.06759308  36.74464665 -006.06756087
111  36.74464730 -006.06759308
111  36.74464385 -006.06747198
111  36.74449890 -006.06748531
111  36.74450614 -006.06765574
111  36.74444225 -006.06766090
111  36.74444527 -006.06779241
111  36.74468013 -006.06777752
111  36.74468172 -006.06782157
111  36.74484216 -006.06781799
111  36.74486348 -006.06848157
111  36.74490396 -006.06956871
111  36.74492890 -006.07034619
111  36.74493150 -006.07042561
111  36.74524302 -006.07040387
112  36.74524302 -006.07040387  36.74528871 -006.07039674
112  36.74531992 -006.07030854  36.74531921 -006.07025508
111  36.74531992 -006.07030854
111  36.74529639 -006.06954596
111  36.74537499 -006.06954180
111  36.74539761 -006.07031815
112  36.74539761 -006.07031815  36.74540189 -006.07043398
112  36.74526735 -006.07048547  36.74520523 -006.07049438
111  36.74526735 -006.07048547
111  36.74495510 -006.07051542
113  36.74466900 -006.07054021
111  36.74449090 -006.06728902
111  36.74449554 -006.06739046
112  36.74449554 -006.06739046  36.74465347 -006.06738177
112  36.74463953 -006.06728323  36.74464010 -006.06722874
113  36.74463953 -006.06728323
111  36.74413780 -006.06813289
112  36.74413780 -006.06813289  36.74413359 -006.06802506
112  36.74402636 -006.06800337  36.74397473 -006.06800534
111  36.74402636 -006.06800337
111  36.74352668 -006.06803092
112  36.74352668 -006.06803092  36.74350290 -006.06803229
111  36.74347935 -006.06802378
112  36.74344841 -006.06814789  36.74344714 -006.06821890
111  36.74344841 -006.06814789
111  36.74345606 -006.06848329
112  36.74345606 -006.06848329  36.74345922 -006.06855983
112  36.74349403 -006.06865835  36.74352375 -006.06872661
111  36.74349403 -006.06865835
111  36.74416512 -006.07009076
113  36.74418041 -006.07009076
110 1 21.37 21.4 Asphalt Taxiway
111  36.75448535 -006.05566390
111  36.75483680 -006.05682119
112  36.75483680 -006.05682119  36.75495953 -006.05722193
112  36.75455016 -006.05772901  36.75432754 -006.05783766
111  36.75455016 -006.05772901
111  36.75133703 -006.05929143
111  36.75127111 -006.05932158
111  36.75027386 -006.05980428
111  36.74961407 -006.06025023
112  36.74961407 -006.06025023  36.74957026 -006.06028299
112  36.74953533 -006.06043914  36.74954735 -006.06052783
111  36.74953533 -006.06043914
112  36.74953533 -006.06043914  36.74954254 -006.06049239
112  36.74962199 -006.06057298  36.74966562 -006.06058547
111  36.74962199 -006.06057298
111  36.74963776 -006.06056678
112  36.74963776 -006.06056678  36.74966144 -006.06057051
112  36.74971390 -006.06056731  36.74974038 -006.06056426
111  36.74971390 -006.06056731
112  36.74971390 -006.06056731  36.74976720 -006.06056117
111  36.75015907 -006.06048354
111  36.75022822 -006.06045354
111  36.75025526 -006.06053071
111  36.75026013 -006.06054463
111  36.75029502 -006.06062864
111  36.75028749 -006.06067005
111  36.75097255 -006.06282166
111  36.75100571 -006.06282913
111  36.75089056 -006.06288457
111  36.75086470 -006.06280235
111  36.75017122 -006.06060323
111  36.74698032 -006.06216486
111  36.74767448 -006.06436308
111  36.74719548 -006.06458656
111  36.74651361 -006.06244487
111  36.74672848 -006.06233910
111  36.74678593 -006.06215435
111  36.74730496 -006.06188354
112  36.74730496 -006.06188354  36.74735173 -006.06186073
111  36.74739236 -006.06177847
112  36.74738602 -006.06162460  36.74734790 -006.06152599
111  36.74738602 -006.06162460
112  36.74738602 -006.06162460  36.74735193 -006.06154921
112  36.74712806 -006.06142215  36.74701676 -006.06138777
111  36.74712806 -006.06142215
112  36.74712806 -006.06142215  36.74707101 -006.06140453
112  36.74696012 -006.06142969  36.74690807 -006.06145609
111  36.74696012 -006.06142969
111  36.74471737 -006.06253941
112  36.74471737 -006.06253941  36.74439998 -006.06271496
112  36.74439307 -006.06341445  36.74439164 -006.06366733
111  36.74439307 -006.06341445
111  36.74404271 -006.06342332
112  36.74390666 -006.06307388  36.74380038 -006.06297021
111  36.74362607 -006.06305758
111  36.74355532 -006.06308953
112  36.73620753 -006.06667807  36.73571605 -006.06692106
112  36.73531354 -006.06624087  36.73520048 -006.06587235
111  36.73531354 -006.06624087
111  36.73500453 -006.06517101
111  36.73507794 -006.06514165
111  36.73504965 -006.06504859
111  36.73615370 -006.06449033
111  36.73620651 -006.06449197
111  36.73623118 -006.06456395
112  36.73611495 -006.06487991  36.73610283 -006.06498397
111  36.73611495 -006.06487991
111  36.73570827 -006.06508193
112  36.73570827 -006.06508193  36.73555515 -006.06516224
112  36.73556647 -006.06553668  36.73560642 -006.06569452
112  36.73575058 -006.06604438  36.73578831 -006.06613576
112  36.73596832 -006.06618133  36.73609704 -006.06612318
112  36.73714228 -006.06568614  36.73745149 -006.06554240
111  36.73714228 -006.06568614
111  36.73866801 -006.06494414
112  36.73866801 -006.06494414  36.73908656 -006.06472354
112  36.73942389 -006.06427989  36.73962880 -006.06398874
111  36.73942389 -006.06427989
111  36.74041189 -006.06274011
112  36.74041189 -006.06274011  36.74044947 -006.06268043
112  36.74045453 -006.06257506  36.74044428 -006.06251822
111  36.74032018 -006.06247159
111  36.74035878 -006.06242604
111  36.74213037 -006.06155265
111  36.74218286 -006.06170107
112  36.74218286 -006.06170107  36.74185274 -006.06187168
112  36.74141069 -006.06227548  36.74125563 -006.06241072
112  36.74079361 -006.06299873  36.74067356 -006.06318182
112  36.74036467 -006.06373036  36.74028719 -006.06388516
112  36.74044352 -006.06397179  36.74057779 -006.06393219
112  36.74137137 -006.06361308  36.74158131 -006.06352169
111  36.74350453 -006.06257368
112  36.74350453 -006.06257368  36.74367263 -006.06249212
112  36.74368272 -006.06211440  36.74362610 -006.06188413
111  36.74368272 -006.06211440
111  36.74347494 -006.06143190
112  36.74347494 -006.06143190  36.74342415 -006.06127591
112  36.74325266 -006.06117896  36.74315731 -006.06115044
111  36.74325266 -006.06117896
111  36.74312374 -006.06110927
111  36.74314573 -006.06107503
111  36.74391143 -006.06070763
111  36.74396041 -006.06070061
111  36.74392025 -006.06085097
112  36.74392025 -006.06085097  36.74385482 -006.06098201
112  36.74389147 -006.06129325  36.74393695 -006.06144113
111  36.74389147 -006.06129325
111  36.74409948 -006.06193140
112  36.74409948 -006.06193140  36.74417736 -006.06213173
112  36.74450278 -006.06208602  36.74470259 -006.06199144
112  36.74677936 -006.06097974  36.74699503 -006.06087597
112  36.74698829 -006.06038574  36.74692463 -006.06017658
111  36.74698829 -006.06038574
111  36.74680599 -006.05981900
112  36.74680599 -006.05981900  36.74674993 -006.05964920
112  36.74648965 -006.05959981  36.74641196 -006.05960471
111  36.74648965 -006.05959981
111  36.74636978 -006.05952313
111  36.74638842 -006.05948461
111  36.74721387 -006.05909017
111  36.74725732 -006.05908977
111  36.74730050 -006.05920631
112  36.74723421 -006.05929832  36.74719688 -006.05937015
112  36.74720583 -006.05965771  36.74724714 -006.05979380
111  36.74720583 -006.05965771
111  36.74738767 -006.06024459
112  36.74738767 -006.06024459  36.74746184 -006.06047513
112  36.74784705 -006.06046602  36.74801116 -006.06038989
111  36.74784705 -006.06046602
111  36.74865290 -006.05993430
112  36.74865290 -006.05993430  36.74871894 -006.05988981
112  36.74870432 -006.05968366  36.74868152 -006.05957802
111  36.74870432 -006.05968366
111  36.74859592 -006.05927825
112  36.74859592 -006.05927825  36.74855551 -006.05914036
112  36.74848119 -006.05894585  36.74845785 -006.05888881
111  36.74848119 -006.05894585
112  36.74848119 -006.05894585  36.74842620 -006.05881146
112  36.74817257 -006.05876948  36.74809659 -006.05878803
111  36.74817257 -006.05876948
111  36.74813705 -006.05866108
111  36.74816840 -006.05861609
111  36.74895749 -006.05824402
111  36.74899054 -006.05824416
111  36.74902814 -006.05835951
112  36.74896240 -006.05868237  36.74900777 -006.05892424
112  36.74907551 -006.05912062  36.74909590 -006.05917574
112  36.74926575 -006.05952241  36.74931778 -006.05963199
111  36.74949989 -006.05954270
111  36.75013402 -006.05933979
111  36.75112313 -006.05886913
111  36.75119000 -006.05883769
111  36.75359051 -006.05765641
112  36.75359051 -006.05765641  36.75363295 -006.05763560
111  36.75433011 -006.05717767
112  36.75433011 -006.05717767  36.75439572 -006.05713208
112  36.75437980 -006.05700690  36.75437131 -006.05693100
112  36.75430555 -006.05657652  36.75428889 -006.05651137
111  36.75416153 -006.05621717
112  36.75410266 -006.05619640  36.75406778 -006.05621979
111  36.75410266 -006.05619640
111  36.75394729 -006.05626841
111  36.75356611 -006.05614836
111  36.75356210 -006.05598996
111  36.75436221 -006.05558795
113  36.75439921 -006.05570648
111  36.74906082 -006.06102776
112  36.74904743 -006.06076400  36.74900806 -006.06064045
112  36.74882671 -006.06063280  36.74871731 -006.06066990
111  36.74882671 -006.06063280
112  36.74813443 -006.06086154  36.74803811 -006.06090161
111  36.74813443 -006.06086154
111  36.74793940 -006.06095058
112  36.74793940 -006.06095058  36.74776340 -006.06103370
112  36.74775738 -006.06147841  36.74779544 -006.06160456
113  36.74792482 -006.06158136
110 2 0.00 0.0 Concrete Maintenance Apron
111  36.74486348 -006.06848157
111  36.74563291 -006.06844910
112  36.74565581 -006.06930664  36.74565764 -006.06938218
112  36.74577182 -006.06944615  36.74582114 -006.06944857
111  36.74577182 -006.06944615
111  36.74603950 -006.06944280
111  36.74604326 -006.06951058
111  36.74537499 -006.06954180
111  36.74529639 -006.06954596
113  36.74490396 -006.06956871
130 Airport Boundary 17
111  36.73564661 -006.06251223
111  36.74516132 -006.05792655
111  36.74751611 -006.05676662
111  36.74976815 -006.05489581
111  36.75026014 -006.05494478
111  36.75375665 -006.05325504
111  36.75432218 -006.05361015
111  36.75601516 -006.05232929
111  36.75730311 -006.05381739
111  36.75733484 -006.05397799
111  36.75724926 -006.05467172
111  36.75684441 -006.05487428
111  36.75712124 -006.05577195
111  36.75708755 -006.05619808
111  36.75565097 -006.05666711
111  36.75529496 -006.05687439
111  36.75520514 -006.05754917
111  36.75486971 -006.05807403
111  36.75222259 -006.05934637
111  36.75444516 -006.06337808
111  36.74904490 -006.06814349
111  36.73579066 -006.07941131
111  36.72999096 -006.06891604
111  36.73115935 -006.06354657
113  36.73191796 -006.06319759
120 Taxiway Centreline
111  36.75337324 -006.05584711 1
112  36.75389070 -006.05559772  36.75406002 -006.05551759 1 101
112  36.75431771 -006.05586124  36.75438826 -006.05608226
111  36.75431771 -006.05586124 1 101
115  36.75449997 -006.05644347
120 Taxiway Centreline
111  36.75450702 -006.05646598 7 101
111  36.75465098 -006.05692588
112  36.75465098 -006.05692588  36.75473352 -006.05719885 1 101
112  36.75446840 -006.05748994  36.75430506 -006.05757159
111  36.75446840 -006.05748994 1 101
111  36.74950832 -006.05991129 1 101
111  36.74880378 -006.06025575 1 101
111  36.74766889 -006.06080938 1 101
111  36.74711601 -006.06107861 1 101
111  36.74442644 -006.06239240 1 101
111  36.74372477 -006.06273440 1 101
111  36.74054731 -006.06428549 1 101
111  36.73874621 -006.06516455 1 101
111  36.73605727 -006.06647753
112  36.73605727 -006.06647753  36.73587459 -006.06655635 1 101
112  36.73552906 -006.06618533  36.73543345 -006.06587855
111  36.73552906 -006.06618533 7 101
116  36.73540562 -006.06579087  36.73531517 -006.06550074
120 Taxiway Centreline
111  36.73539880 -006.06576900 1 101
111  36.73523145 -006.06523414
112  36.73523145 -006.06523414  36.73515398 -006.06497378 1 101
112  36.73547631 -006.06459628  36.73569801 -006.06449193 1
115  36.73595168 -006.06436439
120 Taxiway Centreline
111  36.74769964 -006.05862995 1
111  36.74816823 -006.05840063
112  36.74816823 -006.05840063  36.74838274 -006.05829597 1 101
112  36.74870352 -006.05869198  36.74875983 -006.05887059
111  36.74870352 -006.05869198 1 101
115  36.74886152 -006.05919789
120 Taxiway Centreline
111  36.74886873 -006.05922098 7 101
111  36.74901453 -006.05968783 1 101
111  36.74927470 -006.06051765 1 101
115  36.74941638 -006.06097431
120 Taxiway Centreline
111  36.74941638 -006.06097431 51 101
112  36.74960283 -006.06156518  36.74964006 -006.06167855
111  36.74960283 -006.06156518
112  36.74960283 -006.06156518  36.74967954 -006.06179876 51 101
112  36.74940512 -006.06218640  36.74925316 -006.06225841
111  36.74940512 -006.06218640 51 101
111  36.74836719 -006.06269626
112  36.74836719 -006.06269626  36.74818240 -006.06279053 51 101
112  36.74785473 -006.06242957  36.74777832 -006.06218786
111  36.74785473 -006.06242957 51 101
115  36.74766711 -006.06183024
120 Taxiway Centreline
111  36.74766711 -006.06183024 1 101
111  36.74748751 -006.06125654 1 101
111  36.74728665 -006.06061576 7 101
115  36.74711248 -006.06005965
120 Taxiway Centreline
111  36.74710522 -006.06003647 1 101
111  36.74693347 -006.05948810
112  36.74693347 -006.05948810  36.74686896 -006.05928280 1 101
112  36.74716108 -006.05889293  36.74737392 -006.05878902
111  36.74716108 -006.05889293 1
115  36.74749088 -006.05873182
120 Taxiway Centreline
112  36.74870352 -006.05869198  36.74864721 -006.05851337 1 101
112  36.74887255 -006.05805710  36.74906879 -006.05796126
111  36.74887255 -006.05805710 1
115  36.74941137 -006.05779404
120 Taxiway Centreline
112  36.74950832 -006.05991129  36.74935026 -006.05998912 1 101
116  36.74901453 -006.05968783  36.74894411 -006.05946641
120 Taxiway Centreline
112  36.74927470 -006.06051765  36.74919621 -006.06027074 1 101
116  36.74950832 -006.05991129  36.74966423 -006.05983480
120 Taxiway Centreline
112  36.74880378 -006.06025575  36.74900828 -006.06015591 1 101
116  36.74927470 -006.06051765  36.74931009 -006.06062556
120 Taxiway Centreline
112  36.74728665 -006.06061576  36.74733301 -006.06076253 1 101
116  36.74766889 -006.06080938  36.74777965 -006.06075541
120 Taxiway Centreline
112  36.74766889 -006.06080938  36.74755814 -006.06086335 1 101
116  36.74748341 -006.06124163  36.74752373 -006.06137637
120 Taxiway Centreline
112  36.74748341 -006.06124163  36.74744309 -006.06110688 1 101
116  36.74711601 -006.06107861  36.74699953 -006.06113620
120 Taxiway Centreline
112  36.74711601 -006.06107861  36.74723846 -006.06101898 1 101
116  36.74728665 -006.06061576  36.74724030 -006.06046900
120 Taxiway Centreline
112  36.74392965 -006.06212989  36.74401596 -006.06240158 1 101
116  36.74442644 -006.06239240  36.74455278 -006.06232933
120 Taxiway Centreline
112  36.74442644 -006.06239240  36.74427419 -006.06246646 1
112  36.74420430 -006.06292206  36.74419432 -006.06321213
111  36.74420430 -006.06292206 1
115  36.74421091 -006.06316577
120 Taxiway Centreline
112  36.74372477 -006.06273440  36.74384359 -006.06267469 1 101
116  36.74392965 -006.06212989  36.74385759 -006.06190485
120 Taxiway Centreline
111  36.74439024 -006.06024501 1
112  36.74380920 -006.06052851  36.74363304 -006.06061543 1 101
112  36.74362207 -006.06114665  36.74368663 -006.06135010
111  36.74362207 -006.06114665 1 101
115  36.74378738 -006.06167393
120 Taxiway Centreline
111  36.74379463 -006.06169717 7 101
115  36.74392965 -006.06212989
120 Taxiway Centreline
111  36.74392965 -006.06212989 1
111  36.74417617 -006.06291585
112  36.74417617 -006.06291585  36.74420895 -006.06302109 1
111  36.74421091 -006.06316577 1
111  36.74424628 -006.06417357 1
111  36.74430942 -006.06492377 1
111  36.74437784 -006.06777946 1
111  36.74442666 -006.06802896 1
111  36.74447777 -006.06997306
112  36.74447777 -006.06997306  36.74447862 -006.07001367 1
112  36.74454590 -006.07003702  36.74458774 -006.07003491
111  36.74454590 -006.07003702 1
111  36.74473296 -006.07003102
112  36.74473296 -006.07003102  36.74477099 -006.07002786 1
112  36.74480291 -006.06994897  36.74479999 -006.06989002
111  36.74480291 -006.06994897 1
111  36.74475025 -006.06812253
112  36.74475025 -006.06812253  36.74474814 -006.06805502 1
112  36.74467222 -006.06801973  36.74462784 -006.06802025
111  36.74467222 -006.06801973 1
111  36.74449671 -006.06802683
112  36.74449671 -006.06802683  36.74445360 -006.06802683 1
116  36.74441063 -006.06794867  36.74439880 -006.06788960
120 Taxiway Centreline
112  36.74362207 -006.06114665  36.74355837 -006.06094432 1 101
112  36.74310574 -006.06087229  36.74292149 -006.06095730
111  36.74310574 -006.06087229 1
115  36.74259109 -006.06112343
120 Taxiway Centreline
111  36.74242590 -006.06120398 1
112  36.74131289 -006.06200663  36.74076250 -006.06255312 1 101
112  36.74038396 -006.06320775  36.74034261 -006.06327603 1 101
111  36.74013110 -006.06360899 1 101
111  36.73979467 -006.06414345
112  36.73979467 -006.06414345  36.73961985 -006.06442065 1 101
112  36.73925706 -006.06481490  36.73901883 -006.06503993 1 101
115  36.73874621 -006.06516455
120 Taxiway Centreline
111  36.74013110 -006.06360899 1 101
112  36.74004826 -006.06390964  36.74005998 -006.06410422 1 101
112  36.74028989 -006.06429999  36.74041618 -006.06435832 1 101
115  36.74054731 -006.06428549
120 Taxiway Centreline
112  36.74693347 -006.05948810  36.74686896 -006.05928280 1 101
112  36.74643004 -006.05924933  36.74618615 -006.05936864
111  36.74643004 -006.05924933 1
115  36.74593982 -006.05948866
120 Taxiway Centreline
112  36.74901453 -006.05968783  36.74907600 -006.05988320 1 101
116  36.74880378 -006.06025575  36.74867367 -006.06032084
120 Taxiway Centreline
112  36.74421091 -006.06316577  36.74419865 -006.06281234 1
116  36.74372477 -006.06273440  36.74349575 -006.06284792
120 Runway Holdline
111  36.75461148 -006.05640230 4 104
115  36.75440339 -006.05650485
120 Runway Holdline
111  36.74896843 -006.05915749 4
115  36.74876099 -006.05925927
120 Runway Holdline
111  36.74719768 -006.06000480 4
115  36.74699892 -006.06010187
120 Runway Holdline
111  36.73552721 -006.06571844 4 104
115  36.73529467 -006.06583175
120 Runway Holdline
111  36.74388807 -006.06163752 4
115  36.74369026 -006.06173416
120 Taxiway Edgeline
111  36.73631872 -006.06441882 3 102
111  36.73551325 -006.06488788
112  36.73551325 -006.06488788  36.73536754 -006.06497881 3 102
112  36.73541078 -006.06527427  36.73543961 -006.06540879 3 102
111  36.73552721 -006.06571844 3 102
111  36.73569149 -006.06615637
112  36.73569149 -006.06615637  36.73574738 -006.06628546 3 102
112  36.73597264 -006.06630431  36.73607372 -006.06627018
111  36.73597264 -006.06630431 3 102
112  36.73705389 -006.06586151  36.73723273 -006.06578544
111  36.73705389 -006.06586151 3 102
111  36.73881850 -006.06500028
112  36.73881850 -006.06500028  36.73913291 -006.06484643 3 102
112  36.73956876 -006.06425800  36.73974343 -006.06398619
111  36.73956876 -006.06425800 3 102
111  36.74055806 -006.06268635
112  36.74055806 -006.06268635  36.74064249 -006.06255279 3 102
116  36.74042382 -006.06242715  36.74032818 -006.06245941
120 Taxiway Edgeline
111  36.74218695 -006.06156357 3 102
112  36.74141251 -006.06212943  36.74121927 -006.06231245 3 102
112  36.74085019 -006.06275435  36.74066388 -006.06300415 3 102
112  36.74024941 -006.06373001  36.74016121 -006.06391675 3 102
112  36.74048280 -006.06408609  36.74068984 -006.06400262 3 102
111  36.74144416 -006.06371883 3 102
111  36.74358414 -006.06267427
112  36.74358414 -006.06267427  36.74376898 -006.06258365 3 102
112  36.74377643 -006.06200643  36.74368606 -006.06171649
111  36.74377643 -006.06200643 3 102
111  36.74356871 -006.06134498
112  36.74356871 -006.06134498  36.74348992 -006.06109502 3 102
116  36.74312800 -006.06111515  36.74300214 -006.06115225
120 Taxiway Edgeline
111  36.74490396 -006.06956871 3
111  36.74492890 -006.07035539 3
111  36.74423736 -006.07040821 3
111  36.74418154 -006.06794729 3
111  36.74407043 -006.06779942 3
111  36.74349017 -006.06782401 3
111  36.74340793 -006.06446280 3
111  36.74394661 -006.06444234 3
111  36.74412803 -006.06427123 3
111  36.74411577 -006.06335818
112  36.74411577 -006.06335818  36.74409716 -006.06300465 3 102
112  36.74366244 -006.06290406  36.74347086 -006.06298858
111  36.74366244 -006.06290406 3 102
112  36.73609508 -006.06659805  36.73580571 -006.06674026 3 102
112  36.73541758 -006.06622425  36.73532145 -006.06593366
111  36.73541758 -006.06622425 3 102
115  36.73504965 -006.06504859
120 Taxiway Edgeline
112  36.74395521 -006.06070592  36.74379830 -006.06079764 3 102
112  36.74377672 -006.06128226  36.74383999 -006.06148675
111  36.74377672 -006.06128226 3 102
111  36.74397337 -006.06190953
112  36.74397337 -006.06190953  36.74405957 -006.06218387 3 102
112  36.74446697 -006.06224331  36.74463822 -006.06215783
111  36.74446697 -006.06224331 3 102
111  36.74684575 -006.06108200
112  36.74684575 -006.06108200  36.74706984 -006.06095809 3 102
112  36.74707649 -006.06035115  36.74699027 -006.06007783 3 102
111  36.74691180 -006.05982644
112  36.74691180 -006.05982644  36.74688067 -006.05973639 3 102
112  36.74666481 -006.05952647  36.74651460 -006.05945922 3 102
115  36.74638098 -006.05952567
120 Taxiway Edgeline
112  36.74740785 -006.06195510  36.74743850 -006.06194235 3 102
112  36.74748711 -006.06161062  36.74743292 -006.06142383 3 102
112  36.74691870 -006.06131476  36.74665771 -006.06144286
111  36.74691870 -006.06131476 3 102
111  36.74465628 -006.06241950
112  36.74465628 -006.06241950  36.74446585 -006.06251532 3 102
112  36.74432044 -006.06316284  36.74432807 -006.06351796
111  36.74432044 -006.06316284 3
111  36.74442654 -006.06718244 3
111  36.74472226 -006.06717130 3
115  36.74471672 -006.06690462
120 Taxiway Edgeline
111  36.74482378 -006.06753756 3
111  36.74472884 -006.06754162 3
111  36.74472325 -006.06728192 3
111  36.74442939 -006.06729056 3
115  36.74443209 -006.06739266
120 Taxiway Edgeline
112  36.74725732 -006.05908977  36.74713197 -006.05921584 3 102
112  36.74712416 -006.05976043  36.74718899 -006.05999565
111  36.74712416 -006.05976043 3 102
111  36.74728165 -006.06027656
112  36.74728165 -006.06027656  36.74735796 -006.06052886 3 102
112  36.74782614 -006.06060326  36.74803326 -006.06049319
111  36.74782614 -006.06060326 3 102
112  36.74828255 -006.06034172  36.74839911 -006.06026217 3 102
111  36.74872063 -006.06004202
112  36.74872063 -006.06004202  36.74884550 -006.05995891 3 102
112  36.74884203 -006.05973774  36.74882895 -006.05963979
111  36.74884203 -006.05973774 3 102
111  36.74876099 -006.05925927 3 102
111  36.74858259 -006.05882437
112  36.74858259 -006.05882437  36.74847842 -006.05859712 3 102
115  36.74819626 -006.05863272
120 Taxiway Edgeline
111  36.75436580 -006.05561928 3 102
111  36.75476004 -006.05687611
112  36.75476004 -006.05687611  36.75483643 -006.05710888 3 102
112  36.75450570 -006.05761133  36.75422399 -006.05774970
111  36.75450570 -006.05761133 3 102
112  36.75034825 -006.05964063  36.75015560 -006.05974452 3 102
112  36.74956570 -006.06015070  36.74946937 -006.06022046 3 102
112  36.74946378 -006.06050648  36.74950540 -006.06067270 3 102
116  36.74976263 -006.06069261  36.74985827 -006.06067586
120 Taxiway Edgeline
111  36.74902886 -006.05822864 3 102
112  36.74886651 -006.05872520  36.74891964 -006.05900756
111  36.74886651 -006.05872520 3 102
111  36.74896843 -006.05915749 3 102
111  36.74915292 -006.05954777
112  36.74915292 -006.05954777  36.74922595 -006.05969916 3 102
112  36.74943862 -006.05969695  36.74953851 -006.05966727
111  36.74943862 -006.05969695 3 102
112  36.75021587 -006.05943692  36.75045847 -006.05933302 3 102
111  36.75362146 -006.05777440
112  36.75362146 -006.05777440  36.75365011 -006.05776035 3 102
111  36.75441159 -006.05725795
112  36.75441159 -006.05725795  36.75445632 -006.05722445 3 102
112  36.75449092 -006.05702568  36.75446890 -006.05689169
111  36.75449092 -006.05702568 3 102
112  36.75439819 -006.05647996  36.75439137 -006.05646506 3 102
112  36.75415578 -006.05597970  36.75412473 -006.05591678 3 102
112  36.75402244 -006.05587376  36.75394090 -006.05583637 3 102
115  36.75386661 -006.05586607
120 Taxiway Edgeline
112  36.74912938 -006.06112703  36.74914635 -006.06111283 3 102
112  36.74917553 -006.06078635  36.74915030 -006.06066416
111  36.74917553 -006.06078635 3 102
111  36.74914230 -006.06067632
112  36.74914230 -006.06067632  36.74909830 -006.06053978 3 102
112  36.74886045 -006.06049386  36.74874867 -006.06053245
111  36.74886045 -006.06049386 3 102
111  36.74815300 -006.06071345 3 102
111  36.74788693 -006.06084155
112  36.74788693 -006.06084155  36.74768479 -006.06094085 3 102
112  36.74766276 -006.06148951  36.74772597 -006.06169153 3 102
116  36.74793287 -006.06169972  36.74799255 -006.06167624
120 Taxiway Holdline
111  36.74959960 -006.06010338 2
115  36.74947473 -006.05970716
120 Taxiway Holdline
111  36.74703428 -006.06127439 2
115  36.74695732 -006.06101482
120 Taxiway Holdline
111  36.74453714 -006.06252001 2
115  36.74445357 -006.06225632
120 Taxiway Holdline
111  36.74370655 -006.06287856 2
115  36.74363671 -006.06265142
120 Taxiway Holdline
111  36.74432044 -006.06316264 2
115  36.74408769 -006.06316970
120 Taxiway Holdline
111  36.73872652 -006.06531303 2
115  36.73865176 -006.06508212
21  36.75106453 -006.05755618 3 201.8 3.00 New Light Fixture 3
21  36.73789678 -006.06400815 2 19.0 3.00 New Light Fixture 5
21  36.73756468 -006.06293812 3 23.5 3.00 New Light Fixture 4
21  36.75073084 -006.05650861 2 203.0 3.00 New Light Fixture 2
20  36.75343733 -006.05636437 21.0 0 4 {@Y}{^l}E1
20  36.75081521 -006.05966699 195.9 0 4 {@L}T1{@@}{@L}T1
20  36.75330924 -006.05775165 21.0 0 4 {@Y}E1{^r}
20  36.74940678 -006.05946545 180.0 0 4 {@Y}{^l}E2
20  36.74708766 -006.06149235 1.0 0 3 {@Y}{^l}L3
20  36.74685809 -006.06072672 49.6 0 3 {@Y}E3{^r}
20  36.74438968 -006.06201669 198.1 0 3 {@Y,^l}E4
20  36.73688807 -006.06434822 202.4 0 4 {@Y}E6{^r}
20  36.74966936 -006.06043158 111.0 0 4 {@Y,^l}T1{@L}L2{@Y}E2{^u}|T2{^r,@@,@L}L2
20  36.74606522 -006.05990363 21.0 0 4 {@Y}{^l}E3
20  36.74451672 -006.06062585 201.0 0 4 {@Y}E-4{^r}
20  36.74317608 -006.06127715 21.0 0 4 {@Y}{^l}T3
20  36.74853513 -006.05982171 43.4 0 3 {@Y}E2{^r}
20  36.74898580 -006.06075282 110.0 0 4 {@Y,^l}T1{@L}L2{@Y}E2{^u}|T2{^r,@@,@L}L2
20  36.74967760 -006.06026544 205.9 0 4 {@Y}L2{^r}
20  36.74874350 -006.06073969 11.4 0 4 {@Y}{^l}L2
20  36.74959855 -006.05818013 206.1 0 4 {@Y}E2{^r}
20  36.74771491 -006.05911918 16.4 0 4 {@Y}{^l}E2
20  36.74782890 -006.05905596 209.1 0 4 {@Y}E3{^r}
20  36.74266877 -006.06153299 201.6 0 4 {@Y}E5{^r}
20  36.75477651 -006.05623692 108.4 0 4 {@L}E1{@R}20{@@,safety,@L}E1
20  36.75419818 -006.05653106 113.2 0 4 {@R}20{@L}E1{@@}E1{safety}
20  36.73935463 -006.06428802 47.3 0 2 {@R}{no-entry}
20  36.74050960 -006.06375094 86.0 0 3 {@R}{no-entry}
20  36.74010771 -006.06301389 217.7 0 3 {@Y}{^lu}T5{@L}E5{@Y}T4{^r}
20  36.74062485 -006.06352540 244.8 0 3 {@Y}{^lu}T5{@L}E5{@Y}T4{^r}
20  36.74354418 -006.06238682 31.5 0 3 {@Y}E4{^r}
20  36.74499600 -006.06248996 204.5 0 4 {@Y}L3{^r}{@L}T3
20  36.74804606 -006.06108571 216.3 0 3 {@Y}L3{^r}
20  36.74779941 -006.06036479 180.0 0 3 {@Y}{^l}E3
20  36.74687852 -006.06053291 263.8 0 3 {@Y,^l}T3{@L}L3{@Y}T2{^r}
20  36.74859933 -006.05971031 266.4 0 3 {@Y,^l}T2{@L}L2{@Y}T1{^r}
20  36.74934253 -006.05933147 305.9 0 4 {@Y,^l}T2{@L}L2{@Y}T1{^r}
20  36.74753512 -006.06022414 305.9 0 3 {@Y,^l}T3{@L}L3{@Y}T2{^r}
20  36.74681427 -006.06013174 112.6 0 3 {@L}E3{@R}20-02{@@}{@L}E3
20  36.74741378 -006.05985464 112.6 0 3 {@L}E3{@R}20-02{@@}{@L}E3
20  36.74853235 -006.05927753 109.8 0 3 {@R}20-02{@L}E2{@@}E2{safety}
20  36.74911271 -006.05899682 109.3 0 3 {@L}E2{@R}20-02{@@,safety,@L}E2
20  36.74377734 -006.06314101 18.4 0 3 {@Y}{^l}L4
20  36.74407077 -006.06148095 103.1 0 3 {@R}20-02{@L}E4{@@}{@L}E4
20  36.74349666 -006.06176556 118.2 0 3 {@R}20-02{@L}E4{@@}{@L}E4
20  36.74449613 -006.06316342 92.1 0 3 {@Y,^l}T3{@L}L4{@Y}E4{^u}|T4{^r,@@,@L}L4
20  36.74389494 -006.06317529 102.9 0 3 {@Y,^l}T3{@L}L4{@Y}E4{^u}|T4{^r,@@,@L}L4
20  36.74733782 -006.06177727 114.0 0 3 {@Y}{^l}T2{@L}L3{@Y}E3{^u}|T3{^r}{@@}{@L}L3
20  36.74785737 -006.06144203 102.3 0 3 {@Y}{^l}T2{@L}L3{@Y}E3{^u}|T3{^r}{@@}{@L}L3
20  36.73570110 -006.06555703 109.2 0 3 {@L}E6{@R}02{@@,safety,@L}E6
20  36.73510656 -006.06585339 111.2 0 3 {@R}02{@L}E6{@@}E6{safety}
14  36.74483614 -006.06519587 49 0 Jerez de la Frontera
1300  36.75000052 -006.06134175 246.0 gate heavy|jets Gate 1
1301 C airline 
1300  36.75012414 -006.06170453 156.7 gate heavy|jets Gate 2
1301 C airline 
1300  36.75044760 -006.06284446 317.1 gate heavy|jets Gate 3
1301 D airline 
1300  36.74983399 -006.06316717 292.1 gate heavy|jets Gate 4
1301 D airline 
1300  36.74937980 -006.06338803 292.1 gate heavy|jets Gate 5
1301 D airline 
1300  36.74890050 -006.06348839 292.1 gate heavy|jets Gate 6
1301 C airline 
1300  36.74855733 -006.06379052 292.1 gate heavy|jets Gate 7
1301 D airline 
1300  36.74813895 -006.06385981 291.7 gate heavy|jets Gate 8
1301 C airline 
1300  36.74759136 -006.06310964 334.4 gate heavy|jets Gate 9
1301 C airline 
1300  36.74737051 -006.06240404 332.8 gate heavy|jets Gate 10
1301 C airline 
1300  36.74849323 -006.06192321 331.6 gate heavy|jets Gate 11
1301 C airline 
1300  36.74886853 -006.06178978 -111.8 gate heavy|jets Gate 12
1301 C airline 
1300  36.74352066 -006.06573249 273.1 gate heavy|jets GA Parking 13
1301 B general_aviation 
1300  36.74371496 -006.06570228 273.3 gate heavy|jets GA Parking 14
1301 B general_aviation 
1300  36.74397388 -006.06571288 272.4 gate heavy|jets GA Parking 15
1301 B general_aviation 
1300  36.74353051 -006.06616860 92.2 gate heavy|jets GA Parking 16
1301 B general_aviation 
1300  36.74372724 -006.06616091 91.9 gate heavy|jets GA Parking 17
1301 B general_aviation 
1300  36.74398446 -006.06615132 92.2 gate heavy|jets GA Parking 18
1301 B general_aviation 
1300  36.74350467 -006.06683125 91.1 gate heavy|jets GA Parking 19
1301 A general_aviation 
1300  36.74365916 -006.06682474 91.1 gate heavy|jets GA Parking 20
1301 A general_aviation 
1300  36.74381276 -006.06681561 91.1 gate heavy|jets GA Parking 21
1301 A general_aviation 
1300  36.74396819 -006.06680763 91.1 gate heavy|jets GA Parking 22
1301 A general_aviation 
1300  36.74411265 -006.06679507 91.1 gate heavy|jets GA Parking 222
1301 A general_aviation 
1300  36.74412509 -006.06725849 272.9 gate heavy|jets GA Parking 222
1301 A general_aviation 
1300  36.74351725 -006.06727719 -88.0 gate heavy|jets GA Parking 23
1301 A general_aviation 
1300  36.74366913 -006.06727404 -88.0 gate heavy|jets GA Parking 24
1301 A general_aviation 
1300  36.74382308 -006.06727094 -89.9 gate heavy|jets GA Parking 25
1301 A general_aviation 
1300  36.74397885 -006.06726269 272.9 gate heavy|jets GA Parking 26
1301 A general_aviation 
1300  36.74352337 -006.06755089 91.1 gate heavy|jets GA Parking 27
1301 A general_aviation 
1300  36.74367505 -006.06754649 91.1 gate heavy|jets GA Parking 28
1301 A general_aviation 
1300  36.74382849 -006.06754264 91.1 gate heavy|jets GA Parking 29
1301 A general_aviation 
1300  36.74456053 -006.06823740 181.9 gate heavy|jets GA Parking 30
1301 A general_aviation 
1300  36.74456469 -006.06839275 181.9 gate heavy|jets GA Parking 31
1301 A general_aviation 
1300  36.74456958 -006.06855116 181.9 gate heavy|jets GA Parking 32
1301 A general_aviation 
1300  36.74457447 -006.06870712 181.9 gate heavy|jets GA Parking 33
1301 A general_aviation 
1300  36.74457887 -006.06886767 181.9 gate heavy|jets GA Parking 34
1301 A general_aviation 
1300  36.74458310 -006.06902413 181.9 gate heavy|jets GA Parking 35
1301 A general_aviation 
1300  36.74458662 -006.06918016 181.9 gate heavy|jets GA Parking 36
1301 A general_aviation 
1300  36.74459049 -006.06933706 181.9 gate heavy|jets GA Parking 37
1301 A general_aviation 
1300  36.74459402 -006.06949660 181.9 gate heavy|jets GA Parking 38
1301 A general_aviation 
1300  36.74459824 -006.06965219 181.9 gate heavy|jets GA Parking 39
1301 A general_aviation 
1300  36.74460212 -006.06981437 181.9 gate heavy|jets GA Parking 40
1301 A general_aviation 
1300  36.74468227 -006.07026733 180.8 gate heavy|jets GA Parking 41
1301 A general_aviation 
1300  36.74445295 -006.07028738 180.8 gate heavy|jets GA Parking 42
1301 A general_aviation 
1300  36.74432562 -006.06983186 53.0 gate heavy|jets GA Parking 43
1301 A general_aviation 
1300  36.74431741 -006.06952789 53.0 gate heavy|jets GA Parking 44
1301 A general_aviation 
1300  36.74430780 -006.06923848 53.0 gate heavy|jets GA Parking 45
1301 A general_aviation 
1300  36.74430446 -006.06894009 53.0 gate heavy|jets GA Parking 46
1301 A general_aviation 
1300  36.74429595 -006.06865193 53.0 gate heavy|jets GA Parking 47
1301 A general_aviation 
1300  36.74429117 -006.06835071 53.0 gate heavy|jets GA Parking 48
1301 A general_aviation 
1300  36.74427695 -006.06806178 53.0 gate heavy|jets GA Parking 49
1301 A general_aviation 
1300  36.74346325 -006.06456907 180.6 gate heavy|jets H1
1301 B general_aviation 
1300  36.74346278 -006.06481312 180.6 gate heavy|jets H2
1301 B general_aviation 
1300  36.74348145 -006.06506902 180.6 gate heavy|jets H3
1301 B none 
1300  36.74387095 -006.06456224 1.1 gate heavy|jets H4
1301 A general_aviation 
1300  36.74390820 -006.06478174 92.2 gate heavy|jets H5
1301 B general_aviation 
1300  36.74732642 -006.06293081 204.5 gate heavy|jets|helos H9
1301 B general_aviation 
1300  36.74714854 -006.06233097 204.5 gate heavy|jets H10
1301 B general_aviation 
1300  36.74489759 -006.06744472 -22.6 tie_down props AG1
1301 A general_aviation 
1300  36.74491474 -006.06706200 39.5 tie_down props AG2
1301 A general_aviation 
1300  36.74470014 -006.06773474 1.5 tie_down helos Helicopter Parking
1301 B none 
19  36.75061218 -006.05592693 0 New Windsock 1
1053 121600 GND
1054 118550 TWR
1055 128500 APP
1050 125650 ATIS
1200 
1201  36.75135634 -006.06307474 both 0 S4_stop
1201  36.74994281 -006.06376607 both 1 S4_split
1201  36.74944897 -006.06400696 both 2 S4_split
1201  36.75125282 -006.06275172 both 3 S4_stop
1201  36.75099461 -006.06287478 both 4 S4_stop
1201  36.74744182 -006.06499075 both 5 S4_stop
1201  36.74698448 -006.06501431 both 6 S4_stop
1201  36.74692089 -006.06499309 both 7 S4_stop
1201  36.74688318 -006.06491095 both 8 S4_stop
1201  36.74480051 -006.06722565 both 9 S4_stop
1201  36.74353043 -006.06776828 both 10 S4_stop
1201  36.74352355 -006.06741175 both 11 S4_start
1201  36.74350883 -006.06704895 both 12 S4_stop
1201  36.74350356 -006.06663393 both 13 S4_stop
1201  36.74353307 -006.06595269 both 14 S4_start
1201  36.74368066 -006.06456380 both 15 S4_stop
1201  36.74459543 -006.06420387 both 16 S4_stop
1201  36.74401505 -006.06440573 both 17 S4_stop
1201  36.74341088 -006.06441664 both 18 S4_stop
1201  36.74331801 -006.06452980 both 19 S4_stop
1201  36.74333904 -006.06444450 both 20 S4_split
1201  36.74339995 -006.06782107 both 21 S4_stop
1201  36.74352450 -006.06797786 both 22 S4_stop
1201  36.74343250 -006.06793522 both 23 S4_split
1201  36.74393202 -006.06795742 both 24 S4_stop
1201  36.74402489 -006.06785107 both 25 S4_stop
1201  36.74399885 -006.06792946 both 26 S4_split
1201  36.74401942 -006.06757293 both 27 S4_stop
1201  36.74402293 -006.06775170 both 28 S4_split
1201  36.74411994 -006.06744477 both 29 S4_stop
1201  36.74403830 -006.06748236 both 30 S4_split
1201  36.74455149 -006.06742977 both 31 S4_stop
1201  36.74461236 -006.06484525 both 32 _stop
1201  36.74468018 -006.06723007 both 33 _split
1201  36.74687678 -006.06475505 both 34 _stop
1201  36.74688111 -006.06468024 both 35 S4_split
1201  36.74688852 -006.06459257 both 36 S4_split
1201  36.74568572 -006.06480250 both 37 _split
1201  36.74719782 -006.06468678 both 38 _stop
1201  36.74705089 -006.06473641 both 39 unnamed entity(split)
1201  36.74755797 -006.06451159 both 40 unnamed entity(split)
1201  36.74731166 -006.06373030 both 41 _split
1201  36.74686901 -006.06232617 both 42 _split
1201  36.74685712 -006.06218450 both 43 _split
1201  36.74694550 -006.06210436 both 44 _split
1201  36.74764520 -006.06176090 both 45 _split
1201  36.75013130 -006.06054598 both 46 _split
1201  36.75019091 -006.06053698 both 47 _split
1201  36.75022514 -006.06059760 both 48 _split
1201  36.75069318 -006.06207561 both 49 _split
1201  36.75091560 -006.06277797 both 50 _split
1201  36.75092614 -006.06286817 both 51 _split
1201  36.75087526 -006.06289152 both 52 _split
1201  36.74929303 -006.06366423 both 53 _split
1201  36.74792574 -006.06433198 both 54 _split
1201  36.74767195 -006.06445592 both 55 _split
1201  36.74787375 -006.06451842 both 56 S4_split
1201  36.74468189 -006.06729032 both 57 unnamed entity(split)
1201  36.74465341 -006.06740221 both 58 S4_split
1201  36.74710935 -006.06004946 both 59 E3_stop
1201  36.74886649 -006.05921327 both 60 E2_stop
1201  36.75386314 -006.05559759 both 61 02/20_stop
1201  36.73546151 -006.06457802 both 62 02/20_start
1201  36.74240901 -006.06118718 both 63 unnamed entity(split)
1201  36.74347014 -006.06067059 both 64 unnamed entity(split)
1201  36.74679271 -006.05904675 both 65 unnamed entity(split)
1201  36.74854424 -006.05819158 both 66 unnamed entity(split)
1201  36.75449919 -006.05644225 both 67 T_stop
1201  36.75465098 -006.05692588 both 68 T_stop
1201  36.75466416 -006.05728898 both 69 T_stop
1201  36.75446840 -006.05748994 both 70 T_stop
1201  36.73605727 -006.06647753 both 71 T_stop
1201  36.74054731 -006.06428549 both 72 unnamed entity(split)
1201  36.74406881 -006.06257256 both 73 unnamed entity(split)
1201  36.74738967 -006.06094538 both 74 unnamed entity(split)
1201  36.74914132 -006.06009046 both 75 unnamed entity(split)
1201  36.74939513 -006.06090688 both 76 L2_split
1201  36.73574259 -006.06649689 both 77 T_stop
1201  36.73552906 -006.06618533 both 78 T_stop
1201  36.73540317 -006.06578153 both 79 T_start
1201  36.75416954 -006.05562404 both 80 E1_stop
1201  36.75431771 -006.05586124 both 81 E1_stop
1201  36.74437803 -006.06778130 both 82 L4_stop
1201  36.74421091 -006.06316577 both 83 L4_stop
1201  36.74424628 -006.06417357 both 84 L4_split
1201  36.74426127 -006.06435159 both 85 L4_split
1201  36.74441092 -006.06429482 both 86 S4_split
1201  36.74430942 -006.06492377 both 87 unnamed entity(split)
1201  36.74431942 -006.06525809 both 88 L4_split
1201  36.74433473 -006.06591995 both 89 _split
1201  36.74434715 -006.06661092 both 90 _split
1201  36.74435908 -006.06702437 both 91 _split
1201  36.74369712 -006.06528136 both 92 _split
1201  36.74436518 -006.06723583 both 93 L4_split
1201  36.74436865 -006.06738788 both 94 _split
1201  36.74436977 -006.06743710 both 95 L4_split
1201  36.74437704 -006.06773979 both 96 _split
1201  36.74417617 -006.06291585 both 97 L4_stop
1201  36.74785473 -006.06242957 both 98 L2_stop
1201  36.74792614 -006.06256465 both 99 L2_stop
1201  36.74805735 -006.06268368 both 100 L2_stop
1201  36.74823287 -006.06272951 both 101 L2_stop
1201  36.74837912 -006.06270018 both 102 L2_stop
1201  36.74940512 -006.06218640 both 103 L2_stop
1201  36.74954663 -006.06204234 both 104 L2_stop
1201  36.74962398 -006.06176053 both 105 L2_stop
1201  36.74960283 -006.06156518 both 106 L2_stop
1201  36.73521518 -006.06486928 both 107 E6_stop
1201  36.73523780 -006.06525521 both 108 E6_stop
1201  36.74005623 -006.06405186 both 109 E5_stop
1201  36.74023941 -006.06428047 both 110 E5_split
1201  36.74010194 -006.06364708 both 111 E5_stop
1201  36.74038396 -006.06320775 both 112 E5_stop
1201  36.74096071 -006.06239106 both 113 E5_stop
1201  36.74159666 -006.06175485 both 114 E5_stop
1201  36.74378738 -006.06167393 both 115 E4_stop
1201  36.74787444 -006.06485925 both 116 S4_stop
1201  36.74942032 -006.06407889 both 117 S4_stop
1201  36.74940508 -006.06402841 both 118 S4_split
1201  36.74821813 -006.06466302 both 119 S4_stop
1201  36.74795743 -006.06463897 both 120 S4_start
1201  36.74805743 -006.06468254 both 121 S4_split
1201  36.74813905 -006.06468795 both 122 S4_split
1201  36.74647880 -006.06458096 both 123 S4_stop
1201  36.74599059 -006.06460057 both 124 S4_split
1201  36.74646550 -006.06418962 both 125 S4_stop
1201  36.74582313 -006.06422351 both 126 S4_stop
1201  36.74582797 -006.06457288 both 127 S4_stop
1201  36.74568312 -006.06463910 both 128 S4_stop
1201  36.74819286 -006.06486596 both 129 S4_stop
1201  36.74474790 -006.06802239 both 130 S4_stop
1201  36.74480583 -006.07002849 both 131 S4_stop
1201  36.74447801 -006.07004086 both 132 S4_stop
1201  36.74442666 -006.06802896 both 133 S4_stop
1201  36.74402819 -006.06797630 both 134 S4_stop
1201  36.74415656 -006.06809446 both 135 S4_stop
1201  36.74411941 -006.06800185 both 136 _split
1201  36.74533697 -006.06954514 both 137 S4_stop
1201  36.74536037 -006.07031523 both 138 S4_stop
1201  36.74525478 -006.07044227 both 139 S4_stop
1201  36.74532939 -006.07041153 both 140 S4_split
1201  36.74434433 -006.07051485 both 141 S4_stop
1201  36.74424064 -006.07042964 both 142 S4_stop
1201  36.74427593 -006.07050714 both 143 S4_split
1201  36.74423685 -006.07035166 both 144 S4_stop
1201  36.74341797 -006.06858939 both 145 S4_stop
1201  36.74419631 -006.07026443 both 146 S4_split
1201  36.74341091 -006.06806193 both 147 S4_stop
1201  36.74950473 -006.06405103 both 148 S4_stop
1201  36.74991257 -006.06385021 both 149 S4_stop
1201  36.74687874 -006.06417449 both 150 S4_stop
1202 33 9 twoway taxiway_A 
1202 93 33 twoway taxiway_A 
1202 96 28 oneway taxiway_A 
1202 28 10 oneway taxiway_A 
1202 11 94 oneway taxiway_A 
1202 91 12 oneway taxiway_A 
1202 90 13 twoway taxiway_B 
1202 14 89 oneway taxiway_B 
1202 88 92 twoway taxiway_B 
1202 92 15 twoway taxiway_B 
1202 106 105 twoway taxiway_E 
1202 59 65 twoway taxiway_C E3
1204 departure 02,20
1204 arrival 02,20
1202 74 59 twoway taxiway_C E3
1202 60 66 twoway taxiway_C E2
1204 departure 02,20
1204 arrival 02,20
1202 75 60 twoway taxiway_C E2
1202 62 63 twoway runway 02/20
1204 departure 02,20
1204 arrival 02,20
1204 ils 02,20
1202 63 64 twoway runway 02/20
1204 departure 02,20
1204 arrival 02,20
1204 ils 02,20
1202 64 65 twoway runway 02/20
1204 departure 02,20
1204 arrival 02,20
1204 ils 02,20
1202 65 66 twoway runway 02/20
1204 departure 02,20
1204 arrival 02,20
1204 ils 02,20
1202 66 61 twoway runway 02/20
1204 departure 02,20
1204 arrival 02,20
1204 ils 02,20
1202 68 67 twoway taxiway_C T
1202 69 68 twoway taxiway_C T
1202 70 69 twoway taxiway_C T
1202 71 72 twoway taxiway_C T
1202 72 73 twoway taxiway_C T
1202 73 74 twoway taxiway_C T
1202 74 75 twoway taxiway_C T
1202 75 70 twoway taxiway_C T
1202 77 71 twoway taxiway_C T
1202 78 77 twoway taxiway_C T
1202 79 78 twoway taxiway_C T
1202 80 61 twoway taxiway_C E1
1204 departure 02,20
1204 arrival 02,20
1202 81 80 twoway taxiway_C E1
1204 departure 02,20
1204 arrival 02,20
1202 67 81 twoway taxiway_C E1
1204 departure 02,20
1204 arrival 02,20
1202 83 84 twoway taxiway_B 
1202 84 85 twoway taxiway_B 
1202 85 87 twoway taxiway_B 
1202 87 88 twoway taxiway_B 
1202 88 89 twoway taxiway_B 
1202 89 90 twoway taxiway_B 
1202 90 91 twoway taxiway_B 
1202 91 93 twoway taxiway_B 
1202 93 94 twoway taxiway_B 
1202 94 95 twoway taxiway_B 
1202 95 96 twoway taxiway_B 
1202 96 82 twoway taxiway_B 
1202 97 83 twoway taxiway_B 
1202 73 97 twoway taxiway_B 
1202 98 45 twoway taxiway_C L3
1202 45 74 twoway taxiway_C L3
1202 99 98 twoway taxiway_C 
1202 100 99 twoway taxiway_C 
1202 101 100 twoway taxiway_C 
1202 102 101 twoway taxiway_C 
1202 103 102 twoway taxiway_C 
1202 104 103 twoway taxiway_C 
1202 105 104 twoway taxiway_C 
1202 75 76 twoway taxiway_C L2
1202 76 106 twoway taxiway_C L2
1202 107 62 twoway taxiway_C E6
1204 departure 02,20
1204 arrival 02,20
1202 108 107 twoway taxiway_C E6
1204 departure 02,20
1204 arrival 02,20
1202 79 108 twoway taxiway_C E6
1204 departure 02,20
1204 arrival 02,20
1202 115 64 twoway taxiway_C E4
1204 departure 02,20
1204 arrival 02,20
1202 109 110 oneway taxiway_C E5
1204 departure 02,20
1204 arrival 02,20
1202 110 72 oneway taxiway_C E5
1204 departure 02,20
1204 arrival 02,20
1202 111 109 oneway taxiway_C E5
1204 departure 02,20
1204 arrival 02,20
1202 112 111 oneway taxiway_C E5
1204 departure 02,20
1204 arrival 02,20
1202 113 112 oneway taxiway_C E5
1204 departure 02,20
1204 arrival 02,20
1202 114 113 oneway taxiway_C E5
1204 departure 02,20
1204 arrival 02,20
1202 63 114 oneway taxiway_C E5
1204 departure 02,20
1204 arrival 02,20
1202 73 115 twoway taxiway_C E4
1202 133 130 oneway taxiway_A 
1202 130 131 oneway taxiway_A 
1202 131 132 oneway taxiway_A 
1202 133 132 twoway taxiway_A 
1202 82 133 twoway taxiway_A 
1206 0 1 oneway S4
1206 1 2 oneway S4
1206 2 118 oneway S4
1206 3 0 twoway S4
1206 4 3 twoway S4
1206 51 4 twoway S4
1206 6 5 twoway S4
1206 7 6 twoway S4
1206 8 7 twoway S4
1206 34 8 twoway S4
1206 32 16 twoway S4
1206 85 86 twoway S4
1206 86 16 twoway S4
1206 17 85 twoway S4
1206 18 17 twoway S4
1206 19 20 twoway S4
1206 20 18 twoway S4
1206 21 19 twoway 
1206 22 23 twoway 
1206 23 21 twoway 
1206 24 22 twoway 
1206 25 26 twoway 
1206 26 24 twoway 
1206 27 28 twoway S4
1206 28 25 twoway S4
1206 29 30 twoway S4
1206 30 27 twoway S4
1206 95 29 twoway S4
1206 31 95 twoway S4
1206 57 58 twoway S4
1206 58 31 twoway S4
1206 56 116 twoway S4
1206 54 56 twoway S4
1206 55 56 twoway S4
1206 56 120 twoway S4
1206 41 49 oneway S4
1206 32 33 twoway 
1206 33 57 twoway 
1206 34 37 twoway 
1206 37 32 twoway 
1206 38 39 twoway 
1206 39 34 twoway 
1206 40 41 twoway 
1206 41 42 twoway 
1206 42 43 twoway 
1206 43 44 twoway 
1206 44 45 twoway 
1206 45 76 twoway 
1206 76 46 twoway 
1206 46 47 twoway 
1206 47 48 twoway 
1206 48 49 twoway 
1206 49 50 twoway 
1206 50 51 twoway 
1206 51 52 twoway 
1206 52 53 twoway 
1206 53 54 twoway 
1206 54 55 twoway 
1206 55 40 twoway 
1206 40 38 twoway 
1206 117 118 twoway S4
1206 118 53 oneway S4
1206 119 117 twoway S4
1206 120 121 twoway S4
1206 121 122 twoway S4
1206 122 119 twoway S4
1206 123 124 oneway S4
1206 124 127 oneway S4
1206 125 123 oneway S4
1206 126 125 oneway S4
1206 127 126 oneway S4
1206 128 127 twoway S4
1206 37 128 twoway S4
1206 122 129 twoway S4
1206 134 24 oneway 
1206 135 136 oneway 
1206 136 134 oneway 
1206 146 135 oneway 
1206 138 137 twoway 
1206 139 140 twoway 
1206 140 138 twoway 
1206 141 139 twoway 
1206 142 143 twoway 
1206 143 141 twoway 
1206 144 142 twoway 
1206 145 146 twoway 
1206 146 144 twoway 
1206 147 145 twoway S4
1206 23 147 twoway S4
1206 148 2 oneway S4
1206 149 148 oneway S4
1206 1 149 oneway S4
1206 34 35 twoway S4
1206 35 36 twoway S4
1206 36 150 twoway S4
1401  36.74714471 -006.06274800 15.7 baggage_loader|baggage_train|crew_car|fuel_jets|fuel_liners|food Ramp Destination
1401  36.74857027 -006.06151125 277.6 baggage_loader|baggage_train|crew_car|fuel_jets|fuel_liners|food Ramp Destination
1401  36.75035541 -006.06137729 199.9 baggage_loader|baggage_train|crew_car|fuel_jets|fuel_liners|food Ramp Destination
1401  36.75063398 -006.06277273 116.1 baggage_loader|baggage_train|crew_car|fuel_jets|fuel_liners|food Ramp Destination
1401  36.75007556 -006.06305820 116.1 baggage_loader|baggage_train|crew_car|fuel_jets|fuel_liners|food Ramp Destination
1401  36.74960404 -006.06328625 116.1 baggage_loader|baggage_train|crew_car|fuel_jets|fuel_liners|food Ramp Destination
1401  36.74915552 -006.06350474 116.1 baggage_loader|baggage_train|crew_car|fuel_jets|fuel_liners|food Ramp Destination
1401  36.74802574 -006.06407249 116.1 baggage_loader|baggage_train|crew_car|fuel_jets|fuel_liners|food Ramp Destination
1401  36.74837774 -006.06389253 116.1 baggage_loader|baggage_train|crew_car|fuel_jets|fuel_liners|food Ramp Destination
1401  36.74876322 -006.06370249 116.1 baggage_loader|baggage_train|crew_car|fuel_jets|fuel_liners|food Ramp Destination
99
