I
1130 Generated by WorldEditor 2.5.1r1

1     39 0 0 LGLE Leros
1302 city Leros Island
1302 country GRC Greece
1302 datum_lat 37.185
1302 datum_lon 26.8
1302 faa_code 
1302 gui_label 3D
1302 iata_code LRS
1302 icao_code LGLE
1302 region_code LG
1302 state Dodecanese
1302 transition_alt 
1302 transition_level 
100 29.87 1 0 0.25 0 0 0  14  37.18870471  026.79660114 20 0 1 0 0 0 32  37.18110814  026.80344050 20 0 3 0 0 0
110 1 0.00 0.0 New Taxiway 29
111  37.18268289  026.80296259
111  37.18269780  026.80335097
111  37.18317944  026.80320909
111  37.18320237  026.80303425
111  37.18370924  026.80274332
111  37.18366681  026.80253122
111  37.18362897  026.80245239
113  37.18362094  026.80239507
110 1 0.00 0.0 New Taxiway 4
111  37.18190449  026.80288229
112  37.18200430  026.80282846  37.18206621  026.80280360
111  37.18200430  026.80282846
112  37.18200430  026.80282846  37.18203132  026.80281761
112  37.18209867  026.80280099  37.18213219  026.80279444
111  37.18209867  026.80280099
112  37.18209867  026.80280099  37.18215567  026.80278986
112  37.18242048  026.80276573  37.18254387  026.80275519
111  37.18242048  026.80276573
112  37.18242048  026.80276573  37.18253591  026.80275587
111  37.18263557  026.80274868
111  37.18268990  026.80300215
111  37.18312777  026.80284467
111  37.18339196  026.80262529
111  37.18340671  026.80261559
111  37.18365299  026.80238989
111  37.18436757  026.80176749
111  37.18427374  026.80149260
112  37.18451792  026.80063223  37.18453658  026.80056681
111  37.18451792  026.80063223
112  37.18451792  026.80063223  37.18452521  026.80060667
112  37.18455826  026.80055376  37.18457520  026.80052897
111  37.18455826  026.80055376
112  37.18455826  026.80055376  37.18458468  026.80051509
111  37.18461309  026.80048454
111  37.18415108  026.80089687
112  37.18419383  026.80086997  37.18421596  026.80085899
111  37.18419383  026.80086997
112  37.18419383  026.80086997  37.18420910  026.80086240
112  37.18423549  026.80086117  37.18424590  026.80086516
111  37.18423549  026.80086117
112  37.18423549  026.80086117  37.18425300  026.80086788
112  37.18426495  026.80088936  37.18426772  026.80090579
111  37.18426495  026.80088936
112  37.18426495  026.80088936  37.18426621  026.80089686
112  37.18426491  026.80092025  37.18426368  026.80093375
111  37.18426491  026.80092025
112  37.18426491  026.80092025  37.18426313  026.80093979
112  37.18420757  026.80112062  37.18417882  026.80121225
111  37.18420757  026.80112062
112  37.18420757  026.80112062  37.18418543  026.80119117
112  37.18413094  026.80137791  37.18410576  026.80145645
111  37.18413094  026.80137791
112  37.18413094  026.80137791  37.18411673  026.80142224
112  37.18409428  026.80147044  37.18408473  026.80148376
111  37.18409428  026.80147044
112  37.18409428  026.80147044  37.18409035  026.80147592
112  37.18402237  026.80153904  37.18398059  026.80157735
111  37.18402237  026.80153904
112  37.18402237  026.80153904  37.18378252  026.80175892
111  37.18302930  026.80242311
112  37.18294693  026.80249327  37.18285781  026.80255790
111  37.18294693  026.80249327
112  37.18294693  026.80249327  37.18291980  026.80251294
112  37.18280095  026.80252907  37.18273730  026.80253448
111  37.18280095  026.80252907
112  37.18280095  026.80252907  37.18272075  026.80253588
112  37.18255921  026.80253140  37.18249132  026.80252856
111  37.18255921  026.80253140
112  37.18255921  026.80253140  37.18250395  026.80252909
111  37.18246576  026.80252598
112  37.18242147  026.80251245  37.18240810  026.80249372
111  37.18242147  026.80251245
112  37.18242147  026.80251245  37.18241487  026.80250321
112  37.18242032  026.80246373  37.18242809  026.80243933
111  37.18242032  026.80246373
112  37.18242032  026.80246373  37.18242959  026.80243462
112  37.18242065  026.80239744  37.18241422  026.80238190
111  37.18242065  026.80239744
112  37.18242065  026.80239744  37.18241076  026.80237356
113  37.18239157  026.80236409
110 1 0.00 0.0 New Taxiway 2
111  37.18877630  026.79674890
112  37.18880101  026.79676151  37.18881566  026.79676737
111  37.18880101  026.79676151
112  37.18880101  026.79676151  37.18881828  026.79676842
112  37.18886313  026.79676599  37.18888431  026.79675790
111  37.18886313  026.79676599
112  37.18886313  026.79676599  37.18888806  026.79675646
112  37.18895693  026.79668686  37.18898706  026.79665191
111  37.18895693  026.79668686
112  37.18895693  026.79668686  37.18897412  026.79666692
112  37.18899592  026.79663136  37.18900334  026.79661584
111  37.18899592  026.79663136
112  37.18899592  026.79663136  37.18900584  026.79661060
112  37.18901853  026.79654142  37.18902290  026.79650712
111  37.18901853  026.79654142
112  37.18901853  026.79654142  37.18902316  026.79650510
112  37.18901635  026.79645185  37.18900935  026.79643426
111  37.18901635  026.79645185
112  37.18901635  026.79645185  37.18900853  026.79643221
112  37.18895972  026.79633398  37.18893612  026.79628919
111  37.18895972  026.79633398
112  37.18895972  026.79633398  37.18894221  026.79630076
112  37.18891761  026.79626592  37.18890963  026.79625955
111  37.18891761  026.79626592
112  37.18891761  026.79626592  37.18890796  026.79625821
112  37.18885538  026.79623624  37.18882828  026.79622709
111  37.18885538  026.79623624
112  37.18885538  026.79623624  37.18882990  026.79622764
112  37.18878651  026.79622746  37.18877001  026.79623263
111  37.18878651  026.79622746
112  37.18878651  026.79622746  37.18877563  026.79623087
112  37.18872851  026.79626289  37.18870358  026.79628189
111  37.18872851  026.79626289
112  37.18872851  026.79626289  37.18869689  026.79628699
112  37.18863786  026.79635663  37.18861488  026.79639256
111  37.18863786  026.79635663
112  37.18863786  026.79635663  37.18862227  026.79638100
112  37.18861456  026.79643048  37.18861643  026.79645457
111  37.18861456  026.79643048
112  37.18861456  026.79643048  37.18861674  026.79645849
112  37.18865660  026.79654619  37.18867915  026.79659124
111  37.18865660  026.79654619
112  37.18865660  026.79654619  37.18868006  026.79659306
112  37.18873284  026.79668209  37.18875649  026.79672044
111  37.18873284  026.79668209
114  37.18873284  026.79668209  37.18875757  026.79672218
110 1 0.00 0.0 New Taxiway 1
111  37.18103803  026.80330461
112  37.18102087  026.80329809  37.18100941  026.80329534
111  37.18102087  026.80329809
112  37.18102087  026.80329809  37.18100843  026.80329511
112  37.18096311  026.80329889  37.18093702  026.80330445
111  37.18096311  026.80329889
112  37.18096311  026.80329889  37.18093709  026.80330444
112  37.18090244  026.80332055  37.18088609  026.80333045
111  37.18090244  026.80332055
112  37.18090244  026.80332055  37.18088730  026.80332972
112  37.18085756  026.80335992  37.18084126  026.80337780
111  37.18085756  026.80335992
112  37.18085756  026.80335992  37.18084252  026.80337641
112  37.18080363  026.80341659  37.18078472  026.80343821
111  37.18080363  026.80341659
112  37.18080363  026.80341659  37.18079100  026.80343103
112  37.18076896  026.80346427  37.18075907  026.80348172
111  37.18076896  026.80346427
112  37.18076896  026.80346427  37.18076026  026.80347960
112  37.18074935  026.80351428  37.18074538  026.80353235
111  37.18074935  026.80351428
112  37.18074935  026.80351428  37.18074330  026.80354178
112  37.18074824  026.80358943  37.18075257  026.80361251
111  37.18074824  026.80358943
112  37.18074824  026.80358943  37.18075484  026.80362461
112  37.18078367  026.80368967  37.18079724  026.80372301
111  37.18078367  026.80368967
112  37.18078367  026.80368967  37.18079212  026.80371043
112  37.18082822  026.80375532  37.18084801  026.80377723
111  37.18082822  026.80375532
112  37.18082822  026.80375532  37.18086107  026.80379169
112  37.18093567  026.80384045  37.18096779  026.80385581
111  37.18093567  026.80384045
112  37.18093567  026.80384045  37.18095704  026.80385067
112  37.18101213  026.80383155  37.18104021  026.80381773
111  37.18101213  026.80383155
112  37.18101213  026.80383155  37.18105171  026.80381207
112  37.18112445  026.80374198  37.18115548  026.80370828
111  37.18112445  026.80374198
112  37.18112445  026.80374198  37.18114478  026.80371990
112  37.18117066  026.80365996  37.18118149  026.80363061
111  37.18117066  026.80365996
112  37.18117066  026.80365996  37.18118809  026.80361273
113  37.18119459  026.80356873
130 Airport Boundary 1
111  37.18932039  026.79688547
111  37.18945227  026.79636795
111  37.18931893  026.79609386
111  37.18891677  026.79588450
111  37.18850355  026.79611051
111  37.18060163  026.80333167
111  37.18062050  026.80378368
111  37.18088351  026.80393926
111  37.18123461  026.80381596
111  37.18213363  026.80301878
111  37.18246438  026.80296896
111  37.18283483  026.80345051
111  37.18467728  026.80210461
111  37.18436856  026.80141520
113  37.18459445  026.80084350
120 Linear Feature 1
111  37.18449916  026.80038649 1 101
112  37.18447455  026.80041372  37.18446060  026.80043128
111  37.18447455  026.80041372
112  37.18447455  026.80041372  37.18446233  026.80042911 1 101
112  37.18443529  026.80047678  37.18442300  026.80050304
111  37.18443529  026.80047678
112  37.18443529  026.80047678  37.18442549  026.80049772 1 101
112  37.18441307  026.80054819  37.18440890  026.80057465
111  37.18441307  026.80054819
112  37.18441307  026.80054819  37.18440611  026.80059238 1 101
112  37.18438487  026.80070466  37.18437477  026.80075700
111  37.18438487  026.80070466
112  37.18438487  026.80070466  37.18437268  026.80076781 1 101
111  37.18436201  026.80081990 1 101
112  37.18434063  026.80093054  37.18433210  026.80097066
111  37.18434063  026.80093054
112  37.18434063  026.80093054  37.18433811  026.80094239 1 101
112  37.18430722  026.80105864  37.18428967  026.80112421
111  37.18430722  026.80105864
112  37.18430722  026.80105864  37.18426534  026.80121511 1 101
111  37.18419948  026.80145626 1 101
112  37.18418386  026.80150722  37.18417458  026.80153576
111  37.18418386  026.80150722
112  37.18418386  026.80150722  37.18417159  026.80154494 1 101
112  37.18413933  026.80161485  37.18412452  026.80163633
111  37.18413933  026.80161485
112  37.18413933  026.80161485  37.18413692  026.80161835 1 101
112  37.18410756  026.80164700  37.18408933  026.80166446
111  37.18410756  026.80164700
112  37.18410756  026.80164700  37.18392916  026.80181784 1 101
111  37.18307169  026.80258735 1 101
112  37.18302987  026.80262145  37.18300469  026.80263839
111  37.18302987  026.80262145
112  37.18302987  026.80262145  37.18300595  026.80263755 1 101
112  37.18294186  026.80265420  37.18290942  026.80265496
111  37.18294186  026.80265420
112  37.18294186  026.80265420  37.18292800  026.80265453 1 101
112  37.18284754  026.80265212  37.18280159  026.80265056
111  37.18284754  026.80265212
112  37.18284754  026.80265212  37.18267276  026.80264621 1 101
111  37.18233239  026.80263013 1 101
112  37.18227531  026.80263397  37.18223754  026.80263712
111  37.18227531  026.80263397
112  37.18227531  026.80263397  37.18223885  026.80263701 1 101
112  37.18211507  026.80265153  37.18204496  026.80266072
111  37.18211507  026.80265153
112  37.18211507  026.80265153  37.18208155  026.80265593 1 101
112  37.18201041  026.80268425  37.18197514  026.80270036
111  37.18201041  026.80268425
112  37.18201041  026.80268425  37.18197079  026.80270235 1 101
112  37.18189803  026.80274778  37.18186412  026.80277018
111  37.18189803  026.80274778
112  37.18189803  026.80274778  37.18183356  026.80279036 1 101
115  37.18178696  026.80283070
14  37.18348171  026.80280784 82 0 Leros
1300  37.18364563  026.80234882 28.8 tie_down heavy|jets|turboprops|props Ramp 3
1301 A general_aviation 
1300  37.18379815  026.80220551 28.8 tie_down heavy|jets|turboprops|props Ramp 2
1301 A general_aviation 
1300  37.18398237  026.80199180 144.3 tie_down heavy|jets|turboprops|props Ramp 1
1301 C airline 
19  37.18839867  026.79645565 1 WS
19  37.18143351  026.80349306 1 WS
1054 124950 INFO
1200 
1201  37.18299812  026.80266714 both 0 N_stop
1201  37.18278483  026.80266050 both 1 N_stop
1201  37.18263826  026.80265040 both 2 N_stop
1201  37.18414818  026.80161129 both 3 N_stop
1201  37.18392129  026.80181778 both 4 N_stop
1201  37.18379256  026.80193560 both 5 N_stop
1201  37.18369014  026.80203367 both 6 N_stop
1201  37.18315422  026.80252413 both 7 N_stop
1201  37.18432667  026.80100349 both 8 N_stop
1201  37.18867107  026.79663142 both 9 N_stop
1201  37.18116974  026.80338416 both 10 N_start
1201  37.18200947  026.80263207 both 11 N_start
1201  37.18442134  026.80045609 both 12 N_start
1202 0 1 twoway taxiway_A None
1202 1 2 twoway taxiway_A None
1202 2 11 twoway taxiway_A None
1204 departure 14,32
1204 arrival 14,32
1204 ils 14,32
1202 3 4 twoway taxiway_A None
1202 4 5 twoway taxiway_A None
1202 5 6 twoway taxiway_A None
1202 6 7 twoway taxiway_A None
1202 7 0 twoway taxiway_A None
1202 8 3 twoway taxiway_A None
1202 12 8 twoway taxiway_A None
1204 departure 14,32
1204 arrival 14,32
1204 ils 14,32
1202 10 11 twoway runway 14/32
1204 departure 14,32
1204 arrival 14,32
1204 ils 14,32
1202 11 12 twoway runway 14/32
1204 departure 14,32
1204 arrival 14,32
1204 ils 14,32
1202 12 9 twoway runway 14/32
1204 departure 14,32
1204 arrival 14,32
1204 ils 14,32
99
