I
1130 Generated by WorldEditor 2.5.1r1

1    623 0 0 EDKA Aachen-Merzbrueck
1302 city Aachen
1302 country DEU Germany
1302 datum_lat 50.823
1302 datum_lon 6.186333333
1302 faa_code 
1302 gui_label 3D
1302 iata_code AAH
1302 icao_code EDKA
1302 region_code ED
1302 state North Rhine-Westphalia
1302 tower_service_type fiso
1302 transition_alt 
1302 transition_level 
100 18.00 1 0 0.25 0 0 0  07  50.81974642  006.17645357 213 29 2 0 0 0 25  50.82371148  006.19172745 213 28 2 0 0 0
110 1 0.00 0.0 New Taxiway 213
111  50.82318980  006.19236153
111  50.82359010  006.19246677
111  50.82437405  006.19270014
111  50.82440544  006.19274814
111  50.82442555  006.19259716
111  50.82429460  006.19259174
111  50.82356431  006.19237858
113  50.82314480  006.19227155
110 1 0.00 0.0 New Taxiway 203
111  50.82183403  006.18500659
111  50.82206001  006.18485551
111  50.82196349  006.18449377
113  50.82173751  006.18464486
110 2 0.00 248.7 apron
111  50.82380902  006.18622049
111  50.82376304  006.18655578
111  50.82383271  006.18683560
111  50.82399833  006.18747118
111  50.82387880  006.18754435
111  50.82392908  006.18774740
111  50.82395880  006.18786932
111  50.82400340  006.18804985
111  50.82403560  006.18818159
111  50.82407496  006.18834208
111  50.82419729  006.18826765
111  50.82430671  006.18870535
111  50.82436992  006.18895084
111  50.82441476  006.18896194
112  50.82441476  006.18896194  50.82441891  006.18894244
112  50.82443278  006.18887945  50.82444003  006.18886200
111  50.82446551  006.18885486
111  50.82449339  006.18886404
111  50.82451631  006.18885424
111  50.82453157  006.18862257
111  50.82409165  006.18680482
111  50.82403118  006.18655735
111  50.82388388  006.18652687
111  50.82388444  006.18652049
113  50.82391203  006.18624588
110 2 0.00 166.9 fuel
111  50.82386133  006.18563601
111  50.82388962  006.18582648
111  50.82390250  006.18591726
111  50.82397100  006.18589375
111  50.82403097  006.18587167
111  50.82402146  006.18580766
111  50.82404150  006.18580007
111  50.82401934  006.18565606
111  50.82399903  006.18566390
111  50.82398740  006.18559214
113  50.82392943  006.18561066
110 2 0.00 99.0 apron
111  50.82436992  006.18895084
111  50.82420962  006.19053113
111  50.82435858  006.19056758
111  50.82447244  006.18942464
111  50.82441227  006.18940901
112  50.82441227  006.18940901  50.82440644  006.18940743
112  50.82439355  006.18939726  50.82438747  006.18939119
111  50.82439355  006.18939726
112  50.82439355  006.18939726  50.82438361  006.18938734
112  50.82437697  006.18935406  50.82437833  006.18933597
111  50.82437697  006.18935406
113  50.82441476  006.18896194
110 1 0.00 0.0 asphalt
111  50.82309247  006.19173637
111  50.82339780  006.19180912
112  50.82339780  006.19180912  50.82344064  006.19182077
112  50.82349653  006.19181278  50.82352129  006.19180552
111  50.82349653  006.19181278
112  50.82349653  006.19181278  50.82352295  006.19180504
112  50.82356049  006.19177450  50.82357886  006.19175911
111  50.82356049  006.19177450
112  50.82356049  006.19177450  50.82357882  006.19175914
112  50.82361264  006.19174612  50.82362710  006.19174154
111  50.82361264  006.19174612
112  50.82361264  006.19174612  50.82362625  006.19174181
111  50.82363552  006.19174092
111  50.82359646  006.19159102
112  50.82358001  006.19162473  50.82356980  006.19164321
111  50.82358001  006.19162473
112  50.82358001  006.19162473  50.82357111  006.19164084
112  50.82354576  006.19167249  50.82353233  006.19168557
111  50.82354576  006.19167249
112  50.82354576  006.19167249  50.82353281  006.19168510
112  50.82349314  006.19169931  50.82347198  006.19170439
111  50.82349314  006.19169931
112  50.82349314  006.19169931  50.82346717  006.19170555
112  50.82340871  006.19169865  50.82338020  006.19169162
111  50.82340871  006.19169865
112  50.82322617  006.19166145  50.82314527  006.19164269
111  50.82322617  006.19166145
112  50.82322617  006.19166145  50.82318381  006.19165162
112  50.82313370  006.19163432  50.82312028  006.19162693
111  50.82313370  006.19163432
112  50.82313370  006.19163432  50.82312279  006.19162831
112  50.82310682  006.19160868  50.82309971  006.19159836
111  50.82310682  006.19160868
112  50.82310682  006.19160868  50.82310023  006.19159911
112  50.82309133  006.19157924  50.82308752  006.19156981
111  50.82309133  006.19157924
112  50.82309133  006.19157924  50.82308454  006.19156243
111  50.82308180  006.19154878
111  50.82306545  006.19153810
111  50.82301407  006.19174243
111  50.82304145  006.19181032
113  50.82306478  006.19174089
110 1 0.00 158.8 asphalt
111  50.82396814  006.19123066
112  50.82396814  006.19123066  50.82397129  006.19124463
112  50.82396724  006.19128683  50.82396394  006.19130866
111  50.82396724  006.19128683
112  50.82396724  006.19128683  50.82396275  006.19131651
112  50.82394317  006.19137156  50.82393277  006.19139423
111  50.82394317  006.19137156
112  50.82394317  006.19137156  50.82393670  006.19138566
112  50.82392316  006.19139959  50.82391657  006.19140318
111  50.82392316  006.19139959
111  50.82377968  006.19149120
112  50.82377968  006.19149120  50.82377153  006.19149539
112  50.82374714  006.19147783  50.82373606  006.19146862
111  50.82374714  006.19147783
112  50.82374714  006.19147783  50.82373647  006.19146897
111  50.82372785  006.19145932
111  50.82377807  006.19165968
111  50.82396065  006.19153975
111  50.82399012  006.19151962
112  50.82399012  006.19151962  50.82400573  006.19150868
112  50.82404448  006.19148328  50.82406386  006.19146845
111  50.82404448  006.19148328
112  50.82404448  006.19148328  50.82406700  006.19146606
112  50.82410632  006.19140724  50.82412309  006.19137137
111  50.82410632  006.19140724
112  50.82410632  006.19140724  50.82411745  006.19138344
112  50.82413035  006.19131664  50.82413467  006.19127934
111  50.82413035  006.19131664
111  50.82414586  006.19119866
111  50.82406092  006.19117270
113  50.82405267  006.19117423
110 1 0.00 69.7 asphalt
111  50.82395766  006.18823147
111  50.82408991  006.18876974
111  50.82427158  006.18865579
111  50.82430214  006.18870747
111  50.82431539  006.18869992
111  50.82420361  006.18825250
111  50.82407870  006.18832862
113  50.82404170  006.18817784
110 1 0.00 69.7 asphalt
111  50.82393382  006.18774446
111  50.82388560  006.18754983
111  50.82400640  006.18747590
111  50.82384707  006.18681861
111  50.82382391  006.18681905
111  50.82371735  006.18658920
111  50.82357490  006.18667408
113  50.82384980  006.18779574
110 1 0.25 67.3 asphalt
112  50.82390979  006.19062198  50.82390403  006.19060077
111  50.82390979  006.19062198
111  50.82405023  006.19118487
111  50.82406392  006.19118212
111  50.82412006  006.19059575
112  50.82412006  006.19059575  50.82411771  006.19061363
112  50.82410437  006.19064612  50.82409662  006.19066157
111  50.82410437  006.19064612
112  50.82410437  006.19064612  50.82409339  006.19066799
112  50.82406152  006.19069985  50.82404496  006.19071306
111  50.82406152  006.19069985
112  50.82406152  006.19069985  50.82404643  006.19071189
112  50.82401545  006.19072075  50.82400060  006.19072209
111  50.82401545  006.19072075
112  50.82401545  006.19072075  50.82400170  006.19072199
112  50.82397383  006.19071001  50.82396026  006.19070209
111  50.82397383  006.19071001
112  50.82397383  006.19071001  50.82396139  006.19070275
112  50.82393934  006.19067957  50.82392911  006.19066690
111  50.82393934  006.19067957
114  50.82393934  006.19067957  50.82392611  006.19066319
110 1 0.25 67.3 asphalt
111  50.82391431  006.19061916
111  50.82338528  006.18857535
112  50.82338528  006.18857535  50.82337824  006.18854310
112  50.82338282  006.18848780  50.82338745  006.18846184
111  50.82338282  006.18848780
112  50.82338282  006.18848780  50.82338759  006.18846102
112  50.82340948  006.18841877  50.82342162  006.18839970
111  50.82340948  006.18841877
112  50.82340948  006.18841877  50.82342253  006.18839828
112  50.82345376  006.18837222  50.82346917  006.18836189
111  50.82345376  006.18837222
111  50.82396427  006.18805187
111  50.82400657  006.18804789
111  50.82396197  006.18786736
111  50.82393226  006.18791414
111  50.82341887  006.18822313
112  50.82341887  006.18822313  50.82340375  006.18823217
112  50.82336784  006.18823417  50.82334975  006.18823245
111  50.82336784  006.18823417
112  50.82336784  006.18823417  50.82334468  006.18823196
112  50.82330217  006.18820043  50.82328325  006.18818004
111  50.82330217  006.18820043
112  50.82330217  006.18820043  50.82328920  006.18818645
112  50.82327149  006.18814539  50.82326455  006.18812264
111  50.82327149  006.18814539
111  50.82282094  006.18640226
112  50.82282094  006.18640226  50.82281278  006.18636572
112  50.82281495  006.18630046  50.82281878  006.18626962
111  50.82281495  006.18630046
112  50.82281495  006.18630046  50.82281855  006.18627146
112  50.82283956  006.18622417  50.82285210  006.18620272
111  50.82283956  006.18622417
112  50.82283956  006.18622417  50.82285402  006.18619944
112  50.82289787  006.18616933  50.82292187  006.18615813
111  50.82289787  006.18616933
111  50.82351036  006.18596303
111  50.82363196  006.18608174
111  50.82365492  006.18622107
111  50.82371224  006.18659028
111  50.82382397  006.18682710
111  50.82384112  006.18683036
111  50.82377145  006.18655053
111  50.82376891  006.18653957
111  50.82371902  006.18619941
111  50.82370401  006.18605028
111  50.82378303  006.18586217
111  50.82389816  006.18582330
111  50.82387207  006.18564762
111  50.82393163  006.18562544
111  50.82391826  006.18551366
111  50.82365726  006.18559720
111  50.82357813  006.18577753
111  50.82287623  006.18601912
112  50.82287623  006.18601912  50.82284891  006.18602632
112  50.82279493  006.18602751  50.82276913  006.18602477
111  50.82279493  006.18602751
112  50.82279493  006.18602751  50.82277303  006.18602519
112  50.82273635  006.18600406  50.82271985  006.18599006
111  50.82273635  006.18600406
112  50.82273635  006.18600406  50.82272159  006.18599154
112  50.82270234  006.18594848  50.82269490  006.18592346
111  50.82270234  006.18594848
111  50.82184027  006.18262151
111  50.82140748  006.18095122
111  50.82036422  006.17692729
111  50.82035586  006.17687620
111  50.82038771  006.17676008
111  50.82039841  006.17669896
111  50.82032151  006.17641107
112  50.82032151  006.17641107  50.82031789  006.17639759
112  50.82030540  006.17637977  50.82029870  006.17637215
111  50.82030540  006.17637977
112  50.82030540  006.17637977  50.82029826  006.17637165
112  50.82028236  006.17636343  50.82027464  006.17636038
111  50.82028236  006.17636343
111  50.82010847  006.17628246
112  50.82010847  006.17628246  50.82009436  006.17627635
112  50.82006110  006.17627755  50.82004387  006.17628030
111  50.82006110  006.17627755
112  50.82006110  006.17627755  50.82004133  006.17628070
112  50.81999819  006.17630360  50.81997639  006.17631768
111  50.81999819  006.17630360
111  50.81981977  006.17641860
111  50.81988484  006.17666809
112  50.81988484  006.17666809  50.81988260  006.17665094
112  50.81988428  006.17661736  50.81988598  006.17660108
111  50.81988428  006.17661736
112  50.81988428  006.17661736  50.81988606  006.17660027
112  50.81989473  006.17657080  50.81989972  006.17655730
111  50.81989473  006.17657080
112  50.81989473  006.17657080  50.81990131  006.17655300
112  50.81991998  006.17653338  50.81992979  006.17652727
111  50.81991998  006.17653338
111  50.82003473  006.17645511
112  50.82003473  006.17645511  50.82005375  006.17644581
112  50.82008652  006.17644640  50.82010198  006.17645008
111  50.82008652  006.17644640
112  50.82008652  006.17644640  50.82009981  006.17644957
112  50.82012219  006.17647127  50.82013264  006.17648480
111  50.82012219  006.17647127
112  50.82012219  006.17647127  50.82013390  006.17648644
112  50.82015166  006.17653746  50.82015955  006.17656658
111  50.82015166  006.17653746
111  50.82180012  006.18285816
112  50.82180012  006.18285816  50.82180774  006.18288630
112  50.82181094  006.18294247  50.82181062  006.18296994
111  50.82181094  006.18294247
112  50.82181094  006.18294247  50.82181061  006.18297063
112  50.82179805  006.18302113  50.82178987  006.18304476
111  50.82179805  006.18302113
112  50.82179805  006.18302113  50.82178812  006.18304983
112  50.82175193  006.18308943  50.82173127  006.18310511
111  50.82175193  006.18308943
111  50.82165891  006.18315103
112  50.82165891  006.18315103  50.82163922  006.18316270
112  50.82160127  006.18316512  50.82158462  006.18316483
111  50.82160127  006.18316512
112  50.82160127  006.18316512  50.82158381  006.18316482
111  50.82157146  006.18316122
111  50.82163117  006.18338620
112  50.82165031  006.18334221  50.82166234  006.18331900
111  50.82165031  006.18334221
112  50.82165031  006.18334221  50.82166093  006.18332173
112  50.82169214  006.18328766  50.82170891  006.18327598
111  50.82169214  006.18328766
111  50.82178594  006.18323549
112  50.82178594  006.18323549  50.82180810  006.18322379
112  50.82184230  006.18322496  50.82185800  006.18322887
111  50.82184230  006.18322496
112  50.82184230  006.18322496  50.82185673  006.18322855
112  50.82187914  006.18325070  50.82188950  006.18326367
111  50.82187914  006.18325070
112  50.82187914  006.18325070  50.82189370  006.18326893
112  50.82191454  006.18332271  50.82192419  006.18335081
111  50.82191454  006.18332271
111  50.82397022  006.19123848
113  50.82405475  006.19118205
110 1 0.25 99.5 asphalt
111  50.82405989  006.19118115
111  50.82414483  006.19120711
111  50.82421237  006.19053184
111  50.82437556  006.18894969
111  50.82430908  006.18870071
111  50.82430162  006.18870468
111  50.82430728  006.18877104
113  50.82411603  006.19059478
110 2 0.00 189.8 hangars pave
111  50.82318480  006.19111806
111  50.82314438  006.19109861
111  50.82310660  006.19099462
111  50.82279554  006.19089483
111  50.82234925  006.19078531
111  50.82232564  006.19105976
111  50.82219933  006.19102955
111  50.82219513  006.19105502
111  50.82194398  006.19099410
111  50.82197414  006.19072065
111  50.82192479  006.19070837
111  50.82189489  006.19099230
111  50.82185123  006.19097902
111  50.82184147  006.19133510
111  50.82181941  006.19155228
112  50.82178960  006.19157021  50.82177305  006.19158399
111  50.82178960  006.19157021
112  50.82178960  006.19157021  50.82178239  006.19157621
112  50.82176691  006.19159414  50.82175927  006.19160424
111  50.82176691  006.19159414
112  50.82176691  006.19159414  50.82175480  006.19161016
112  50.82173534  006.19166115  50.82172749  006.19169041
111  50.82173534  006.19166115
112  50.82173534  006.19166115  50.82172732  006.19169105
112  50.82172886  006.19174665  50.82173189  006.19177331
111  50.82172886  006.19174665
112  50.82172886  006.19174665  50.82173098  006.19176532
112  50.82174120  006.19179883  50.82174708  006.19181479
111  50.82174120  006.19179883
112  50.82174120  006.19179883  50.82175222  006.19182877
112  50.82178595  006.19186900  50.82180326  006.19188483
111  50.82178595  006.19186900
112  50.82178595  006.19186900  50.82180548  006.19188686
112  50.82184214  006.19189178  50.82186005  006.19189017
111  50.82184214  006.19189178
112  50.82184214  006.19189178  50.82186065  006.19189012
112  50.82189475  006.19186431  50.82191127  006.19184884
111  50.82189475  006.19186431
112  50.82189475  006.19186431  50.82191135  006.19184877
112  50.82192920  006.19180819  50.82193602  006.19179001
111  50.82192920  006.19180819
112  50.82192920  006.19180819  50.82193573  006.19179076
111  50.82193840  006.19177719
111  50.82197056  006.19178749
111  50.82194971  006.19198059
111  50.82226678  006.19206634
111  50.82270395  006.19218189
111  50.82271728  006.19213115
111  50.82298271  006.19219923
111  50.82301639  006.19184993
111  50.82298851  006.19176797
111  50.82302573  006.19174161
111  50.82306992  006.19155065
113  50.82307760  006.19155605
111  50.82288214  006.19136040
111  50.82272759  006.19131906
111  50.82270411  006.19153895
111  50.82207441  006.19137052
111  50.82210817  006.19105419
111  50.82233566  006.19111504
111  50.82235445  006.19093902
113  50.82291122  006.19108794
110 1 0.25 247.7 grass_rwy
111  50.82281509  006.19004699
111  50.81961950  006.17774121
111  50.81948852  006.17782643
113  50.82268412  006.19013221
110 4 0.25 276.2 grass_lawn_tracks_5.pol
111  50.82435926  006.19261169
112  50.82427925  006.19256128  50.82426128  006.19252962
112  50.82425543  006.19237657  50.82425417  006.19229478
111  50.82425543  006.19237657
112  50.82425543  006.19237657  50.82425488  006.19234088
112  50.82426355  006.19229200  50.82426902  006.19226953
111  50.82426355  006.19229200
112  50.82426355  006.19229200  50.82427062  006.19226298
112  50.82429304  006.19221298  50.82430458  006.19218547
111  50.82429304  006.19221298
112  50.82429304  006.19221298  50.82429957  006.19219741
112  50.82432249  006.19217383  50.82433459  006.19216280
111  50.82432249  006.19217383
112  50.82432249  006.19217383  50.82433437  006.19216300
112  50.82435893  006.19214432  50.82437040  006.19213500
111  50.82435893  006.19214432
112  50.82435893  006.19214432  50.82437239  006.19213338
112  50.82438789  006.19210942  50.82439219  006.19209631
111  50.82438789  006.19210942
112  50.82438789  006.19210942  50.82439959  006.19207379
112  50.82439959  006.19198342  50.82440252  006.19192669
111  50.82439959  006.19198342
112  50.82439959  006.19198342  50.82440042  006.19196743
112  50.82440823  006.19193122  50.82441266  006.19191326
111  50.82440823  006.19193122
112  50.82440823  006.19193122  50.82441952  006.19188547
111  50.82443762  006.19184159
112  50.82444756  006.19178539  50.82445204  006.19175049
111  50.82444756  006.19178539
112  50.82444756  006.19178539  50.82444985  006.19176761
112  50.82445279  006.19172117  50.82445371  006.19169736
111  50.82445279  006.19172117
112  50.82445279  006.19172117  50.82445418  006.19168515
112  50.82444639  006.19160082  50.82443976  006.19155689
111  50.82444639  006.19160082
112  50.82444639  006.19160082  50.82444233  006.19157393
112  50.82441932  006.19153119  50.82440640  006.19151167
111  50.82441932  006.19153119
112  50.82441932  006.19153119  50.82440416  006.19150829
112  50.82436741  006.19147799  50.82434969  006.19146545
111  50.82436741  006.19147799
112  50.82436741  006.19147799  50.82432725  006.19144958
111  50.82429132  006.19144609
112  50.82427391  006.19145324  50.82426834  006.19146643
111  50.82426834  006.19147962
111  50.82425615  006.19168632
112  50.82427321  006.19174239  50.82428645  006.19176712
112  50.82428888  006.19183914  50.82428854  006.19188146
112  50.82427286  006.19199635  50.82427043  006.19203154
111  50.82427286  006.19199635
112  50.82427286  006.19199635  50.82427172  006.19201283
112  50.82425746  006.19212477  50.82424525  006.19218340
111  50.82425746  006.19212477
112  50.82425746  006.19212477  50.82424359  006.19219134
112  50.82422529  006.19231412  50.82422214  006.19236059
111  50.82422529  006.19231412
112  50.82422529  006.19231412  50.82422242  006.19235651
112  50.82422780  006.19244363  50.82423046  006.19248413
111  50.82422780  006.19244363
112  50.82422780  006.19244363  50.82423063  006.19248663
112  50.82422934  006.19253947  50.82422528  006.19255622
111  50.82422934  006.19253947
112  50.82422934  006.19253947  50.82422146  006.19257200
113  50.82418994  006.19257356
110 1 0.25 97.0 asphalt_1L.pol
111  50.82235230  006.19078691
111  50.82213707  006.19073129
111  50.82210995  006.19071886
111  50.82208496  006.19071547
111  50.82207711  006.19085785
111  50.82206458  006.19099889
111  50.82220238  006.19103116
113  50.82232869  006.19106137
110 1 0.25 77.0 plain.pol
111  50.82427352  006.18555804
111  50.82433235  006.18544379
111  50.82435002  006.18540948
111  50.82430980  006.18535788
111  50.82423198  006.18550506
111  50.82419690  006.18540616
111  50.82417167  006.18525612
111  50.82431050  006.18520245
111  50.82429630  006.18511143
111  50.82431692  006.18510410
111  50.82428505  006.18489605
111  50.82397485  006.18501322
111  50.82400700  006.18522284
111  50.82402508  006.18521590
111  50.82402946  006.18524451
111  50.82409171  006.18522058
111  50.82411288  006.18534757
111  50.82419667  006.18553191
111  50.82420752  006.18557279
111  50.82419135  006.18559750
111  50.82416393  006.18565389
111  50.82418802  006.18567680
113  50.82420097  006.18570745
110 1 0.25 189.0 plain.pol
111  50.82318026  006.19229502
111  50.82314475  006.19221081
111  50.82310375  006.19202954
111  50.82305988  006.19184727
111  50.82304659  006.19180420
111  50.82302198  006.19172588
111  50.82298125  006.19175920
111  50.82300429  006.19184701
111  50.82297062  006.19219631
111  50.82302213  006.19220892
111  50.82302014  006.19222921
111  50.82305475  006.19223772
111  50.82306580  006.19212355
111  50.82307142  006.19211749
111  50.82308123  006.19212629
111  50.82309135  006.19215334
111  50.82311095  006.19226587
111  50.82310118  006.19228909
111  50.82289856  006.19226757
111  50.82289222  006.19233716
111  50.82288866  006.19241005
111  50.82316341  006.19246972
111  50.82317011  006.19240120
111  50.82319543  006.19240515
111  50.82321631  006.19236961
113  50.82321926  006.19230272
110 1 0.25 189.0 plain.pol
111  50.82292677  006.19228650
112  50.82168364  006.19189219  50.82166902  006.19187523
111  50.82168364  006.19189219
112  50.82168364  006.19189219  50.82167298  006.19187982
112  50.82165361  006.19184577  50.82164574  006.19182765
111  50.82165361  006.19184577
112  50.82165361  006.19184577  50.82164605  006.19182835
112  50.82164334  006.19178238  50.82164309  006.19176022
111  50.82164334  006.19178238
112  50.82164334  006.19178238  50.82164297  006.19174989
111  50.82164735  006.19172095
111  50.82163252  006.19168625
111  50.82163725  006.19162739
111  50.82166735  006.19160274
111  50.82167454  006.19151546
111  50.82148239  006.19147390
111  50.82147624  006.19151404
111  50.82141514  006.19150087
111  50.82139012  006.19155583
111  50.82136824  006.19155150
111  50.82134608  006.19173916
111  50.82137433  006.19178980
111  50.82142410  006.19183019
111  50.82142257  006.19186518
111  50.82144541  006.19186731
111  50.82150953  006.19190867
111  50.82159483  006.19196714
113  50.82290882  006.19235098
110 1 0.25 189.0 plain.pol
111  50.82445779  006.19141811
111  50.82447911  006.19121514
111  50.82431487  006.19117807
113  50.82429587  006.19137855
110 1 0.25 8.0 plain.pol
111  50.82511580  006.18604174
111  50.82504863  006.18608604
111  50.82494787  006.18603583
112  50.82489750  006.18597971  50.82488071  006.18593836
111  50.82489750  006.18584089
112  50.82498892  006.18518225  50.82499825  006.18515271
111  50.82502437  006.18513794
111  50.82508575  006.18509749
112  50.82510722  006.18507332  50.82511838  006.18505562
111  50.82510722  006.18507332
112  50.82510722  006.18507332  50.82511784  006.18505648
112  50.82513316  006.18498821  50.82513711  006.18494695
111  50.82513316  006.18498821
111  50.82516440  006.18451994
111  50.82507621  006.18442834
111  50.82494860  006.18439357
111  50.82482468  006.18452253
111  50.82481388  006.18467854
111  50.82485465  006.18468947
111  50.82481627  006.18507573
111  50.82475465  006.18503738
111  50.82474539  006.18498911
111  50.82480867  006.18496893
111  50.82478049  006.18476273
111  50.82469424  006.18472707
111  50.82453590  006.18479032
111  50.82452255  006.18476621
111  50.82445233  006.18479063
111  50.82444349  006.18472888
111  50.82442276  006.18473609
111  50.82443159  006.18479784
111  50.82437530  006.18481741
111  50.82437372  006.18485559
111  50.82432504  006.18487475
111  50.82437796  006.18521318
111  50.82467292  006.18510108
111  50.82467751  006.18513010
111  50.82471738  006.18511878
111  50.82480536  006.18517781
111  50.82479640  006.18523964
111  50.82452147  006.18524565
112  50.82452147  006.18524565  50.82449219  006.18524706
112  50.82444528  006.18527855  50.82442475  006.18529510
111  50.82444528  006.18527855
112  50.82444528  006.18527855  50.82441824  006.18530034
111  50.82440135  006.18532489
112  50.82432376  006.18543436  50.82427931  006.18551268
111  50.82432376  006.18543436
112  50.82432376  006.18543436  50.82430626  006.18546520
112  50.82426800  006.18555092  50.82424758  006.18559622
111  50.82426800  006.18555092
111  50.82420097  006.18570745
111  50.82418872  006.18573340
111  50.82418989  006.18575208
111  50.82413511  006.18594432
111  50.82412297  006.18598656
112  50.82412297  006.18598656  50.82412007  006.18599703
112  50.82411240  006.18600345  50.82410848  006.18600498
111  50.82411240  006.18600345
112  50.82411240  006.18600345  50.82410508  006.18600630
112  50.82409316  006.18599102  50.82408914  006.18598466
111  50.82409316  006.18599102
111  50.82402910  006.18588265
111  50.82402182  006.18585221
111  50.82396185  006.18587448
111  50.82411890  006.18612029
111  50.82413701  006.18616258
111  50.82417701  006.18629680
111  50.82404191  006.18628087
111  50.82390347  006.18624372
111  50.82387820  006.18649146
111  50.82400373  006.18652311
111  50.82401806  006.18654064
111  50.82402461  006.18656137
111  50.82408508  006.18680995
111  50.82410094  006.18679989
111  50.82409013  006.18675348
111  50.82407977  006.18675902
112  50.82407977  006.18675902  50.82407677  006.18674456
112  50.82408484  006.18668417  50.82409306  006.18665260
111  50.82408484  006.18668417
112  50.82408484  006.18668417  50.82408930  006.18666702
112  50.82410653  006.18663215  50.82411682  006.18661524
111  50.82410653  006.18663215
112  50.82410653  006.18663215  50.82411822  006.18661293
112  50.82415591  006.18658128  50.82417757  006.18656750
111  50.82415591  006.18658128
112  50.82415591  006.18658128  50.82418017  006.18656585
112  50.82423224  006.18658986  50.82425671  006.18660725
111  50.82423224  006.18658986
112  50.82423224  006.18658986  50.82424255  006.18659719
112  50.82426102  006.18661674  50.82426974  006.18662705
111  50.82426102  006.18661674
112  50.82426102  006.18661674  50.82427645  006.18663500
112  50.82429480  006.18667689  50.82430099  006.18669716
111  50.82429480  006.18667689
111  50.82430144  006.18670432
111  50.82438788  006.18665016
111  50.82437032  006.18657862
112  50.82437032  006.18657862  50.82436313  006.18655205
112  50.82437210  006.18649193  50.82438876  006.18644247
112  50.82446219  006.18640749  50.82448936  006.18639104
111  50.82446219  006.18640749
111  50.82487903  006.18617586
111  50.82500218  006.18620510
111  50.82503501  006.18625383
111  50.82502976  006.18630978
111  50.82497614  006.18629465
111  50.82496317  006.18641522
111  50.82494791  006.18659356
113  50.82505348  006.18661853
112  50.82446061  006.18534640  50.82450211  006.18531912
111  50.82446061  006.18534640
112  50.82446061  006.18534640  50.82447876  006.18533447
112  50.82450495  006.18533664  50.82451596  006.18534083
111  50.82450495  006.18533664
112  50.82450495  006.18533664  50.82451912  006.18534203
112  50.82453625  006.18535666  50.82454515  006.18535715
111  50.82453625  006.18535666
112  50.82468737  006.18534984  50.82475426  006.18533341
111  50.82468737  006.18534984
112  50.82468737  006.18534984  50.82471952  006.18534194
112  50.82476084  006.18530203  50.82477120  006.18529528
111  50.82476084  006.18530203
112  50.82476084  006.18530203  50.82479274  006.18528125
112  50.82484364  006.18533034  50.82485963  006.18535438
111  50.82485272  006.18537718
111  50.82480123  006.18604093
112  50.82442616  006.18625867  50.82427872  006.18633567
111  50.82442616  006.18625867
112  50.82442616  006.18625867  50.82437063  006.18628767
112  50.82431015  006.18630763  50.82429382  006.18630763
111  50.82431015  006.18630763
112  50.82431015  006.18630763  50.82429045  006.18630722
112  50.82424209  006.18627386  50.82422240  006.18625099
111  50.82424209  006.18627386
112  50.82424209  006.18627386  50.82421066  006.18624525
111  50.82416960  006.18616413
112  50.82416960  006.18616413  50.82416549  006.18615244
112  50.82415165  006.18609518  50.82414699  006.18606353
111  50.82415165  006.18609518
112  50.82415165  006.18609518  50.82414770  006.18606836
112  50.82415545  006.18600647  50.82416388  006.18597575
111  50.82415545  006.18600647
112  50.82427008  006.18566514  50.82427852  006.18563442
111  50.82427008  006.18566514
111  50.82429735  006.18558396
112  50.82435051  006.18546988  50.82438060  006.18541827
111  50.82435051  006.18546988
114  50.82435051  006.18546988  50.82436970  006.18543698
111  50.82498054  006.18488123
111  50.82505896  006.18490082
112  50.82507324  006.18491534  50.82508062  006.18492497
111  50.82507324  006.18491534
112  50.82507324  006.18491534  50.82508283  006.18492785
112  50.82509152  006.18497664  50.82508860  006.18500488
111  50.82509152  006.18497664
112  50.82509152  006.18497664  50.82508929  006.18499818
112  50.82507157  006.18502323  50.82506247  006.18503329
111  50.82507157  006.18502323
112  50.82507157  006.18502323  50.82505957  006.18503651
111  50.82504676  006.18504124
111  50.82496931  006.18502216
112  50.82494702  006.18499433  50.82493760  006.18497547
111  50.82494702  006.18499433
112  50.82494702  006.18499433  50.82494045  006.18498119
112  50.82493542  006.18493635  50.82493772  006.18491331
111  50.82493542  006.18493635
112  50.82493542  006.18493635  50.82493773  006.18491324
112  50.82495446  006.18489202  50.82496315  006.18488423
111  50.82495446  006.18489202
114  50.82495446  006.18489202  50.82496687  006.18488089
112  50.82418750  006.18637005  50.82418308  006.18638605
112  50.82415339  006.18642805  50.82412750  006.18644505
112  50.82410160  006.18641705  50.82409338  006.18640905
112  50.82406370  006.18635605  50.82405485  006.18634005
112  50.82406180  006.18631306  50.82407317  006.18631406
111  50.82406180  006.18631306
113  50.82418498  006.18632606
110 2 0.25 67.0 concrete_1D.pol
111  50.82478231  006.18840716
111  50.82472937  006.18818491
111  50.82480143  006.18820550
111  50.82494791  006.18659356
111  50.82476215  006.18645951
111  50.82443435  006.18664113
111  50.82444667  006.18671052
112  50.82443279  006.18674470  50.82441891  006.18674714
111  50.82440657  006.18673493
111  50.82438191  006.18663962
111  50.82429836  006.18669200
111  50.82429480  006.18667689
111  50.82410094  006.18679989
111  50.82407339  006.18681716
111  50.82425322  006.18754764
111  50.82434861  006.18748879
111  50.82442948  006.18781727
111  50.82433532  006.18787164
111  50.82452271  006.18862088
111  50.82450579  006.18884239
111  50.82450185  006.18884932
111  50.82448159  006.18907021
111  50.82458077  006.18909775
111  50.82456946  006.18920937
113  50.82469376  006.18923966
110 1 0.25 157.5 strips.pol
111  50.82281397  006.18544087
111  50.82284317  006.18555472
111  50.82291459  006.18550882
113  50.82288539  006.18539497
110 1 0.25 6.7 plain.pol
111  50.82170893  006.19125687
111  50.82164114  006.19124208
111  50.82164553  006.19118579
111  50.82159771  006.19117644
111  50.82159332  006.19123273
111  50.82145068  006.19120303
111  50.82145616  006.19113047
111  50.82140450  006.19112017
111  50.82138308  006.19136686
113  50.82169480  006.19142920
110 1 0.25 278.7 worn.pol
111  50.82493075  006.18275442
111  50.82490872  006.18297703
111  50.82497562  006.18299362
111  50.82494883  006.18326423
111  50.82488438  006.18324824
111  50.82486351  006.18345906
111  50.82499645  006.18349204
111  50.82501741  006.18328021
111  50.82496378  006.18326691
111  50.82499075  006.18299442
111  50.82504995  006.18300911
113  50.82507170  006.18278939
110 2 0.25 75.6 new.pol
111  50.82356244  006.18407648
111  50.82362532  006.18446922
111  50.82370386  006.18443771
113  50.82364098  006.18404497
110 1 0.00 0.0 New Taxiway 234
111  50.82374692  006.18429814
111  50.82372907  006.18439136
111  50.82383295  006.18505851
111  50.82387392  006.18524470
111  50.82392830  006.18537626
111  50.82399186  006.18548106
111  50.82417598  006.18565544
111  50.82420306  006.18560601
111  50.82400954  006.18544100
111  50.82392903  006.18529941
111  50.82387945  006.18511500
111  50.82378382  006.18443434
111  50.82379853  006.18439718
111  50.82397947  006.18433412
111  50.82395659  006.18414146
113  50.82381805  006.18419769
110 1 0.25 75.4 strips.pol
111  50.82342970  006.18398962
111  50.82350537  006.18444838
111  50.82360920  006.18440573
111  50.82362080  006.18447677
111  50.82370044  006.18444665
111  50.82369905  006.18443690
111  50.82374347  006.18441810
112  50.82376142  006.18432294  50.82378937  006.18428770
111  50.82388073  006.18425217
113  50.82378201  006.18382658
111  50.82369647  006.18443664
111  50.82362668  006.18446464
111  50.82356497  006.18407918
113  50.82363477  006.18405118
130 Airport Boundary
111  50.82051165  006.17605780
111  50.81959868  006.17558721
111  50.81925504  006.17619490
111  50.81895017  006.17932991
111  50.82092523  006.18691723
111  50.82050106  006.19187980
111  50.82439014  006.19274695
111  50.82552101  006.18179336
113  50.82176931  006.18086295
120 Linear Feature 219
111  50.82374505  006.18647386 19
115  50.82371593  006.18651460
120 Linear Feature 219
111  50.82369167  006.18613149 19
115  50.82366254  006.18617223
120 Linear Feature 219
111  50.82374638  006.18651193 19
115  50.82371459  006.18647653
120 Linear Feature 219
111  50.82369300  006.18616956 19
115  50.82366121  006.18613416
120 Linear Feature 202
111  50.82270317  006.18996942 19
115  50.82272552  006.18987593
120 Linear Feature 202
111  50.82228838  006.18854316 19
115  50.82234565  006.18830367
120 Linear Feature 202
111  50.82183204  006.18677102 19
115  50.82188931  006.18653153
120 Linear Feature 202
111  50.82126398  006.18456980 19
115  50.82132125  006.18433032
120 Linear Feature 202
111  50.82116374  006.18404274 19
115  50.82118430  006.18395677
120 Linear Feature 202
111  50.82011140  006.18018689 19
115  50.82017590  006.17991718
120 Linear Feature 202
111  50.81959961  006.17820239 19
115  50.81966410  006.17793268
120 Linear Feature 202
111  50.82268519  006.18990349 19
115  50.82274350  006.18994186
120 Linear Feature 202
111  50.82224232  006.18837426 19
115  50.82239170  006.18847257
120 Linear Feature 202
111  50.82178599  006.18660212 19
115  50.82193536  006.18670042
120 Linear Feature 202
111  50.82121793  006.18440091 19
115  50.82136730  006.18449921
120 Linear Feature 202
111  50.82114721  006.18398211 19
115  50.82120083  006.18401740
120 Linear Feature 202
111  50.82005954  006.17999668 19
115  50.82022777  006.18010739
120 Linear Feature 202
111  50.81954774  006.17801218 19
115  50.81971597  006.17812289
120 Linear Feature 201
111  50.82270435  006.18990009 22
115  50.81956196  006.17780006
120 line
111  50.82403560  006.18818159 20
111  50.82406989  006.18816035 20
115  50.82420047  006.18869212
120 line
111  50.82390233  006.18656547 20
115  50.82446351  006.18884851
120 line
111  50.82368837  006.18660926 20
111  50.82391350  006.18752139 20
111  50.82396312  006.18772502 20
115  50.82392960  006.18774530
120 rwy hold
111  50.82341056  006.19170305 4
115  50.82340029  006.19180522
120 rwy hold
111  50.82396088  006.19153682 4
115  50.82392681  006.19140256
120 rwy hold
111  50.82180398  006.18322553 4
115  50.82176546  006.18308283
120 rwy hold
111  50.82004156  006.17644671 4
115  50.82000624  006.17630147
120 twy line
111  50.82179005  006.18429675 1
111  50.82158225  006.18349553
112  50.82158225  006.18349553  50.82157766  006.18347729 1
112  50.82157677  006.18343372  50.82157745  006.18341162
111  50.82157677  006.18343372
112  50.82157677  006.18343372  50.82157760  006.18340661 1
112  50.82158800  006.18335453  50.82159418  006.18333047
111  50.82158800  006.18335453
112  50.82158800  006.18335453  50.82159444  006.18332946 1
112  50.82161644  006.18327960  50.82162774  006.18325796
111  50.82161644  006.18327960
112  50.82161644  006.18327960  50.82162482  006.18326355 1
112  50.82164103  006.18324630  50.82164854  006.18324147
111  50.82164103  006.18324630 1
111  50.82177298  006.18316175
111  50.82179558  006.18314822
112  50.82179558  006.18314822  50.82180362  006.18314330 1
112  50.82183518  006.18314131  50.82185160  006.18314201
111  50.82183518  006.18314131
112  50.82183518  006.18314131  50.82185032  006.18314195 1
112  50.82187929  006.18315282  50.82189204  006.18316016
111  50.82187929  006.18315282
112  50.82187929  006.18315282  50.82189358  006.18316104 1
112  50.82192478  006.18319773  50.82193897  006.18321770
111  50.82192478  006.18319773
112  50.82192478  006.18319773  50.82193699  006.18321491 1
116  50.82195159  006.18325318  50.82195608  006.18327186
120 twy line
112  50.82363377  006.19143601  50.82363822  006.19145384 1
112  50.82364309  006.19149561  50.82364468  006.19151685
111  50.82364309  006.19149561
112  50.82364309  006.19149561  50.82364431  006.19151191 1
112  50.82364361  006.19154485  50.82364266  006.19156108
111  50.82364361  006.19154485
112  50.82364361  006.19154485  50.82364258  006.19156250 1
112  50.82363599  006.19159490  50.82363185  006.19161023
111  50.82363599  006.19159490
112  50.82363599  006.19159490  50.82363094  006.19161360 1
112  50.82361616  006.19165077  50.82360823  006.19166847
111  50.82361616  006.19165077
112  50.82361616  006.19165077  50.82360956  006.19166549 1
112  50.82359452  006.19168979  50.82358683  006.19170060
111  50.82359452  006.19168979
112  50.82359452  006.19168979  50.82358783  006.19169921 1
116  50.82357393  006.19171097  50.82356699  006.19171535
120 twy line
112  50.82364125  006.19143219  50.82364984  006.19145908 1
112  50.82366505  006.19149532  50.82367349  006.19151170
111  50.82366505  006.19149532
112  50.82366505  006.19149532  50.82367329  006.19151130 1
112  50.82369781  006.19153666  50.82371250  006.19154935
111  50.82369781  006.19153666
112  50.82369781  006.19153666  50.82371335  006.19155008 1
112  50.82375209  006.19156669  50.82377121  006.19157206
111  50.82375209  006.19156669
112  50.82375209  006.19156669  50.82376957  006.19157160 1
116  50.82379981  006.19156386  50.82381298  006.19155612
120 twy line
112  50.82415153  006.19071119  50.82414851  006.19073887 1
112  50.82413633  006.19078296  50.82412937  006.19080324
111  50.82413633  006.19078296
112  50.82413633  006.19078296  50.82413017  006.19080090 1
112  50.82411408  006.19082867  50.82410552  006.19084128
111  50.82411408  006.19082867
112  50.82411408  006.19082867  50.82410371  006.19084393 1
112  50.82407894  006.19086357  50.82406607  006.19087171
111  50.82407894  006.19086357
112  50.82407894  006.19086357  50.82406499  006.19087239 1
112  50.82403438  006.19087865  50.82401886  006.19088005
111  50.82403438  006.19087865
112  50.82403438  006.19087865  50.82401229  006.19088064 1
112  50.82396877  006.19086156  50.82394807  006.19084863
111  50.82396877  006.19086156
112  50.82396877  006.19086156  50.82395101  006.19085047 1
112  50.82392204  006.19081418  50.82390924  006.19079397
111  50.82392204  006.19081418
112  50.82392204  006.19081418  50.82391258  006.19079925 1
116  50.82389995  006.19076297  50.82389492  006.19074387
120 twy line
111  50.82395562  006.19146242 1
111  50.82402195  006.19141961
112  50.82402195  006.19141961  50.82403741  006.19140955 1
112  50.82406304  006.19137008  50.82407463  006.19134822
111  50.82406304  006.19137008
112  50.82406304  006.19137008  50.82407171  006.19135372 1
112  50.82408450  006.19131526  50.82409000  006.19129553
111  50.82408450  006.19131526
112  50.82408450  006.19131526  50.82408883  006.19129973 1
112  50.82409391  006.19126749  50.82409579  006.19125140
111  50.82409391  006.19126749 1
111  50.82415153  006.19071119 1
111  50.82434261  006.18888060
112  50.82434261  006.18888060  50.82434650  006.18884376 1
112  50.82435521  006.18876474  50.82435863  006.18872369
111  50.82435521  006.18876474
112  50.82435521  006.18876474  50.82435781  006.18873351 1
112  50.82435718  006.18866663  50.82435474  006.18863324
111  50.82435718  006.18866663
112  50.82435718  006.18866663  50.82435545  006.18864286 1
112  50.82434582  006.18859382  50.82433973  006.18856906
111  50.82434582  006.18859382 1
111  50.82420263  006.18800981 1
111  50.82411716  006.18766120 1
115  50.82394718  006.18696794
120 twy line
112  50.82164103  006.18324630  50.82163177  006.18325155 1
112  50.82160330  006.18325120  50.82158866  006.18324934
111  50.82160330  006.18325120
112  50.82160330  006.18325120  50.82158495  006.18324887 1
112  50.82155169  006.18322914  50.82153808  006.18321701
111  50.82155169  006.18322914
112  50.82155169  006.18322914  50.82154362  006.18322195 1
112  50.82152838  006.18320736  50.82152088  006.18319912
111  50.82152838  006.18320736
112  50.82152838  006.18320736  50.82151746  006.18319537 1
112  50.82149671  006.18315117  50.82148640  006.18312291
111  50.82149671  006.18315117
112  50.82149671  006.18315117  50.82149261  006.18313995 1
112  50.82148447  006.18311116  50.82148040  006.18309554
111  50.82148447  006.18311116 1
115  50.82128392  006.18234297
120 twy line
112  50.82185757  006.18289074  50.82186244  006.18290969 1
112  50.82186414  006.18296334  50.82186345  006.18299119
111  50.82186414  006.18296334
112  50.82186414  006.18296334  50.82186352  006.18298860 1
112  50.82185417  006.18304062  50.82184799  006.18306569
111  50.82185417  006.18304062
112  50.82185417  006.18304062  50.82184711  006.18306928 1
112  50.82182790  006.18311264  50.82181716  006.18313160
111  50.82182790  006.18311264
112  50.82182790  006.18311264  50.82181889  006.18312856 1
116  50.82179558  006.18314822  50.82178288  006.18315579
120 twy line
111  50.82304622  006.19167157 1
111  50.82339245  006.19175359
111  50.82341790  006.19175961 1
112  50.82345260  006.19176635  50.82346894  006.19176924
111  50.82345260  006.19176635
112  50.82345260  006.19176635  50.82346019  006.19176769 1
112  50.82348045  006.19176366  50.82349109  006.19176073
111  50.82348045  006.19176366
112  50.82348045  006.19176366  50.82349270  006.19176028 1
112  50.82351959  006.19174730  50.82353290  006.19174009
111  50.82351959  006.19174730 1
111  50.82357393  006.19171097 1
111  50.82379981  006.19156386 1
111  50.82393231  006.19147793
111  50.82395562  006.19146242
112  50.82395562  006.19146242  50.82396933  006.19145355 1
112  50.82399098  006.19141746  50.82400075  006.19139734
111  50.82399098  006.19141746
112  50.82399098  006.19141746  50.82400261  006.19139351 1
112  50.82401644  006.19133291  50.82402162  006.19130217
111  50.82401644  006.19133291
112  50.82401644  006.19133291  50.82401894  006.19131807 1
112  50.82402147  006.19128832  50.82402230  006.19127362
111  50.82402147  006.19128832
112  50.82402147  006.19128832  50.82402316  006.19125842 1
116  50.82401542  006.19120767  50.82400955  006.19118537
120 twy line
111  50.82401542  006.19120767 1
112  50.82389995  006.19076297  50.82388018  006.19068789
111  50.82389995  006.19076297 1
111  50.82333037  006.18856758 1
111  50.82323575  006.18820286 1
111  50.82276506  006.18638860 1
111  50.82266311  006.18599599 1
111  50.82195159  006.18325318 1
111  50.82185757  006.18289074 1
115  50.82018984  006.17647456
120 twy line
112  50.82018984  006.17647456  50.82018494  006.17645523 1
112  50.82016722  006.17642338  50.82015740  006.17640867
111  50.82016722  006.17642338
112  50.82016722  006.17642338  50.82015627  006.17640698 1
112  50.82012864  006.17638360  50.82011438  006.17637359
111  50.82012864  006.17638360
112  50.82012864  006.17638360  50.82011145  006.17637154 1
112  50.82007567  006.17636269  50.82005842  006.17636101
111  50.82007567  006.17636269
112  50.82007567  006.17636269  50.82006148  006.17636131 1
112  50.82003711  006.17637001  50.82002607  006.17637638
111  50.82003711  006.17637001
111  50.82001744  006.17638172 1
111  50.81988392  006.17646963
112  50.81988392  006.17646963  50.81987346  006.17647636 1
112  50.81985634  006.17650030  50.81984841  006.17651360
111  50.81985634  006.17650030
112  50.81985634  006.17650030  50.81984459  006.17652001 1
112  50.81982937  006.17657276  50.81982312  006.17659999
111  50.81982937  006.17657276
112  50.81982937  006.17657276  50.81982400  006.17659616 1
112  50.81981931  006.17664411  50.81981797  006.17666741
111  50.81981931  006.17664411
112  50.81981931  006.17664411  50.81981760  006.17667369 1
116  50.81982381  006.17672092  50.81982850  006.17674076
120 twy line
112  50.82411716  006.18766120  50.82412174  006.18767930 1
112  50.82412565  006.18772369  50.82412654  006.18774657
111  50.82412565  006.18772369
112  50.82412565  006.18772369  50.82412666  006.18774964 1
112  50.82411973  006.18780396  50.82411451  006.18783054
111  50.82411973  006.18780396
112  50.82411973  006.18780396  50.82411430  006.18783159 1
112  50.82409114  006.18788200  50.82407721  006.18790381
111  50.82409114  006.18788200
112  50.82409114  006.18788200  50.82407931  006.18790053 1
116  50.82404494  006.18792343  50.82402579  006.18793333
120 twy line
112  50.82284234  006.18610815  50.82283255  006.18611141 1
112  50.82281318  006.18613201  50.82280373  006.18614421
111  50.82281318  006.18613201
112  50.82281318  006.18613201  50.82280150  006.18614710 1
112  50.82278150  006.18619222  50.82277245  006.18621643
111  50.82278150  006.18619222
112  50.82278150  006.18619222  50.82277502  006.18620955 1
112  50.82276540  006.18624840  50.82276130  006.18626822
111  50.82276540  006.18624840
112  50.82276540  006.18624840  50.82275936  006.18627757 1
112  50.82275773  006.18633804  50.82275911  006.18636765
111  50.82275773  006.18633804
112  50.82275773  006.18633804  50.82275855  006.18635553 1
116  50.82276506  006.18638860  50.82276922  006.18640462
120 twy line
112  50.82340235  006.18831592  50.82339080  006.18832315 1
112  50.82336815  006.18835134  50.82335730  006.18836728
111  50.82336815  006.18835134
112  50.82336815  006.18835134  50.82335970  006.18836375 1
112  50.82334510  006.18839468  50.82333837  006.18841097
111  50.82334510  006.18839468
112  50.82334510  006.18839468  50.82333324  006.18842339 1
112  50.82332325  006.18849262  50.82332158  006.18852808
111  50.82332325  006.18849262
112  50.82332325  006.18849262  50.82332210  006.18851717 1
116  50.82333037  006.18856758  50.82333661  006.18859263
120 twy line
111  50.82377394  006.18579103 1
115  50.82284234  006.18610815
120 twy line
112  50.82284234  006.18610815  50.82282873  006.18611268 1
112  50.82279313  006.18611250  50.82277472  006.18611057
111  50.82279313  006.18611250
112  50.82279313  006.18611250  50.82277575  006.18611068 1
112  50.82273973  006.18609647  50.82272218  006.18608735
111  50.82273973  006.18609647
112  50.82273973  006.18609647  50.82272113  006.18608681 1
112  50.82268934  006.18605308  50.82267513  006.18603351
111  50.82268934  006.18605308
112  50.82268934  006.18605308  50.82267808  006.18603758 1
116  50.82266311  006.18599599  50.82265727  006.18597328
120 twy line
112  50.82420263  006.18800981  50.82419726  006.18798882 1
112  50.82417429  006.18795670  50.82416145  006.18794236
111  50.82417429  006.18795670
112  50.82417429  006.18795670  50.82416218  006.18794317 1
112  50.82413248  006.18792545  50.82411729  006.18791820
111  50.82413248  006.18792545
112  50.82413248  006.18792545  50.82411359  006.18791643 1
112  50.82407598  006.18791373  50.82405832  006.18791505
111  50.82407598  006.18791373
112  50.82407598  006.18791373  50.82406432  006.18791460 1
112  50.82404494  006.18792343  50.82403623  006.18792906
111  50.82404494  006.18792343 1
111  50.82340235  006.18831592
112  50.82340235  006.18831592  50.82339065  006.18832325 1
112  50.82336072  006.18832598  50.82334522  006.18832532
111  50.82336072  006.18832598
112  50.82336072  006.18832598  50.82334399  006.18832527 1
112  50.82330885  006.18830945  50.82329169  006.18829910
111  50.82330885  006.18830945
112  50.82330885  006.18830945  50.82329438  006.18830072 1
112  50.82326843  006.18827267  50.82325636  006.18825685
111  50.82326843  006.18827267
112  50.82326843  006.18827267  50.82325442  006.18825430 1
116  50.82323575  006.18820286  50.82322863  006.18817464
120 white line
112  50.82425939  006.18752827  50.82424751  006.18753566 20
112  50.82422706  006.18756052  50.82421747  006.18757429
111  50.82422706  006.18756052
112  50.82422706  006.18756052  50.82421444  006.18757863 20
112  50.82419639  006.18762630  50.82418875  006.18765126
111  50.82419639  006.18762630
112  50.82419639  006.18762630  50.82418865  006.18765158 20
112  50.82418233  006.18770658  50.82418089  006.18773400
111  50.82418233  006.18770658
112  50.82418233  006.18770658  50.82418081  006.18773543 20
112  50.82418994  006.18778974  50.82419676  006.18781537
111  50.82418994  006.18778974
112  50.82418994  006.18778974  50.82419708  006.18781657 20
112  50.82422072  006.18785597  50.82423373  006.18787314
111  50.82422072  006.18785597
112  50.82422072  006.18785597  50.82423692  006.18787733 20
112  50.82427838  006.18789554  50.82429993  006.18790025
111  50.82427838  006.18789554
112  50.82427838  006.18789554  50.82429910  006.18790007 20
116  50.82434324  006.18788393  50.82436514  006.18787138
21  50.82099660  006.18043781 7 67.7 3.00 APAPI 07
21  50.82289824  006.18775007 8 247.7 3.90 APAPI 25
14  50.82392048  006.18639502 33 0 Aachen-Merzbrueck
1300  50.82393255  006.18766260 338.0 tie_down heavy|jets|turboprops|props L6
1301 A general_aviation 
1300  50.82388253  006.18747440 338.0 tie_down heavy|jets|turboprops|props L5
1301 A general_aviation 
1300  50.82383423  006.18728576 338.0 tie_down heavy|jets|turboprops|props L4
1301 A general_aviation 
1300  50.82378761  006.18709310 338.0 tie_down heavy|jets|turboprops|props L3
1301 A general_aviation 
1300  50.82373846  006.18690446 338.0 tie_down heavy|jets|turboprops|props L2
1301 A general_aviation 
1300  50.82368845  006.18670913 338.0 tie_down heavy|jets|turboprops|props L1
1301 A general_aviation 
1300  50.82415277  006.18863550 338.0 tie_down heavy|jets|turboprops|props R3
1301 A general_aviation 
1300  50.82410446  006.18844820 338.0 tie_down heavy|jets|turboprops|props R2
1301 A general_aviation 
1300  50.82405615  006.18826223 338.0 tie_down heavy|jets|turboprops|props R1
1301 A general_aviation 
1300  50.82434486  006.18952008 150.1 tie_down heavy|jets|turboprops|props|helos N1
1301 A general_aviation 
1300  50.82426249  006.19035388 232.5 tie_down heavy|jets|turboprops|props|helos N1
1301 A general_aviation 
1300  50.82253204  006.19161139 7.8 tie_down heavy|jets|turboprops|props|helos S1
1301 A general_aviation 
1300  50.82302135  006.19143891 107.2 tie_down heavy|jets|turboprops|props|helos S2
1301 A general_aviation 
19  50.82333887  006.18178980 0 Windsock 
19  50.82297125  006.18552381 0 Windsock 
1054 122880 Aachen Info
1200 
1201  50.82386154  006.18576324 both 0 D_start
1201  50.82416379  006.18784800 both 1 _stop
1201  50.82436639  006.18866221 both 2 G_stop
1201  50.82408679  006.19138153 both 3 G_stop
1201  50.82414466  006.19081873 both 4 G_split
1201  50.82287141  006.19162574 both 5 H_stop
1201  50.82401278  006.19136601 both 6 A_stop
1201  50.82402239  006.19123412 both 7 A_stop
1201  50.82018484  006.17646138 both 8 A_stop
1201  50.82190367  006.18307807 both 9 A_split
1201  50.82246154  006.18522559 both 10 A_split
1201  50.82270300  006.18615511 both 11 A_split
1201  50.82328560  006.18839785 both 12 A_split
1201  50.82391817  006.19083296 both 13 A_split
1201  50.82011378  006.17636892 both 14 A_stop
1201  50.82178985  006.18315085 both 15 B_start
1201  50.82340043  006.19175582 both 16 H_stop
1201  50.82348914  006.19176386 both 17 H_stop
1201  50.82395796  006.19146254 both 18 A_stop
1201  50.82003079  006.17637309 both 19 A_stop
1201  50.82368880  006.19163722 both 20 07/25_stop
1201  50.81976813  006.17654085 both 21 07/25_start
1201  50.82152848  006.18331901 both 22 07/25_split
1201  50.82392633  006.18660620 both 23 _stop
1201  50.82416065  006.18755671 both 24 _stop
1202 1 12 twoway taxiway_A E
1202 0 11 twoway taxiway_A D
1202 4 13 twoway taxiway_A G
1202 2 1 twoway taxiway_A 
1202 3 4 twoway taxiway_A G
1202 4 2 twoway taxiway_A G
1202 18 3 twoway taxiway_A G
1202 16 5 twoway taxiway_A H
1202 6 18 twoway taxiway_A A
1202 7 6 twoway taxiway_A A
1202 8 9 twoway taxiway_A A
1202 9 10 twoway taxiway_A A
1202 10 11 twoway taxiway_A A
1202 11 12 twoway taxiway_A A
1202 12 13 twoway taxiway_A A
1202 13 7 twoway taxiway_A A
1202 14 8 twoway taxiway_A A
1202 19 14 twoway taxiway_A A
1202 15 22 twoway taxiway_A B
1204 departure 07,25
1204 arrival 07,25
1204 ils 07,25
1202 17 16 twoway taxiway_A H
1204 departure 07,25
1204 arrival 07,25
1204 ils 07,25
1202 20 17 twoway taxiway_A H
1204 departure 07,25
1204 arrival 07,25
1204 ils 07,25
1202 20 18 twoway taxiway_A A
1204 departure 07,25
1204 arrival 07,25
1204 ils 07,25
1202 21 22 twoway runway 07/25
1204 departure 07,25
1204 arrival 07,25
1204 ils 07,25
1202 22 20 twoway runway 07/25
1204 departure 07,25
1204 arrival 07,25
1204 ils 07,25
1202 19 21 twoway taxiway_A A
1204 departure 07,25
1204 arrival 07,25
1204 ils 07,25
1202 15 9 twoway taxiway_A B
1202 24 23 twoway taxiway_A 
1202 1 24 twoway taxiway_A 
99
