I
1130 Generated by WorldEditor 2.4.0r2

1    200 0 0 LRTC Tulcea
1302 city Tulcea
1302 country Romania
1302 datum_lat 45.062777778
1302 datum_lon 28.714444444
1302 faa_code 
1302 gui_label 3D
1302 iata_code TCE
1302 icao_code LRTC
1302 region_code LR
1302 state Tulcea
1302 transition_alt 3000
1302 transition_level 
100 45.00 1 0 0.00 1 2 0  16  45.07166981  028.71170868 0 0 2 9 0 0 34  45.05413451  028.71718422 0 0 2 9 0 0
110 1 1.00 0.0 New Taxiway 19
111  45.06336189  028.71788713
111  45.06321315  028.71788880
111  45.06310906  028.71789892
111  45.06302645  028.71790597
111  45.06318358  028.71786738
111  45.06333994  028.71782690
111  45.06339771  028.71780580
111  45.06338814  028.71774687
111  45.06333428  028.71776545
111  45.06317606  028.71780498
111  45.06300772  028.71784959
111  45.06286029  028.71789285
111  45.06278846  028.71791638
111  45.06274986  028.71792321
111  45.06224476  028.71798800
111  45.06103634  028.71813305
111  45.05815442  028.71847165
111  45.05732202  028.71857302
111  45.05675864  028.71863602
111  45.05638913  028.71869834
111  45.05578217  028.71880220
111  45.05473825  028.71901837
111  45.05459528  028.71903851
111  45.05448952  028.71906146
111  45.05438299  028.71908987
111  45.05430810  028.71910845
111  45.05426689  028.71911564
111  45.05421971  028.71911413
112  45.05418540  028.71909895  45.05418540  028.71909819
111  45.05415645  028.71906708
111  45.05414251  028.71902306
111  45.05410963  028.71887007
111  45.05391302  028.71759631
111  45.05384735  028.71761636
111  45.05386959  028.71762039
111  45.05387372  028.71762588
111  45.05408332  028.71895012
111  45.05409915  028.71903664
111  45.05412893  028.71911086
111  45.05415975  028.71915211
111  45.05420845  028.71917109
111  45.05428126  028.71917488
111  45.05475064  028.71906417
111  45.05580217  028.71884842
111  45.05676078  028.71868585
111  45.06040537  028.71826738
111  45.06214774  028.71804881
111  45.06277782  028.71799260
111  45.06302600  028.71796743
111  45.06322362  028.71794995
113  45.06336294  028.71794335
110 1 1.00 0.0 New Taxiway 11
111  45.06451021  028.71808366
111  45.06453013  028.71821019
111  45.06468086  028.71816459
111  45.06468749  028.71823015
111  45.06481103  028.71819908
111  45.06482783  028.71824146
111  45.06485288  028.71827982
111  45.06488336  028.71831626
111  45.06490842  028.71833639
111  45.06492290  028.71834448
111  45.06494783  028.71837245
111  45.06496523  028.71840708
111  45.06499628  028.71849006
111  45.06502496  028.71865024
111  45.06506417  028.71890173
111  45.06576938  028.72338318
111  45.06583180  028.72336108
111  45.06507773  028.71857626
111  45.06507020  028.71850567
111  45.06506785  028.71843908
111  45.06507397  028.71838714
111  45.06509325  028.71832987
111  45.06511488  028.71829191
111  45.06515204  028.71825928
111  45.06518247  028.71824341
111  45.06524650  028.71870370
111  45.06547447  028.71864013
111  45.06540108  028.71817085
111  45.06545357  028.71812290
111  45.06546878  028.71810136
111  45.06547636  028.71807033
111  45.06547658  028.71803357
111  45.06546918  028.71798021
111  45.06549151  028.71797169
111  45.06548212  028.71790147
111  45.06545742  028.71791090
111  45.06542778  028.71770821
111  45.06486438  028.71790657
113  45.06487153  028.71795531
110 1 1.00 0.0 New Taxiway 49
111  45.06433568  028.71762638
111  45.06431938  028.71763127
111  45.06351573  028.71789681
111  45.06430584  028.71766053
111  45.06432485  028.71765414
113  45.06433399  028.71764086
110 2 1.00 -12.0 New Taxiway 48
111  45.06507016  028.71676465
111  45.06423177  028.71703569
111  45.06424726  028.71714161
111  45.06428237  028.71712998
111  45.06433491  028.71750665
111  45.06434007  028.71755896
111  45.06433721  028.71757965
111  45.06432890  028.71760236
111  45.06431859  028.71761533
111  45.06431978  028.71763081
111  45.06433578  028.71762575
111  45.06433411  028.71764028
112  45.06432504  028.71765346  45.06432456  028.71765413
111  45.06430594  028.71765988
111  45.06351663  028.71789536
111  45.06344371  028.71788873
111  45.06336126  028.71788709
111  45.06336236  028.71794340
111  45.06340260  028.71794410
111  45.06341449  028.71794883
111  45.06342398  028.71796460
111  45.06342686  028.71798153
111  45.06349332  028.71842759
111  45.06443043  028.71812561
111  45.06444455  028.71812437
111  45.06445385  028.71813161
111  45.06445716  028.71814873
111  45.06445815  028.71815784
111  45.06452188  028.71815713
111  45.06451040  028.71808421
111  45.06487163  028.71795572
111  45.06480892  028.71752966
111  45.06513683  028.71742552
111  45.06515052  028.71743642
111  45.06515907  028.71745700
112  45.06516335  028.71749091  45.06516335  028.71749575
111  45.06521238  028.71778446
111  45.06527109  028.71776315
111  45.06522338  028.71747163
111  45.06522766  028.71740906
111  45.06524263  028.71739291
111  45.06527328  028.71737071
111  45.06529965  028.71736264
111  45.06530107  028.71732530
111  45.06527541  028.71733034
112  45.06524334  028.71732328  45.06524120  028.71732328
111  45.06521910  028.71731722
112  45.06519487  028.71731016  45.06519273  028.71730915
112  45.06517634  028.71727585  45.06517491  028.71727484
113  45.06513999  028.71714769
111  45.06500281  028.71691314
111  45.06505805  028.71689496
111  45.06506606  028.71694026
111  45.06511557  028.71722265
111  45.06512490  028.71729213
111  45.06512490  028.71732027
111  45.06512206  028.71735530
111  45.06511476  028.71737367
111  45.06509813  028.71738573
111  45.06481719  028.71747234
111  45.06480097  028.71747426
111  45.06479083  028.71747091
111  45.06478542  028.71746517
113  45.06470995  028.71700481
111  45.06468402  028.71701476
111  45.06475947  028.71746243
111  45.06476200  028.71747639
111  45.06476059  028.71749114
111  45.06475435  028.71750177
111  45.06474003  028.71751068
111  45.06444523  028.71759613
111  45.06443239  028.71759900
111  45.06442394  028.71759134
111  45.06441177  028.71757268
111  45.06440298  028.71754588
111  45.06439622  028.71751813
111  45.06436513  028.71729322
111  45.06435769  028.71720661
111  45.06435701  028.71717694
111  45.06436513  028.71715110
111  45.06437425  028.71713244
113  45.06439656  028.71710421
110 2 1.00 -12.0 New Taxiway 46
111  45.06420841  028.71433104
111  45.06421581  028.71438277
111  45.06422323  028.71439048
111  45.06424847  028.71443743
111  45.06427223  028.71449069
111  45.06429599  028.71456147
111  45.06430935  028.71460702
111  45.06432420  028.71471074
111  45.06448266  028.71569372
111  45.06448432  028.71573051
111  45.06447813  028.71577431
111  45.06447194  028.71581285
111  45.06445957  028.71585607
111  45.06444266  028.71590162
111  45.06441252  028.71595801
111  45.06437318  028.71600402
111  45.06434324  028.71604156
111  45.06430817  028.71607062
111  45.06427824  028.71609484
111  45.06406783  028.71616023
111  45.06420162  028.71704513
111  45.06423157  028.71703622
111  45.06537228  028.71666862
111  45.06522892  028.71577435
111  45.06498231  028.71585104
111  45.06495166  028.71586012
111  45.06491673  028.71585306
111  45.06489036  028.71584095
111  45.06485543  028.71582480
111  45.06482692  028.71580664
111  45.06480625  028.71579049
111  45.06477917  028.71575921
111  45.06475992  028.71573096
111  45.06474496  028.71570674
111  45.06472714  028.71567343
111  45.06470856  028.71563187
111  45.06454018  028.71454362
111  45.06453375  028.71446303
111  45.06453474  028.71441678
111  45.06454167  028.71436983
111  45.06455058  028.71432358
111  45.06455998  028.71428293
113  45.06453870  028.71422757
110 1 1.00 -12.0 New Taxiway 41
111  45.06453832  028.71422840
111  45.06455852  028.71428306
111  45.07079988  028.71232705
111  45.07082246  028.71232032
111  45.07084206  028.71232452
111  45.07086166  028.71233041
111  45.07117124  028.71246855
112  45.07118411  028.71247206  45.07118510  028.71247206
111  45.07120242  028.71246925
111  45.07179690  028.71228357
111  45.07175803  028.71203544
111  45.07200067  028.71195347
111  45.07189351  028.71127856
111  45.05445433  028.71672833
111  45.05441275  028.71673744
111  45.05438800  028.71673114
111  45.05410484  028.71660945
111  45.05407752  028.71659599
111  45.05406030  028.71659263
111  45.05403713  028.71659263
111  45.05342993  028.71678290
111  45.05347056  028.71704219
111  45.05324960  028.71710575
111  45.05335252  028.71777205
111  45.06421618  028.71438381
113  45.06420830  028.71433143
111  45.07171274  028.71198792
111  45.05417889  028.71746285
111  45.05409213  028.71690473
113  45.07162607  028.71142893
130 Airport Boundary 23
111  45.07519415  028.70761631
111  45.05057204  028.71495714
111  45.05046118  028.72040094
111  45.06181015  028.72278499
111  45.06541227  028.72384192
111  45.06658072  028.72326001
111  45.07036339  028.71864165
113  45.07586034  028.71280787
120 Linear Feature 18
111  45.06364754  028.71646508 51
115  45.06348075  028.71651621
120 Linear Feature 18
111  45.06371738  028.71694897 51
115  45.06355059  028.71700009
120 Linear Feature 18
111  45.06402061  028.71685704 51
115  45.06385382  028.71690817
120 Linear Feature 18
111  45.06394730  028.71636992 51
115  45.06378051  028.71642104
120 Linear Feature 16
111  45.06348712  028.71676171 51
111  45.06348224  028.71676613 51
111  45.06347746  028.71677172 51
111  45.06347476  028.71677937 51
111  45.06347518  028.71678746 51
115  45.06353368  028.71717616
120 Linear Feature 15
111  45.06380013  028.71666713 51
111  45.06379054  028.71667422 51
111  45.06378426  028.71668515 51
111  45.06378085  028.71669862 51
115  45.06383671  028.71708300
120 Linear Feature 14
111  45.06380026  028.71666704 51
111  45.06348698  028.71676171 51
111  45.06348189  028.71676171 51
111  45.06347636  028.71676023 51
111  45.06347052  028.71675303 51
111  45.06346828  028.71674180 51
115  45.06343007  028.71649137
120 Linear Feature 12
111  45.06364170  028.71642328 51
115  45.06365242  028.71650108
120 Linear Feature 12
111  45.06371136  028.71690727 51
115  45.06372208  028.71698507
120 Linear Feature 12
111  45.06401478  028.71681666 51
115  45.06402550  028.71689445
120 Linear Feature 12
111  45.06394183  028.71632959 51
115  45.06395255  028.71640739
120 Linear Feature 13
111  45.06373890  028.71639548 51
111  45.06377570  028.71665070 51
111  45.06378087  028.71665876 51
111  45.06378992  028.71666425 51
111  45.06380000  028.71666718 51
115  45.06408764  028.71658041
120 Linear Feature 17
111  45.06408717  028.71658057 51
111  45.06410121  028.71657483 51
111  45.06411233  028.71656815 51
111  45.06412128  028.71656082 51
111  45.06412816  028.71655003 51
111  45.06421594  028.71629834 51
111  45.06421889  028.71629235 51
111  45.06422218  028.71628741 51
111  45.06422652  028.71628364 51
111  45.06423207  028.71628077 51
111  45.06445254  028.71620822 51
111  45.06448232  028.71619416 51
111  45.06451272  028.71617176 51
111  45.06454685  028.71613530 51
115  45.06456461  028.71610983
120 Linear Feature 5
111  45.07000379  028.71224129 51
111  45.07054769  028.71206888 51
111  45.07060433  028.71205813 51
111  45.07065633  028.71205509 51
111  45.07070619  028.71205813 51
111  45.07075068  028.71206420 51
111  45.07080268  028.71208014 51
111  45.07085093  028.71209988 51
111  45.07091097  028.71212644 51
111  45.07097852  028.71215453 51
111  45.07123833  028.71227065 51
111  45.07124673  028.71227370 51
111  45.07125591  028.71227413 51
111  45.07127556  028.71226960 51
111  45.07160880  028.71216453 51
111  45.07161625  028.71215978 51
111  45.07162332  028.71215030 51
111  45.07163114  028.71213026 51
111  45.07164379  028.71208598 51
111  45.07164938  028.71205277 51
111  45.07165273  028.71200006 51
111  45.07165050  028.71195051 51
111  45.07164156  028.71189832 51
111  45.07163106  028.71186426 51
111  45.07161185  028.71182167 51
111  45.07158683  028.71178076 51
111  45.07155467  028.71174239 51
111  45.07152511  028.71171391 51
111  45.07149547  028.71169726 51
111  45.07146502  028.71168587 51
111  45.07143069  028.71168492 51
111  45.07139123  028.71169230 51
111  45.07135102  028.71171602 51
111  45.07131380  028.71174923 51
111  45.07129745  028.71176934 51
111  45.07127946  028.71179569 51
111  45.07126674  028.71182161 51
111  45.07125891  028.71183212 51
111  45.07124929  028.71183827 51
115  45.07123998  028.71184134
120 Linear Feature 4
111  45.07171209  028.71198851 24
111  45.07175283  028.71223698 24
111  45.07121296  028.71240328 24
111  45.07119259  028.71240859 24
111  45.07117383  028.71241011 24
111  45.07114595  028.71240176 24
115  45.07083103  028.71226434
120 Linear Feature 3
111  45.07168248  028.71179205 19
115  45.07176111  028.71186606
120 Linear Feature 2
111  45.07170297  028.71151763 19
115  45.07165680  028.71161779
120 Linear Feature 1
111  45.07191033  028.71153397 19
111  45.07186007  028.71164995 19
115  45.07193900  028.71172480
120 Linear Feature 21
111  45.06530038  028.71827353 24
115  45.06532530  028.71823680
120 Linear Feature 21
111  45.06532887  028.71848366 24
115  45.06535379  028.71844693
120 Linear Feature 21
111  45.06533412  028.71852585 24
115  45.06535904  028.71848912
120 Linear Feature 21
111  45.06532250  028.71843972 24
115  45.06534741  028.71840299
120 Linear Feature 21
111  45.06531664  028.71839690 24
115  45.06534155  028.71836017
120 Linear Feature 21
111  45.06531134  028.71835354 24
115  45.06533626  028.71831682
120 Linear Feature 21
111  45.06530605  028.71831474 24
115  45.06533097  028.71827801
120 Linear Feature 21
111  45.06529502  028.71823326 24
115  45.06531994  028.71819654
120 Linear Feature 20
111  45.06533457  028.71852494 24
115  45.06529834  028.71850064
120 Linear Feature 20
111  45.06532937  028.71848369 24
115  45.06529314  028.71845938
120 Linear Feature 20
111  45.06532370  028.71844042 24
115  45.06528747  028.71841611
120 Linear Feature 20
111  45.06531740  028.71839760 24
115  45.06528117  028.71837329
120 Linear Feature 20
111  45.06531173  028.71835434 24
115  45.06527550  028.71833003
120 Linear Feature 20
111  45.06530685  028.71831531 24
115  45.06527062  028.71829100
120 Linear Feature 20
111  45.06530063  028.71827339 24
115  45.06526440  028.71824908
120 Linear Feature 20
111  45.06529503  028.71823347 24
115  45.06525881  028.71820916
120 Linear Feature 19
111  45.06529499  028.71823223 24
115  45.06533482  028.71852682
120 Linear Feature 13
111  45.06503521  028.71850798 22
115  45.06580116  028.72337092
120 Linear Feature 12
111  45.06503448  028.71677769 3
111  45.06505559  028.71689283 3
115  45.06439605  028.71710069
120 Linear Feature 9
111  45.06455711  028.71428158 53 102
111  45.06454885  028.71432271 53 102
111  45.06453978  028.71436901 53 102
111  45.06453279  028.71441611 53 102
111  45.06453165  028.71446294 53 102
111  45.06453808  028.71454456 53 102
111  45.06470640  028.71563350 53 102
111  45.06472605  028.71567612 53 102
111  45.06474379  028.71570921 53 102
111  45.06477847  028.71576140 53 102
111  45.06480580  028.71579291 53 102
111  45.06482647  028.71580882 53 102
111  45.06485505  028.71582744 53 102
111  45.06488983  028.71584339 53 102
111  45.06491674  028.71585562 53 102
111  45.06495163  028.71586306 53 102
111  45.06522669  028.71577920 53 102
111  45.06536875  028.71666551 53 102
115  45.06420091  028.71704098
120 Linear Feature 8
111  45.05523844  028.71682016 51 101
111  45.05470272  028.71698934 51 101
111  45.05468469  028.71699419 51 101
111  45.05466618  028.71699650 51 101
111  45.05462971  028.71699804 51 101
111  45.05456575  028.71699881 51 101
111  45.05451920  028.71699496 51 101
111  45.05448028  028.71698571 51 101
111  45.05415970  028.71685869 51 101
111  45.05399903  028.71678585 51 101
111  45.05364414  028.71689658 51 101
111  45.05363205  028.71690232 51 101
111  45.05362146  028.71691276 51 101
111  45.05361069  028.71693443 51 101
111  45.05360199  028.71696520 51 101
111  45.05359481  028.71699918 51 101
111  45.05359141  028.71703450 51 101
111  45.05359179  028.71708480 51 101
111  45.05359292  028.71712440 51 101
111  45.05359670  028.71714928 51 101
111  45.05360521  028.71717524 51 101
111  45.05361894  028.71721579 51 101
111  45.05363141  028.71724522 51 101
111  45.05364445  028.71726582 51 101
111  45.05366033  028.71728696 51 101
111  45.05367772  028.71730783 51 101
111  45.05369568  028.71732361 51 101
111  45.05371609  028.71734047 51 101
111  45.05373840  028.71735304 51 101
111  45.05376373  028.71736161 51 101
111  45.05379794  028.71736696 51 101
111  45.05382686  028.71736749 51 101
111  45.05385578  028.71736107 51 101
111  45.05387506  028.71735278 51 101
111  45.05389982  028.71733592 51 101
111  45.05392420  028.71731505 51 101
111  45.05394537  028.71729070 51 101
115  45.05396484  028.71726181
120 Linear Feature 7
111  45.05440669  028.71680589 24
111  45.05405485  028.71665570 24
111  45.05348692  028.71683309 24
115  45.05352379  028.71708683
120 Linear Feature 6
111  45.05409127  028.71690601 24
111  45.05352377  028.71708686 24
111  45.05360710  028.71763587 24
115  45.05417795  028.71746268
120 Linear Feature 5
111  45.05393704  028.71722872 24
111  45.05398858  028.71722814 24
115  45.05394307  028.71725948
120 Linear Feature 4
111  45.05376441  028.71729742 24
115  45.05394073  028.71724274
120 Linear Feature 18
111  45.06481177  028.71608604 51
111  45.06484715  028.71609529 51
111  45.06487225  028.71610501 51
111  45.06489476  028.71611985 51
111  45.06491830  028.71614612 51
111  45.06492909  028.71616964 51
111  45.06493325  028.71618258 51
111  45.06494488  028.71622212 51
115  45.06495101  028.71625536
120 Linear Feature 17
111  45.06474423  028.71606813 51
111  45.06475129  028.71607241 51
111  45.06475857  028.71607464 51
111  45.06481027  028.71608603 51
111  45.06483325  028.71608564 51
111  45.06488032  028.71607153 51
111  45.06490801  028.71606722 51
111  45.06493819  028.71606565 51
111  45.06496228  028.71606957 51
111  45.06498333  028.71608133 51
111  45.06501907  028.71612073 51
111  45.06505589  028.71617182 51
111  45.06506984  028.71618368 51
111  45.06508739  028.71618650 51
111  45.06514478  028.71619446 51
111  45.06515741  028.71620759 51
111  45.06517101  028.71623139 51
111  45.06518119  028.71625187 51
111  45.06519028  028.71627701 51
111  45.06520284  028.71631573 51
111  45.06521144  028.71634775 51
111  45.06521821  028.71638370 51
111  45.06522011  028.71642016 51
111  45.06521867  028.71645586 51
111  45.06521335  028.71649079 51
111  45.06520633  028.71651878 51
111  45.06519743  028.71654664 51
111  45.06518743  028.71657154 51
111  45.06516481  028.71660669 51
111  45.06514836  028.71661962 51
115  45.06501164  028.71666334
120 Linear Feature 16
111  45.06421619  028.71438079 53 102
111  45.06422446  028.71438881 53 102
111  45.06424915  028.71443541 53 102
111  45.06427337  028.71448877 53 102
111  45.06429753  028.71456005 53 102
111  45.06431095  028.71460611 53 102
111  45.06432584  028.71471009 53 102
111  45.06445547  028.71551505 53 102
111  45.06448426  028.71569271 53 102
111  45.06448607  028.71573056 53 102
111  45.06448058  028.71577425 53 102
111  45.06447447  028.71581375 53 102
111  45.06446274  028.71585899 53 102
111  45.06444712  028.71590416 53 102
111  45.06441722  028.71596296 53 102
111  45.06435109  028.71608386 53 102
111  45.06433794  028.71610072 53 102
111  45.06431448  028.71612005 53 102
111  45.06427192  028.71614474 53 102
115  45.06407698  028.71621205
120 Linear Feature 15
111  45.06488179  028.71665457 51
111  45.06487792  028.71666214 51
115  45.06488419  028.71666629
120 Linear Feature 15
111  45.06488890  028.71670304 91
111  45.06488503  028.71671060 91
115  45.06489130  028.71671476
120 Linear Feature 14
111  45.06492980  028.71664534 51
115  45.06487981  028.71666148
120 Linear Feature 14
111  45.06493688  028.71669374 91
115  45.06488688  028.71670987
120 Linear Feature 9
111  45.06433620  028.71762780 23
115  45.06437243  028.71761604
120 Linear Feature 8
111  45.06435707  028.71717635 23
115  45.06432495  028.71718587
120 Linear Feature 6
111  45.06350581  028.71778608 23
115  45.06414306  028.71758379
120 Linear Feature 5
111  45.06430127  028.71746998 24
111  45.06413440  028.71752449 24
115  45.06414940  028.71762685
120 Linear Feature 4
111  45.06426143  028.71742172 23
115  45.06422599  028.71743348
120 Linear Feature 3
111  45.06348835  028.71772406 22
115  45.06413538  028.71752462
120 Linear Feature 2
111  45.06416730  028.71705613 24
111  45.06422696  028.71743386 24
115  45.06338078  028.71769532
120 Linear Feature 1
111  45.06495090  028.71625539 51
115  45.06501133  028.71666516
120 Linear Feature 11
111  45.06462809  028.71634062 51
111  45.06462317  028.71655428 51
111  45.06462586  028.71658259 51
111  45.06463355  028.71660491 51
111  45.06464297  028.71662179 51
115  45.06465188  028.71663523
120 Linear Feature 13
111  45.06463130  028.71664237 51
111  45.06463805  028.71663894 51
115  45.06464102  028.71664835
120 Linear Feature 12
111  45.06463759  028.71664126 51
115  45.06461939  028.71671362
120 Linear Feature 12
111  45.06465394  028.71664920 51
115  45.06463573  028.71672156
120 Linear Feature 10
111  45.06483949  028.71666275 91
111  45.06484510  028.71669886 91
111  45.06484649  028.71672120 91
111  45.06484026  028.71673753 91
111  45.06483200  028.71675046 91
111  45.06481372  028.71676795 91
111  45.06479295  028.71677387 91
111  45.06476594  028.71677850 91
111  45.06474310  028.71677722 91
111  45.06471473  028.71677347 91
111  45.06468492  028.71676619 91
111  45.06466492  028.71675176 91
111  45.06464511  028.71673079 91
111  45.06462203  028.71669840 91
111  45.06460877  028.71666382 91
111  45.06459372  028.71660153 91
111  45.06454622  028.71657580 91
111  45.06454455  028.71657179 91
111  45.06454578  028.71652746 91
111  45.06455283  028.71646600 91
111  45.06456378  028.71642146 91
111  45.06457925  028.71638927 91
111  45.06459601  028.71636314 91
111  45.06460934  028.71635144 91
115  45.06462738  028.71634146
120 Linear Feature 1
111  45.06478678  028.71631093 51
111  45.06482912  028.71658766 51
111  45.06483528  028.71663434 51
111  45.06483923  028.71666263 51
111  45.06483552  028.71668272 51
111  45.06482418  028.71670307 51
111  45.06480549  028.71671913 51
111  45.06478223  028.71672651 51
111  45.06475905  028.71672924 51
111  45.06473634  028.71672457 51
111  45.06471629  028.71670908 51
111  45.06469596  028.71668396 51
111  45.06468263  028.71665305 51
115  45.06459393  028.71660145
120 Linear Feature 57
111  45.06530073  028.71621646 74
111  45.06473141  028.71639049 74
111  45.06460995  028.71649584 74
115  45.06414106  028.71664255
120 Linear Feature 56
111  45.06474431  028.71606786 51 101
111  45.06474934  028.71607950 51 101
111  45.06475304  028.71608810 51 101
111  45.06476492  028.71612417 51 101
111  45.06477177  028.71615015 51 101
111  45.06477550  028.71617692 51 101
111  45.06477640  028.71621456 51 101
115  45.06478682  028.71631130
120 Linear Feature 55
111  45.06462845  028.71587428 51 101
111  45.06462372  028.71592767 51 101
111  45.06461763  028.71596586 51 101
111  45.06461000  028.71599865 51 101
111  45.06459973  028.71603379 51 101
111  45.06457522  028.71608846 51 101
115  45.06456434  028.71611036
120 Linear Feature 54
111  45.06458652  028.71560308 51 101
111  45.06462266  028.71583874 51 101
111  45.06462843  028.71587437 51 101
111  45.06464328  028.71591583 51 101
111  45.06465882  028.71594572 51 101
115  45.06474478  028.71606881
120 Linear Feature 53
111  45.06445365  028.71551429 62 104
115  45.06467919  028.71544216
120 Linear Feature 52
111  45.06439720  028.71441360 60 101
111  45.06435413  028.71427074 60 101
111  45.06432269  028.71421361 60 101
111  45.06430729  028.71419221 60 101
111  45.06428736  028.71417080 60 101
111  45.06426673  028.71415085 60 101
111  45.06424508  028.71413235 60 101
111  45.06422136  028.71411775 60 101
111  45.06419593  028.71410510 60 101
111  45.06417255  028.71409683 60 101
111  45.06413062  028.71408953 60 101
111  45.06409315  028.71409148 60 101
111  45.06406084  028.71409585 60 101
115  45.06353316  028.71426145
120 Linear Feature 51
111  45.06459822  028.71392329 60 101
115  45.06506120  028.71378137
120 Linear Feature 50
111  45.06459892  028.71392311 60 101
111  45.06455091  028.71394760 60 101
111  45.06451973  028.71397493 60 101
111  45.06449201  028.71400226 60 101
111  45.06446479  028.71403414 60 101
111  45.06444623  028.71406042 60 101
111  45.06442973  028.71409371 60 101
111  45.06441653  028.71412349 60 101
111  45.06440456  028.71415853 60 101
111  45.06439095  028.71420000 60 101
111  45.06438642  028.71423118 60 101
111  45.06438435  028.71426132 60 101
111  45.06439687  028.71441208 60 101
111  45.06451798  028.71518297 60 101
115  45.06456076  028.71543600
20  45.06430699  028.71555360 253.6 0 2 {@L}A{@R}34-16
20  45.06481614  028.71539432 261.9 0 2 {@L}A{@R}34-16
1300  45.06484042  028.71667131 78.3 tie_down jets|turboprops|props New Ramp Start 58
1301 C airline 
1300  45.06402044  028.71685737 -12.2 tie_down jets|turboprops|props New Ramp Start 58
1301 B general_aviation 
1300  45.06371700  028.71694935 -12.2 tie_down jets|turboprops|props New Ramp Start 58
1301 B general_aviation 
1300  45.06364752  028.71646525 -12.2 tie_down jets|turboprops|props New Ramp Start 58
1301 B general_aviation 
1300  45.06394735  028.71637017 -12.2 tie_down jets|turboprops|props New Ramp Start 58
1301 B general_aviation 
1300  45.06501120  028.71666290 78.3 tie_down jets|turboprops|props New Ramp Start 58
1301 C airline 
1200 
1201  45.07149078  028.71176359 both 0 Taxiway1_start
1201  45.07124955  028.71183942 both 1 16/34_split
1201  45.07065260  028.71202619 both 2 16/34_split
1201  45.06455739  028.71391947 both 3 16/34_split
1201  45.06409966  028.71406210 both 4 16/34_split
1201  45.05463092  028.71699826 both 5 Taxiway1_split
1201  45.05466357  028.71699687 both 6 Taxiway1_split
1201  45.05452937  028.71704611 both 7 Taxiway1_stop
1201  45.05385227  028.71736212 both 8 Taxiway1_stop
1201  45.05395437  028.71727077 both 9 Taxiway1_split
1201  45.05379121  028.71736634 both 10 Taxiway1_stop
1201  45.05370373  028.71733051 both 11 Taxiway1_stop
1201  45.05361289  028.71719718 both 12 Taxiway1_stop
1201  45.05359055  028.71706701 both 13 Taxiway1_stop
1201  45.05363187  028.71690259 both 14 Taxiway1_stop
1201  45.05400046  028.71678828 both 15 Taxiway1_stop
1201  45.05449220  028.71699153 both 16 Taxiway1_stop
1201  45.07130927  028.71175742 both 17 Taxiway1_stop
1201  45.07139183  028.71169366 both 18 Taxiway1_stop
1201  45.07149637  028.71169821 both 19 Taxiway1_stop
1201  45.07161860  028.71182953 both 20 Taxiway1_stop
1201  45.07165505  028.71197908 both 21 Taxiway1_stop
1201  45.07161592  028.71215974 both 22 Taxiway1_stop
1201  45.07125262  028.71227466 both 23 Taxiway1_stop
1201  45.06461662  028.71597157 both 24 Taxiway1_stop
1201  45.06458133  028.71608732 both 25 Taxiway1_stop
1201  45.06451119  028.71618662 both 26 Taxiway1_stop
1201  45.06422593  028.71628352 both 27 Taxiway1_stop
1201  45.06412510  028.71656687 both 28 Taxiway1_stop
1201  45.06383642  028.71708123 both 29 Taxiway1_stop
1201  45.06373896  028.71639541 both 30 Taxiway1_start
1201  45.06377834  028.71667249 both 31 Taxiway1_split
1201  45.06353302  028.71717524 both 32 Taxiway1_stop
1201  45.06342987  028.71649109 both 33 Taxiway1_start
1201  45.06347132  028.71676600 both 34 Taxiway1_split
1201  45.06498296  028.71604580 both 35 Taxiway1_stop
1201  45.06482237  028.71608869 both 36 Taxiway1_stop
1201  45.06474403  028.71606876 both 37 Taxiway1_stop
1201  45.06462831  028.71587514 both 38 Taxiway1_stop
1201  45.06418959  028.71410282 both 39 Taxiway1_stop
1201  45.06426011  028.71414537 both 40 Taxiway1_stop
1201  45.06435214  028.71427060 both 41 Taxiway1_stop
1201  45.06449361  028.71398669 both 42 Taxiway1_stop
1201  45.06444352  028.71406488 both 43 Taxiway1_stop
1201  45.06439080  028.71421605 both 44 Taxiway1_stop
1201  45.06439750  028.71441465 both 45 Taxiway1_stop
1201  45.07153157  028.71172033 both 46 16/34_split
1201  45.05468465  028.71699597 both 47 16/34_split
1201  45.06456700  028.71547679 both 48 Taxiway1_stop
1201  45.06462601  028.71586018 both 49 Taxiway1_split
1201  45.06440186  028.71444199 both 50 Taxiway1_split
1202 0 1 twoway runway 16/34
1204 departure 16,34
1204 arrival 16,34
1204 ils 16,34
1202 1 2 twoway runway 16/34
1204 departure 16,34
1204 arrival 16,34
1204 ils 16,34
1202 2 3 twoway runway 16/34
1204 departure 16,34
1204 arrival 16,34
1204 ils 16,34
1202 23 2 twoway taxiway_C TW0
1204 departure 16,34
1204 arrival 16,34
1202 3 4 twoway runway 16/34
1204 departure 16,34
1204 arrival 16,34
1204 ils 16,34
1202 17 1 twoway taxiway_C TW1
1204 departure 16,34
1204 arrival 16,34
1202 4 47 twoway runway 16/34
1204 departure 16,34
1204 arrival 16,34
1204 ils 16,34
1202 7 5 twoway taxiway_C TW2
1204 departure 16,34
1204 arrival 16,34
1202 5 6 twoway taxiway_C TW3
1204 departure 16,34
1204 arrival 16,34
1202 6 47 twoway taxiway_C TW4
1204 departure 16,34
1204 arrival 16,34
1202 16 6 twoway taxiway_C TW5
1204 departure 16,34
1204 arrival 16,34
1202 8 9 twoway taxiway_C TW6
1204 departure 16,34
1204 arrival 16,34
1202 9 7 twoway taxiway_C TW7
1204 departure 16,34
1204 arrival 16,34
1202 10 8 twoway taxiway_C TW8
1204 departure 16,34
1204 arrival 16,34
1202 11 10 twoway taxiway_C TW9
1204 departure 16,34
1204 arrival 16,34
1202 12 11 twoway taxiway_C TW1
1204 departure 16,34
1204 arrival 16,34
1202 13 12 twoway taxiway_C TW2
1204 departure 16,34
1204 arrival 16,34
1202 14 13 twoway taxiway_C TW3
1204 departure 16,34
1204 arrival 16,34
1202 15 14 twoway taxiway_C TW4
1204 departure 16,34
1204 arrival 16,34
1202 16 15 twoway taxiway_C TW5
1204 departure 16,34
1204 arrival 16,34
1202 18 17 twoway taxiway_C TW6
1204 departure 16,34
1204 arrival 16,34
1202 19 18 twoway taxiway_C TW7
1204 departure 16,34
1204 arrival 16,34
1202 20 46 twoway taxiway_C TW8
1204 departure 16,34
1204 arrival 16,34
1202 46 19 twoway taxiway_C TW9
1204 departure 16,34
1204 arrival 16,34
1202 21 20 twoway taxiway_C TW1
1204 departure 16,34
1204 arrival 16,34
1202 22 21 twoway taxiway_C TW2
1204 departure 16,34
1204 arrival 16,34
1202 23 22 twoway taxiway_C TW3
1204 departure 16,34
1204 arrival 16,34
1202 24 49 twoway taxiway_C TW4
1202 25 24 twoway taxiway_C TW5
1202 26 25 twoway taxiway_C TW6
1202 27 26 twoway taxiway_C TW7
1202 28 27 twoway taxiway_C TW8
1202 34 31 twoway taxiway_C TW9
1202 31 28 twoway taxiway_C TW1
1202 30 31 twoway taxiway_C TW2
1202 31 29 twoway taxiway_C TW3
1202 33 34 twoway taxiway_C TW4
1202 34 32 twoway taxiway_C TW5
1202 36 35 twoway taxiway_C TW6
1202 37 36 twoway taxiway_C TW7
1202 38 37 twoway taxiway_C TW8
1202 48 49 twoway taxiway_C TW9
1202 49 38 twoway taxiway_C TW1
1202 40 39 twoway taxiway_C TW2
1204 departure 16,34
1204 arrival 16,34
1202 41 40 twoway taxiway_C TW3
1204 departure 16,34
1204 arrival 16,34
1202 39 4 twoway taxiway_C TW4
1204 departure 16,34
1204 arrival 16,34
1202 50 41 twoway taxiway_C TW5
1204 departure 16,34
1204 arrival 16,34
1202 42 3 twoway taxiway_C TW6
1204 departure 16,34
1204 arrival 16,34
1202 43 42 twoway taxiway_C TW7
1204 departure 16,34
1204 arrival 16,34
1202 44 43 twoway taxiway_C TW8
1204 departure 16,34
1204 arrival 16,34
1202 45 44 twoway taxiway_C TW9
1204 departure 16,34
1204 arrival 16,34
1202 48 50 twoway taxiway_C TW1
1204 departure 16,34
1204 arrival 16,34
1202 50 45 twoway taxiway_C TW2
1204 departure 16,34
1204 arrival 16,34
99
