I
1130 Generated by WorldEditor 2.4.1r2

1    767 0 0 KRIR Riverside Flabob
1302 city Riverside/Rubidoux/
1302 country United States
1302 datum_lat 33.988788889
1302 datum_lon -117.409911111
1302 faa_code RIR
1302 gui_label 3D
1302 iata_code RIR
1302 icao_code KRIR
1302 region_code K2
1302 state California
1302 transition_alt 18000
1302 transition_level 18000
100 22.00 1 0 0.00 1 2 1  06  33.98777157 -117.41502198 0 69 3 9 0 0 24  33.98978097 -117.40478652 0 104 3 9 0 0
130 Airport Boundary 1
111  33.98784853 -117.41676748
111  33.98700674 -117.41577127
111  33.98776025 -117.41239099
111  33.98800429 -117.41119935
111  33.98967195 -117.40258529
111  33.99065259 -117.40309122
111  33.99032020 -117.40386282
111  33.99046191 -117.40411620
111  33.99086817 -117.40500907
111  33.99029302 -117.40545000
111  33.99022765 -117.40589022
111  33.99137439 -117.40798947
111  33.99081950 -117.40860546
111  33.99101497 -117.40909978
111  33.99102671 -117.40961425
111  33.99124689 -117.40986435
111  33.99136184 -117.40973452
111  33.99192041 -117.41036436
111  33.99118715 -117.41173908
111  33.99015792 -117.41338570
111  33.99098819 -117.41454471
111  33.98992256 -117.41603487
111  33.98943052 -117.41666104
113  33.98826682 -117.41746650
120 Linear Feature 3
111  33.99009387 -117.40523832 1 101
116  33.99014329 -117.40519969  33.99015351 -117.40514891
120 Linear Feature 2
111  33.99018577 -117.40376344 1 101
112  33.99017260 -117.40381937  33.99019178 -117.40385287 1 101
111  33.99022699 -117.40391777 1 101
111  33.99033326 -117.40420527 1 101
112  33.99033755 -117.40423082  33.99033755 -117.40424290 1 101
111  33.99033698 -117.40425878 1 101
115  33.99012164 -117.40530519
120 Linear Feature 1
111  33.98879397 -117.41241076 1 101
116  33.98871593 -117.41229276  33.98861258 -117.41228102
120 Linear Feature 4
111  33.98830343 -117.41231257 1 101
112  33.98836060 -117.41222757  33.98839013 -117.41221332 1 101
111  33.98842705 -117.41221748 1 101
111  33.98864133 -117.41228893 1 101
111  33.98874568 -117.41229395 1 101
112  33.98880686 -117.41226730  33.98883580 -117.41223537 1 101
115  33.98884789 -117.41219277
120 Linear Feature 3
111  33.98842623 -117.41221683 1 101
112  33.98836756 -117.41216840  33.98833993 -117.41212683 1 101
115  33.98834791 -117.41208767
120 Linear Feature 13
111  33.99018627 -117.40604391 2
111  33.99013441 -117.40607402 2
111  33.98983501 -117.40763130 2
111  33.98951392 -117.40927851 2
111  33.98890157 -117.41240214 2
111  33.98884974 -117.41268332 2
111  33.98884974 -117.41271237 2
111  33.98886317 -117.41275147 2
111  33.98888865 -117.41277940 2
115  33.98896089 -117.41281123
120 Linear Feature 11
111  33.98988485 -117.40476976 1
111  33.99014089 -117.40485893 1
111  33.99014987 -117.40485560 1
111  33.99016079 -117.40484188 1
111  33.99028892 -117.40423288 1
111  33.99029023 -117.40419472 1
111  33.99027943 -117.40414286 1
111  33.99021178 -117.40395202 1
111  33.99011669 -117.40385025 1
111  33.99011553 -117.40382232 1
111  33.99012788 -117.40376367 1
111  33.99015644 -117.40373388 1
111  33.99019851 -117.40372131 1
111  33.99023151 -117.40358674 1
115  33.99030642 -117.40355849
120 Linear Feature 10
111  33.98844180 -117.41212497 1
111  33.98845020 -117.41215861 1
111  33.98848757 -117.41218784 1
111  33.98864974 -117.41224370 1
111  33.98869600 -117.41224415 1
111  33.98872540 -117.41223727 1
111  33.98874616 -117.41221206 1
111  33.98877614 -117.41215641 1
111  33.98882927 -117.41180788 1
111  33.98938773 -117.40904968 1
111  33.98941104 -117.40899732 1
111  33.98942873 -117.40894301 1
111  33.99000951 -117.40603763 1
111  33.99000415 -117.40594254 1
111  33.98997723 -117.40578142 1
111  33.98995192 -117.40564652 1
111  33.98990067 -117.40554248 1
111  33.98986594 -117.40549500 1
111  33.98982287 -117.40546652 1
111  33.98979230 -117.40545423 1
111  33.98976914 -117.40546037 1
115  33.98974321 -117.40548942
120 Linear Feature 9
111  33.98790193 -117.41487182 1
111  33.98791290 -117.41490730 1
111  33.98794009 -117.41493195 1
111  33.98798896 -117.41495491 1
111  33.98809471 -117.41498097 1
111  33.98812250 -117.41498097 1
111  33.98815106 -117.41497120 1
111  33.98816495 -117.41494327 1
111  33.98818509 -117.41486937 1
111  33.98841432 -117.41367220 1
111  33.98871069 -117.41241184 1
111  33.98871317 -117.41237963 1
111  33.98870491 -117.41235546 1
111  33.98868696 -117.41234396 1
111  33.98863399 -117.41233666 1
112  33.98843168 -117.41226686  33.98842602 -117.41226719 1
111  33.98842037 -117.41226924 1
115  33.98841037 -117.41228410
120 Linear Feature 8
111  33.98786074 -117.41508013 1
111  33.98788865 -117.41505815 1
111  33.98791735 -117.41505581 1
111  33.98795045 -117.41506289 1
111  33.98797092 -117.41507658 1
111  33.98813385 -117.41545845 1
111  33.98808492 -117.41575484 1
111  33.98808090 -117.41583435 1
111  33.98811301 -117.41590541 1
111  33.98815835 -117.41596980 1
111  33.98819810 -117.41600528 1
111  33.98823322 -117.41602483 1
111  33.98826062 -117.41605555 1
111  33.98826140 -117.41610442 1
111  33.98823631 -117.41615795 1
111  33.98819887 -117.41619938 1
111  33.98813712 -117.41623335 1
111  33.98808598 -117.41636517 1
111  33.98807932 -117.41654534 1
115  33.98794060 -117.41684052
120 Linear Feature 7
111  33.98812246 -117.41498005 54 103
115  33.98806405 -117.41529459
120 Linear Feature 6
111  33.98865259 -117.41224288 54 103
115  33.98863351 -117.41233547
120 Linear Feature 5
111  33.99011972 -117.40485255 54 103
115  33.98995246 -117.40564304
120 Linear Feature 3
111  33.98780404 -117.41485879 1 101
112  33.98788296 -117.41498059  33.98796358 -117.41500516 1 101
111  33.98815723 -117.41505560 1 101
112  33.98820204 -117.41504209  33.98821477 -117.41502244 1 101
112  33.98823056 -117.41497454  33.98823514 -117.41495734 1 101
111  33.98847933 -117.41370476 1 101
111  33.98870639 -117.41271004 1 101
111  33.98879396 -117.41241078 1 101
111  33.98887242 -117.41209392 1 101
111  33.98924048 -117.41024968 1 101
111  33.98949557 -117.40893212 1 101
111  33.98978476 -117.40750161 1 101
111  33.99006410 -117.40609509 1 101
111  33.99007065 -117.40603976 1 101
111  33.99006919 -117.40596459 1 101
111  33.99005386 -117.40577639 1 101
111  33.99005213 -117.40569924 1 101
111  33.99005519 -117.40564324 1 101
111  33.99006497 -117.40558796 1 101
111  33.99012163 -117.40530521 1 101
112  33.99011700 -117.40526145  33.99010768 -117.40524294 1 101
111  33.99009363 -117.40523827 1 101
111  33.98981432 -117.40514848 1 101
116  33.98969519 -117.40522273  33.98967440 -117.40533020
14  33.98922045 -117.41319559 82 0 Riverside Flabob
1300  33.98898064 -117.41272158 349.3 tie_down jets|turboprops|props 3
1301 A general_aviation 
1300  33.98900565 -117.41254396 349.3 tie_down jets|turboprops|props 4
1301 A general_aviation 
1300  33.98903603 -117.41235549 347.3 tie_down jets|turboprops|props 5
1301 A general_aviation 
1300  33.98906475 -117.41217452 347.3 tie_down jets|turboprops|props 6
1301 A general_aviation 
1300  33.98909392 -117.41200193 347.3 tie_down jets|turboprops|props 7
1301 A general_aviation 
1300  33.98911754 -117.41183436 347.3 tie_down jets|turboprops|props 8
1301 A general_aviation 
1300  33.98949889 -117.41133688 347.3 tie_down jets|turboprops|props 9
1301 A general_aviation 
1300  33.98955447 -117.41047696 347.3 tie_down jets|turboprops|props 10
1301 A general_aviation 
1300  33.98964077 -117.41002664 347.3 tie_down jets|turboprops|props 11
1301 A general_aviation 
1300  33.98968363 -117.40981483 347.3 tie_down jets|turboprops|props 12
1301 A general_aviation 
1300  33.98972097 -117.40962803 347.3 tie_down jets|turboprops|props 13
1301 A general_aviation 
1300  33.98991702 -117.40852954 347.3 tie_down jets|turboprops|props 17
1301 A general_aviation 
1300  33.99031666 -117.40365378 391.3 tie_down jets|turboprops|props 28
1301 A general_aviation 
1300  33.99049393 -117.40466783 391.3 tie_down jets|turboprops|props 27
1301 A general_aviation 
1300  33.99042444 -117.40505874 302.9 tie_down jets|turboprops|props 26
1301 A general_aviation 
1300  33.99028635 -117.40632843 393.3 tie_down jets|turboprops|props 25
1301 A general_aviation 
1300  33.99037278 -117.40650216 393.3 tie_down jets|turboprops|props 24
1301 A general_aviation 
1300  33.99045345 -117.40666200 393.3 tie_down jets|turboprops|props 23
1301 A general_aviation 
1300  33.99029834 -117.40708556 304.2 tie_down jets|turboprops|props 22
1301 A general_aviation 
1300  33.99017350 -117.40718517 304.2 tie_down jets|turboprops|props 21
1301 A general_aviation 
1300  33.99005537 -117.40728130 304.2 tie_down jets|turboprops|props 20
1301 A general_aviation 
1300  33.99001972 -117.40805456 5.9 gate jets|turboprops|props 18
1301 B airline 
1300  33.99009116 -117.40773141 1.3 gate jets|turboprops|props 19
1301 B airline 
1300  33.98989942 -117.40879188 -16.0 gate jets|turboprops|props 16
1301 B airline 
1300  33.98983828 -117.40908173 -16.0 gate jets|turboprops|props 15
1301 B airline 
1300  33.98977952 -117.40932422 -16.0 gate jets|turboprops|props 14
1301 B airline 
1300  33.98901553 -117.41292624 23.3 gate jets|turboprops|props 2
1301 B airline 
1300  33.98882937 -117.41360118 302.5 gate jets|turboprops|props 1
1301 B airline 
1200 
1201  33.99017245 -117.40381844 both 0 _stop
1201  33.99022695 -117.40391851 both 1 _stop
1201  33.99034277 -117.40423007 both 2 _stop
1201  33.99021339 -117.40487850 both 3 _stop
1201  33.99004967 -117.40566548 both 4 _stop
1201  33.99007722 -117.40607054 both 5 _stop
1201  33.98977165 -117.40760438 both 6 _stop
1201  33.98920316 -117.41044320 both 7 _stop
1201  33.98886868 -117.41211341 both 8 _stop
1201  33.98870061 -117.41272150 both 9 _stop
1201  33.98880555 -117.41234183 both 10 _split
1201  33.98848268 -117.41371058 both 11 _stop
1201  33.98818206 -117.41517752 both 12 _start
1201  33.98971472 -117.40512396 both 13 _split
1201  33.99013404 -117.40525992 both 14 _split
1201  33.98833047 -117.41217499 both 15 _split
1201  33.98978095 -117.40478659 both 16 _stop
1201  33.98777156 -117.41502197 both 17 _start
1201  33.98778577 -117.41494959 both 18 06/24_split
1201  33.98820436 -117.41506873 both 19 _split
1202 1 0 twoway taxiway_A 
1202 2 1 twoway taxiway_A 
1202 3 2 twoway taxiway_A 
1202 4 14 twoway taxiway_B 
1202 14 3 twoway taxiway_A 
1202 5 4 twoway taxiway_B 
1202 6 5 twoway taxiway_B 
1202 7 6 twoway taxiway_B 
1202 8 7 twoway taxiway_B 
1202 9 10 twoway taxiway_B 
1202 10 8 twoway taxiway_B 
1202 11 9 twoway taxiway_B 
1202 12 19 twoway taxiway_B 
1202 19 11 twoway taxiway_B 
1202 13 14 twoway taxiway_B 
1204 departure 06,24
1204 arrival 06,24
1202 15 10 twoway taxiway_B 
1204 departure 06,24
1204 arrival 06,24
1202 18 19 twoway taxiway_B 
1204 departure 06,24
1204 arrival 06,24
1202 17 18 twoway runway 06/24
1204 departure 06,24
1204 arrival 06,24
1204 ils 06,24
1202 18 15 twoway runway 06/24
1204 departure 06,24
1204 arrival 06,24
1204 ils 06,24
1202 15 13 twoway runway 06/24
1204 departure 06,24
1204 arrival 06,24
1204 ils 06,24
1202 13 16 twoway runway 06/24
1204 departure 06,24
1204 arrival 06,24
1204 ils 06,24
99
