I
1130 Generated by WorldEditor 2.4.1r2

1    373 0 0 KEUG Eugene
1302 city Eugene
1302 country United States
1302 datum_lat 44.124583333
1302 datum_lon -123.211972222
1302 faa_code EUG
1302 gui_label 3D
1302 iata_code EUG
1302 icao_code KEUG
1302 region_code K1
1302 state Oregon
1302 transition_alt 18000
1302 transition_level 18000
100 50.00 1 0 0.00 1 2 1 16L  44.13296056 -123.20276154 0 0 3 9 0 0 34R  44.11652293 -123.20252054 0 0 3 9 0 0
100 50.00 1 0 0.00 1 2 1 16R  44.13542453 -123.21917790 0 0 3 9 0 0 34L  44.11347698 -123.21884696 0 0 3 9 0 0
110 1 0.00 0.0 New Taxiway 25
111  44.12558463 -123.21033158 3 102
111  44.12140431 -123.21376322
111  44.12122495 -123.21349159 9
111  44.12207127 -123.21282403 3 102
111  44.12208275 -123.21284759 3 102
111  44.12210812 -123.21287116 3 102
111  44.12214678 -123.21286863 3 102
111  44.12223799 -123.21283497 3 102
111  44.12243004 -123.21268089 3 102
111  44.12248766 -123.21256569
111  44.12259690 -123.21246401 3 102
111  44.12270623 -123.21245772 3 102
111  44.12283970 -123.21234486 3 102
111  44.12290244 -123.21221657
111  44.12301368 -123.21212444 3 102
111  44.12311545 -123.21212795 3 102
111  44.12362315 -123.21172081 3 102
111  44.12367467 -123.21157003
111  44.12378114 -123.21148103 3 102
111  44.12391438 -123.21147797 3 102
111  44.12436413 -123.21110928 3 102
111  44.12440475 -123.21098982 9
113  44.12559363 -123.21007221
110 1 0.00 0.0 New Taxiway 3
111  44.12624915 -123.21146056 3 102
111  44.12623455 -123.21142642 3 102
111  44.12620636 -123.21140285 3 102
111  44.12617643 -123.21140104 3 102
111  44.12613956 -123.21142279 3 102
111  44.12593217 -123.21171044
111  44.12579060 -123.21152038 3 102
111  44.12581572 -123.21146677 3 102
111  44.12582946 -123.21135539 3 102
111  44.12584840 -123.21049876 3 102
111  44.12583017 -123.21042054 3 102
111  44.12579689 -123.21035914 3 102
111  44.12575102 -123.21031278 3 102
111  44.12569886 -123.21029023 3 102
111  44.12562421 -123.21030652 3 102
111  44.12558463 -123.21033158 5
111  44.12559363 -123.21007221 3 102
111  44.12562511 -123.21006970 3 102
111  44.12571505 -123.21001207 3 102
111  44.12578880 -123.20995067 3 102
111  44.12582747 -123.20987675 3 102
111  44.12584276 -123.20979781 3 102
111  44.12584726 -123.20971010 3 102
111  44.12585271 -123.20859039 3 102
111  44.12585421 -123.20849329 3 102
111  44.12586580 -123.20668074 3 102
111  44.12583455 -123.20655325 3 102
111  44.12579103 -123.20647747 3 102
111  44.12570245 -123.20642550 3 102
111  44.12558433 -123.20641901 5
111  44.12558744 -123.20618301 3 102
111  44.12570055 -123.20618349 3 102
111  44.12576927 -123.20615486 3 102
111  44.12582833 -123.20608991 3 102
111  44.12586563 -123.20600980 3 102
111  44.12587651 -123.20583875 3 102
111  44.12588397 -123.20463583
111  44.12608505 -123.20463414 3 102
111  44.12607530 -123.20592034 3 102
111  44.12609616 -123.20601456 3 102
111  44.12614023 -123.20610352 3 102
111  44.12618700 -123.20612231 3 102
112  44.12622028 -123.20611605  44.12622699 -123.20611180 3 102
111  44.12625086 -123.20607345 3 102
111  44.12628978 -123.20597836
111  44.12628434 -123.20662584 3 102
111  44.12625986 -123.20654457 3 102
111  44.12623287 -123.20649821 3 102
111  44.12619959 -123.20645937 3 102
111  44.12614923 -123.20645811 3 102
111  44.12611955 -123.20649320 3 102
111  44.12609526 -123.20653956 3 102
111  44.12607098 -123.20667363 3 102
111  44.12605408 -123.20850177 3 102
111  44.12627103 -123.20849501
111  44.12627010 -123.20860380 3 102
111  44.12605533 -123.20860531 3 102
111  44.12604143 -123.20989759 3 102
111  44.12607381 -123.20996615 3 102
111  44.12612821 -123.21001667 3 102
111  44.12618260 -123.21001847 3 102
111  44.12622793 -123.20999502 3 102
111  44.12626265 -123.20990446
111  44.12625868 -123.21041852 3 102
111  44.12621757 -123.21032881 3 102
111  44.12617613 -123.21030355 3 102
111  44.12612432 -123.21029994 3 102
111  44.12607640 -123.21033603 3 102
111  44.12605568 -123.21038655 3 102
111  44.12604532 -123.21046233 3 102
111  44.12604661 -123.21069689 3 102
111  44.12609453 -123.21076906 3 102
111  44.12614893 -123.21079071 3 102
111  44.12619426 -123.21078169 3 102
111  44.12622922 -123.21074565 3 102
113  44.12625446 -123.21068991
110 1 0.00 0.0 New Taxiway 8
111  44.12438019 -123.21684004
111  44.12393704 -123.21684004 3 102
111  44.12391137 -123.21678366 3 102
111  44.12315401 -123.21610841
111  44.12270968 -123.21572514 3 102
111  44.12173432 -123.21490919 3 102
111  44.12168045 -123.21486846 3 102
111  44.12159863 -123.21483996 3 102
111  44.12150101 -123.21483349 3 102
111  44.12139409 -123.21487234 3 102
111  44.12118082 -123.21506493 3 102
111  44.12110987 -123.21515258 3 102
111  44.12105899 -123.21529804 3 102
111  44.12103222 -123.21542299 3 102
111  44.12102021 -123.21565436 3 102
111  44.12102021 -123.21581475
111  44.12075647 -123.21581475 3 102
111  44.12068329 -123.21573005 3 102
111  44.12059850 -123.21567721 3 102
111  44.12050033 -123.21565700 3 102
111  44.12044875 -123.21567210 3 102
111  44.12034566 -123.21572619 3 102
111  44.11989071 -123.21608224
111  44.11863707 -123.21504635 3 102
111  44.11857435 -123.21480194 3 102
111  44.11805892 -123.21358858 3 102
111  44.11848144 -123.21321710
111  44.11873528 -123.21379447
111  44.11901966 -123.21449953
111  44.11915407 -123.21471773
111  44.11932945 -123.21491168
111  44.11957312 -123.21504409
111  44.11980741 -123.21505901
111  44.12000019 -123.21497695
111  44.12036575 -123.21467620
111  44.12044779 -123.21450998
111  44.12052589 -123.21428334
111  44.12055843 -123.21410203
111  44.12056959 -123.21393108
111  44.12055378 -123.21370314
111  44.12050544 -123.21348557
111  44.12009945 -123.21248547
111  44.12037487 -123.21220032
111  44.12140431 -123.21376322 3 102
111  44.12138892 -123.21430232 3 102
111  44.12289382 -123.21557343 3 102
111  44.12295037 -123.21559393 3 102
111  44.12300228 -123.21558530 3 102
111  44.12305497 -123.21555724 3 102
111  44.12309371 -123.21550867 3 102
111  44.12579060 -123.21152038
111  44.12593217 -123.21171044 3 102
111  44.12330526 -123.21560841 3 102
111  44.12327944 -123.21568666 3 102
111  44.12327169 -123.21576670 3 102
111  44.12328266 -123.21585215 3 102
111  44.12332915 -123.21593759 3 102
113  44.12426018 -123.21674862 3 102
110 1 0.00 0.0 New Taxiway 5
111  44.11895404 -123.21716948 3 102
111  44.11809480 -123.21716217 3 102
111  44.11499425 -123.21710826 3 102
111  44.11415156 -123.21714166 3 102
111  44.11383906 -123.21725134 3 102
111  44.11382399 -123.21727681 3 102
111  44.11372392 -123.21772870 3 102
111  44.11372647 -123.21810846 3 102
111  44.11378006 -123.21838633 3 102
111  44.11380603 -123.21846294 3 102
111  44.11385340 -123.21851375 3 102
111  44.11391481 -123.21854140
111  44.11347943 -123.21853430 3 102
111  44.11345445 -123.21770823 3 102
111  44.11337325 -123.21727135 3 102
111  44.11334448 -123.21724221 3 102
111  44.11305894 -123.21712695 3 102
111  44.11295564 -123.21712096 3 102
111  44.11210004 -123.21706964 3 102
111  44.11023670 -123.21704269 3 102
111  44.11013071 -123.21703803 3 102
111  44.11005150 -123.21701472 3 102
111  44.10997564 -123.21697121 3 102
111  44.10989419 -123.21686866 3 102
111  44.10985291 -123.21678164 3 102
111  44.10981944 -123.21668841 3 102
111  44.10980271 -123.21657498 3 102
111  44.10979936 -123.21646155 3 102
111  44.10980271 -123.21613525 3 102
111  44.10980478 -123.21557261
111  44.11057860 -123.21555396 3 102
111  44.11011805 -123.21564346 3 102
111  44.11007655 -123.21568262 3 102
111  44.11004576 -123.21574415 3 102
111  44.11002835 -123.21583179 3 102
111  44.11002166 -123.21594180 3 102
111  44.11002166 -123.21622149 3 102
111  44.11002032 -123.21640608 3 102
111  44.11003639 -123.21656830 3 102
111  44.11007387 -123.21665594 3 102
111  44.11012789 -123.21670749 3 102
111  44.11019704 -123.21673985 3 102
111  44.11154597 -123.21675407 3 102
111  44.11163634 -123.21671988 3 102
111  44.11167873 -123.21667171 3 102
111  44.11170328 -123.21659402 3 102
111  44.11171890 -123.21651167 3 102
111  44.11172336 -123.21639513 3 102
111  44.11172113 -123.21582796 3 102
111  44.11171109 -123.21577824 3 102
111  44.11167538 -123.21570676 3 102
111  44.11163187 -123.21565859 3 102
111  44.11119907 -123.21555722
111  44.11193593 -123.21558179 3 102
111  44.11195031 -123.21627059 3 102
111  44.11195225 -123.21645763 3 102
111  44.11197679 -123.21663208 3 102
111  44.11200778 -123.21668514 3 102
111  44.11204384 -123.21673350 3 102
111  44.11208645 -123.21674789 3 102
111  44.11295154 -123.21679148 3 102
111  44.11370795 -123.21680090 3 102
111  44.11383904 -123.21680220 3 102
111  44.11537281 -123.21682776 3 102
111  44.11540907 -123.21681092 3 102
111  44.11542860 -123.21677855 3 102
111  44.11544254 -123.21673840 3 102
111  44.11544335 -123.21654901 3 102
111  44.11542996 -123.21649152 3 102
111  44.11540319 -123.21645111 3 102
111  44.11536302 -123.21642003
111  44.11569995 -123.21643868 3 102
111  44.11561740 -123.21646821 3 102
111  44.11558839 -123.21650861 3 102
111  44.11556942 -123.21656766 3 102
111  44.11556719 -123.21669975 3 102
111  44.11558616 -123.21676968 3 102
111  44.11561740 -123.21681630 3 102
111  44.11567095 -123.21683339 3 102
111  44.11727088 -123.21686461 3 102
111  44.11811482 -123.21687621 3 102
113  44.11895018 -123.21684454
110 1 0.00 0.0 New Taxiway 1
111  44.12647532 -123.21727362 3 102
111  44.12616474 -123.21727968 3 102
111  44.12543123 -123.21730582 3 102
111  44.12511137 -123.21742579 3 102
111  44.12508864 -123.21745919 3 102
111  44.12500143 -123.21789842 3 102
111  44.12499060 -123.21805665 3 102
111  44.12498969 -123.21820557 3 102
111  44.12501759 -123.21838819 3 102
111  44.12505240 -123.21856006 3 102
111  44.12506885 -123.21863331 3 102
111  44.12511295 -123.21869555 3 102
111  44.12517126 -123.21871075
111  44.12448276 -123.21870104 3 102
111  44.12454832 -123.21868449 3 102
111  44.12462173 -123.21863540 3 102
111  44.12465353 -123.21855989 3 102
111  44.12471293 -123.21830895 3 102
111  44.12472972 -123.21818843 3 102
111  44.12473424 -123.21804092 3 102
111  44.12473359 -123.21793119 3 102
111  44.12465108 -123.21745787 3 102
111  44.12462328 -123.21741602 3 102
111  44.12433355 -123.21730243 3 102
111  44.12420846 -123.21728556 3 102
111  44.12358037 -123.21723892 3 102
111  44.12252426 -123.21720789 3 102
111  44.12154857 -123.21721002 3 102
111  44.12080432 -123.21723385 3 102
111  44.12044284 -123.21736002 3 102
111  44.12042176 -123.21739667 3 102
111  44.12033299 -123.21784032 3 102
111  44.12033067 -123.21818244 3 102
111  44.12038948 -123.21848375 3 102
111  44.12041762 -123.21856050 3 102
111  44.12048116 -123.21862095 3 102
111  44.12055846 -123.21864083
111  44.11983907 -123.21863081 3 102
111  44.11991074 -123.21861343 3 102
111  44.11997920 -123.21855383 3 102
111  44.12000370 -123.21848101 3 102
111  44.12006599 -123.21819609 3 102
111  44.12007622 -123.21784772 3 102
111  44.11998723 -123.21736841 3 102
111  44.11996561 -123.21734004 3 102
111  44.11966462 -123.21722669 3 102
111  44.11953414 -123.21720982 3 102
111  44.11895404 -123.21716948
111  44.11895018 -123.21684454 3 102
111  44.11928501 -123.21673129 3 102
111  44.11930115 -123.21671106 3 102
111  44.11937271 -123.21638504 3 102
111  44.11935818 -123.21633708 3 102
111  44.11894231 -123.21602652 3 102
111  44.11842179 -123.21559909
111  44.11863707 -123.21504635 32
111  44.11989071 -123.21608224 3 102
111  44.11986548 -123.21609884 3 102
111  44.11969697 -123.21632188 3 102
111  44.11968922 -123.21635876 3 102
111  44.11974603 -123.21670231 3 102
111  44.11976799 -123.21673739 3 102
111  44.12010300 -123.21686414 3 102
111  44.12031219 -123.21686932 3 102
111  44.12064688 -123.21675156 3 102
111  44.12066544 -123.21672696 3 102
111  44.12074371 -123.21636868 3 102
111  44.12077664 -123.21620590 3 102
111  44.12077535 -123.21588122 3 102
111  44.12077254 -123.21585577 3 102
111  44.12075647 -123.21581475
111  44.12102021 -123.21581475 3 102
111  44.12102021 -123.21623808 3 102
111  44.12103896 -123.21638168 3 102
111  44.12111111 -123.21674155 3 102
111  44.12112823 -123.21675962 3 102
111  44.12141650 -123.21686836 3 102
111  44.12150575 -123.21689012 3 102
111  44.12202163 -123.21691370 3 102
111  44.12206626 -123.21689815 3 102
111  44.12213543 -123.21685619 3 102
111  44.12220125 -123.21680646 3 102
111  44.12225369 -123.21675051 3 102
111  44.12272602 -123.21603975 3 102
111  44.12274569 -123.21598637 3 102
111  44.12275376 -123.21594215 3 102
111  44.12275269 -123.21588969 3 102
111  44.12274838 -123.21585596 3 102
111  44.12273762 -123.21580200 3 102
111  44.12270968 -123.21572514
111  44.12315401 -123.21610841 3 102
111  44.12308239 -123.21608740 3 102
111  44.12303128 -123.21608890 3 102
111  44.12299093 -123.21610464 3 102
111  44.12295273 -123.21613462 3 102
111  44.12253755 -123.21674055 3 102
111  44.12252540 -123.21677080 3 102
111  44.12252378 -123.21682551 3 102
111  44.12252809 -123.21688098 3 102
111  44.12254154 -123.21690796 3 102
111  44.12255822 -123.21692969 3 102
111  44.12260287 -123.21693569 3 102
111  44.12388215 -123.21696126 3 102
111  44.12391027 -123.21694261 3 102
111  44.12392901 -123.21691464 3 102
111  44.12393704 -123.21687547 3 102
111  44.12393704 -123.21684004
111  44.12438019 -123.21684004 3 102
111  44.12448461 -123.21692567 3 102
111  44.12453035 -123.21694899 3 102
111  44.12460622 -123.21696764 3 102
111  44.12514812 -123.21696504 3 102
111  44.12572829 -123.21694349 3 102
111  44.12577106 -123.21693183 3 102
111  44.12606671 -123.21683210 3 102
111  44.12608344 -123.21681267 3 102
111  44.12617705 -123.21631152 3 102
111  44.12620895 -123.21631142 3 102
111  44.12624915 -123.21146056
111  44.12625481 -123.21069196 3 102
111  44.12625868 -123.21041852
111  44.12626265 -123.20990446 3 102
111  44.12627010 -123.20860380
111  44.12627103 -123.20849501 3 102
111  44.12628434 -123.20662584
111  44.12628978 -123.20597836 3 102
111  44.12630321 -123.20462141
111  44.12649955 -123.20461459 3 102
111  44.12647741 -123.20775929 3 102
111  44.12649214 -123.20778735 3 102
111  44.12651383 -123.20781109 3 102
111  44.12673774 -123.20780894 5 102
111  44.12673774 -123.20791255 3 102
111  44.12650996 -123.20791903 3 102
111  44.12649291 -123.20792874 3 102
111  44.12647974 -123.20795249 3 102
111  44.12647376 -123.20849578 3 102
111  44.12647466 -123.20859198 3 102
111  44.12644089 -123.21247903 3 102
111  44.12644716 -123.21250776 3 102
111  44.12645613 -123.21252712 3 102
111  44.12647227 -123.21253837 3 102
111  44.12659878 -123.21253660 5 102
111  44.12659824 -123.21265203 3 102
111  44.12647019 -123.21265053 3 102
111  44.12645028 -123.21265952 3 102
111  44.12644060 -123.21267601 3 102
111  44.12643791 -123.21272923 3 102
111  44.12643319 -123.21399297 3 102
111  44.12646031 -123.21407176 3 102
111  44.12649904 -123.21414192 3 102
111  44.12654243 -123.21419265 3 102
111  44.12659434 -123.21424230 3 102
111  44.12670048 -123.21425201 5 102
111  44.12670126 -123.21444629 3 102
111  44.12663153 -123.21445385 3 102
111  44.12657187 -123.21447652 3 102
111  44.12651996 -123.21452940 3 102
111  44.12647425 -123.21459956 3 102
111  44.12643861 -123.21469131 3 102
111  44.12642777 -123.21481327 3 102
111  44.12641299 -123.21630621 3 102
111  44.12643719 -123.21630720 3 102
113  44.12653066 -123.21682878
110 1 0.00 0.0 New Taxiway 2
111  44.13542665 -123.21886471
111  44.13507583 -123.21885977 3 102
111  44.13509765 -123.21884824 3 102
111  44.13512026 -123.21881306 3 102
111  44.13514929 -123.21872559 3 102
111  44.13517030 -123.21862066 3 102
111  44.13519340 -123.21850980 3 102
111  44.13521650 -123.21838345 3 102
111  44.13521992 -123.21821657 3 102
111  44.13521735 -123.21806161 3 102
111  44.13520287 -123.21793495 3 102
111  44.13518928 -123.21783551 3 102
111  44.13516251 -123.21770852 3 102
111  44.13513779 -123.21761104 3 102
111  44.13510956 -123.21758124 3 102
111  44.13500690 -123.21753237 3 102
111  44.13497397 -123.21753498 3 102
111  44.13488979 -123.21756788 3 102
111  44.13486002 -123.21761079 3 102
111  44.13479945 -123.21793692 3 102
111  44.13478200 -123.21806136 3 102
111  44.13476866 -123.21821298 3 102
111  44.13477482 -123.21837175 3 102
111  44.13479124 -123.21850335 3 102
111  44.13480972 -123.21861921 3 102
111  44.13482743 -123.21870297 3 102
111  44.13485679 -123.21883648 3 102
111  44.13489480 -123.21885716
111  44.13436355 -123.21884890 3 102
111  44.13439383 -123.21883777 3 102
111  44.13443883 -123.21869316 3 102
111  44.13449621 -123.21847196 3 102
111  44.13450898 -123.21832565 3 102
111  44.13451021 -123.21820721 3 102
111  44.13450651 -123.21804244 3 102
111  44.13447695 -123.21786564 3 102
111  44.13442890 -123.21761847 3 102
111  44.13441042 -123.21757899 3 102
111  44.13437347 -123.21755153 3 102
111  44.13411614 -123.21745392 3 102
111  44.13396831 -123.21743126 3 102
111  44.13301073 -123.21737441 3 102
111  44.12967232 -123.21732692 3 102
111  44.12888600 -123.21735427 3 102
111  44.12883426 -123.21737280 3 102
111  44.12853712 -123.21746960 3 102
111  44.12852381 -123.21749638 3 102
111  44.12843659 -123.21791858 3 102
111  44.12842439 -123.21803286 3 102
111  44.12842610 -123.21827242 3 102
111  44.12846459 -123.21850364 3 102
111  44.12848617 -123.21860581 3 102
111  44.12851832 -123.21873024 3 102
111  44.12853413 -123.21875961 3 102
111  44.12855682 -123.21876211
111  44.12800300 -123.21875561 3 102
111  44.12802944 -123.21875109 3 102
111  44.12804669 -123.21872786 3 102
111  44.12809090 -123.21860118 3 102
111  44.12815398 -123.21835195 3 102
111  44.12816417 -123.21822734 3 102
111  44.12816912 -123.21810181 3 102
111  44.12814337 -123.21784255 3 102
111  44.12809802 -123.21757320 3 102
111  44.12808091 -123.21750169 3 102
111  44.12806979 -123.21748381 3 102
111  44.12803814 -123.21746235 3 102
111  44.12775420 -123.21734973 3 102
111  44.12757883 -123.21733543 3 102
111  44.12647532 -123.21727362
111  44.12653066 -123.21682878 3 102
111  44.12685636 -123.21695927 3 102
111  44.12759503 -123.21701265 3 102
111  44.13125574 -123.21706911 3 102
111  44.13377251 -123.21710852 3 102
111  44.13384790 -123.21708586 3 102
111  44.13393512 -123.21703025 3 102
111  44.13403121 -123.21691079 3 102
111  44.13414952 -123.21676010 3 102
111  44.13430105 -123.21663995 3 102
111  44.13449199 -123.21656615 3 102
111  44.13472236 -123.21654383 3 102
111  44.13504362 -123.21654586 3 102
111  44.13515597 -123.21657881 3 102
111  44.13526537 -123.21665502 3 102
111  44.13535850 -123.21677243 3 102
111  44.13540483 -123.21691927 3 102
111  44.13543440 -123.21709229 3 102
113  44.13543938 -123.21727008 3 102
110 1 0.00 0.0 New Taxiway 1
111  44.13296217 -123.20307144 3 102
111  44.13296624 -123.20370825 3 102
111  44.13295479 -123.20385592 3 102
111  44.13291182 -123.20407497 3 102
111  44.13265636 -123.20466488 3 102
111  44.13258043 -123.20483415 3 102
111  44.13252306 -123.20490703 3 102
111  44.13247243 -123.20495170 3 102
111  44.13239650 -123.20497285 3 102
111  44.13227838 -123.20498461 3 102
111  44.13194483 -123.20498572 3 102
111  44.13187569 -123.20497756 3 102
111  44.13183351 -123.20495633 3 102
111  44.13177609 -123.20490899 3 102
111  44.13141854 -123.20442066 3 102
111  44.13139006 -123.20440743 3 102
111  44.13135615 -123.20440081 3 102
111  44.12676701 -123.20432711 3 102
111  44.12668433 -123.20434357 3 102
111  44.12662864 -123.20439058 3 102
111  44.12655608 -123.20448226 3 102
111  44.12649955 -123.20461459
111  44.12630321 -123.20462141 3 102
111  44.12626387 -123.20450344 3 102
111  44.12623805 -123.20444221 3 102
111  44.12621827 -123.20441387 3 102
111  44.12620810 -123.20441072 3 102
111  44.12618549 -123.20441387 3 102
111  44.12616402 -123.20444615 3 102
111  44.12611655 -123.20453511 3 102
111  44.12608505 -123.20463414
111  44.12588397 -123.20463583 3 102
111  44.12586240 -123.20452938 3 102
111  44.12581651 -123.20444503 3 102
111  44.12576768 -123.20437837 3 102
111  44.12570030 -123.20433620 3 102
111  44.12559611 -123.20431056 3 102
111  44.12208552 -123.20426225 3 102
111  44.12200677 -123.20427988 3 102
111  44.12194490 -123.20431514 3 102
111  44.12188303 -123.20439153 3 102
111  44.12185209 -123.20443659 3 102
111  44.12182538 -123.20450319 3 102
111  44.12181272 -123.20456195 3 102
111  44.12180273 -123.20507899 3 102
111  44.12181398 -123.20518280 3 102
111  44.12187023 -123.20531013 3 102
111  44.12194054 -123.20541198 3 102
111  44.12207764 -123.20545738
111  44.12137316 -123.20545844 3 102
111  44.12143992 -123.20542938 3 102
111  44.12150925 -123.20537225 3 102
111  44.12156100 -123.20527975 3 102
111  44.12158639 -123.20520902 3 102
111  44.12160299 -123.20512604 3 102
111  44.12160983 -123.20461729 3 102
111  44.12159323 -123.20450439 3 102
111  44.12155515 -123.20440237 3 102
111  44.12150339 -123.20433436 3 102
111  44.12144773 -123.20428539 3 102
111  44.12138328 -123.20425818 3 102
111  44.12131469 -123.20425543 3 102
111  44.11807932 -123.20420111 3 102
111  44.11806142 -123.20420904 3 102
111  44.11803294 -123.20422378 3 102
111  44.11800771 -123.20424871 3 102
111  44.11769232 -123.20467824 3 102
111  44.11765326 -123.20471496 3 102
111  44.11761079 -123.20474486 3 102
111  44.11756533 -123.20475715 3 102
111  44.11705363 -123.20475652 3 102
111  44.11700620 -123.20473690 3 102
111  44.11697695 -123.20471630 3 102
111  44.11693616 -123.20468067 3 102
111  44.11688343 -123.20460994 3 102
111  44.11679164 -123.20440592 3 102
111  44.11656381 -123.20386142 3 102
111  44.11652475 -123.20373447 3 102
111  44.11650522 -123.20358599 3 102
111  44.11649708 -123.20347264 3 102
111  44.11649277 -123.20283091
111  44.11692980 -123.20283702 3 102
111  44.11680744 -123.20290298 3 102
111  44.11675894 -123.20296987 3 102
111  44.11672261 -123.20309555 3 102
111  44.11670738 -123.20331753 3 102
111  44.11671090 -123.20351013 3 102
111  44.11674019 -123.20367825 3 102
111  44.11679175 -123.20378598 3 102
111  44.11685972 -123.20385616 3 102
111  44.11698393 -123.20390186 3 102
111  44.11721360 -123.20391002 3 102
111  44.12134830 -123.20396667 3 102
111  44.12144280 -123.20394698 3 102
111  44.12151441 -123.20389030 3 102
111  44.12155591 -123.20382229 3 102
111  44.12158439 -123.20374407 3 102
111  44.12160582 -123.20364847 3 102
111  44.12161531 -123.20325097 3 102
111  44.12160392 -123.20317275 3 102
111  44.12158764 -123.20311154 3 102
111  44.12154370 -123.20303446 3 102
111  44.12149162 -123.20296645 3 102
111  44.12139560 -123.20289503
111  44.12201328 -123.20289989 3 102
111  44.12194547 -123.20292744 3 102
111  44.12189649 -123.20298582 3 102
111  44.12185834 -123.20307176 3 102
111  44.12183527 -123.20315639 3 102
111  44.12182902 -123.20371115 3 102
111  44.12184249 -123.20376232 3 102
111  44.12188702 -123.20385537 3 102
111  44.12196787 -123.20395004 3 102
111  44.12207334 -123.20398432 3 102
111  44.12714980 -123.20405680 3 102
111  44.12799790 -123.20403746 3 102
111  44.12834101 -123.20391386 3 102
111  44.12835593 -123.20389875 3 102
111  44.12843255 -123.20353124 3 102
111  44.12843866 -123.20347455 3 102
111  44.12843730 -123.20342259 3 102
111  44.12836406 -123.20303052 3 102
111  44.12830913 -123.20300312
111  44.12885501 -123.20300560 3 102
111  44.12880550 -123.20303394 3 102
111  44.12872413 -123.20342129 3 102
111  44.12872006 -123.20346286 3 102
111  44.12872209 -123.20349592 3 102
111  44.12879601 -123.20389745 3 102
111  44.12881703 -123.20391918 3 102
111  44.12915563 -123.20404613 3 102
111  44.12998930 -123.20410009 3 102
111  44.13252212 -123.20412678 3 102
111  44.13258044 -123.20410883 3 102
111  44.13263875 -123.20406442 3 102
111  44.13268555 -123.20400868 3 102
111  44.13272149 -123.20393971 3 102
111  44.13274047 -123.20385373 3 102
111  44.13274997 -123.20371579 3 102
111  44.13275065 -123.20340494 3 102
111  44.13273437 -123.20330196 3 102
111  44.13269775 -123.20320747 3 102
111  44.13265164 -123.20314512 3 102
111  44.13260620 -123.20310071 3 102
113  44.13250516 -123.20306008
130 Airport Boundary 1
111  44.14257077 -123.22277922
111  44.12859110 -123.22271345
111  44.12358805 -123.22212087
111  44.11858560 -123.22207644
111  44.11526283 -123.22236970
111  44.10985122 -123.22278073
111  44.10621835 -123.21880391
111  44.10614410 -123.21221501
111  44.11273643 -123.21052522
111  44.11323704 -123.19875489
113  44.13979726 -123.19927586
120 Linear Feature 10
111  44.12451792 -123.21100029 1 101
116  44.12459441 -123.21103241  44.12463620 -123.21099231
120 Linear Feature 9
111  44.12451776 -123.21100043 1 101
116  44.12450641 -123.21110469  44.12446608 -123.21113810
120 Linear Feature 13
111  44.12367869 -123.21143471 1 101
116  44.12356779 -123.21140555  44.12350230 -123.21145903
120 Linear Feature 13
111  44.12290073 -123.21205392 1 101
116  44.12279051 -123.21202603  44.12272501 -123.21207951
120 Linear Feature 13
111  44.12247824 -123.21239330 1 101
116  44.12236753 -123.21236445  44.12230203 -123.21241793
120 Linear Feature 13
111  44.12376016 -123.21160037 1 101
116  44.12387122 -123.21163048  44.12393684 -123.21157729
120 Linear Feature 13
111  44.12299005 -123.21223443 1 101
116  44.12309950 -123.21226135  44.12316512 -123.21220816
120 Linear Feature 13
111  44.12256756 -123.21257381 1 101
116  44.12267821 -123.21260315  44.12274383 -123.21254996
120 Linear Feature 12
111  44.12367869 -123.21143471 1 101
116  44.12370238 -123.21129898  44.12375898 -123.21125002
120 Linear Feature 12
111  44.12290073 -123.21205392 1 101
116  44.12292463 -123.21191867  44.12298123 -123.21186971
120 Linear Feature 12
111  44.12247824 -123.21239330 1 101
116  44.12250171 -123.21225716  44.12255831 -123.21220820
120 Linear Feature 12
111  44.12376008 -123.21160025 1 101
116  44.12373823 -123.21174074  44.12368152 -123.21178944
120 Linear Feature 12
111  44.12298997 -123.21223430 1 101
116  44.12296627 -123.21236974  44.12290956 -123.21241845
120 Linear Feature 12
111  44.12256748 -123.21257369 1 101
116  44.12254414 -123.21271037  44.12248743 -123.21275908
120 Linear Feature 11
111  44.12367818 -123.21143389 1 101
115  44.12376029 -123.21160032
120 Linear Feature 11
111  44.12290073 -123.21205392 1 101
115  44.12299017 -123.21223437
120 Linear Feature 11
111  44.12247824 -123.21239330 1 101
115  44.12256769 -123.21257375
120 Linear Feature 8
111  44.12432324 -123.21080734 1 101
112  44.12444356 -123.21082106  44.12447412 -123.21089733 1 101
115  44.12451805 -123.21100020
120 Linear Feature 7
111  44.12432348 -123.21080713 1 101
111  44.12337703 -123.21155662 1 101
111  44.12202540 -123.21263833 1 101
116  44.12193510 -123.21286676  44.12197754 -123.21295913
120 Linear Feature 6
111  44.12181222 -123.21272039 1 101
116  44.12193477 -123.21286437  44.12199261 -123.21299575
120 Linear Feature 2
111  44.11183007 -123.21532632 1 101
116  44.11173533 -123.21546159  44.11165518 -123.21546088
120 Linear Feature 2
111  44.11155569 -123.21532890 1 101
116  44.11146150 -123.21546151  44.11136473 -123.21545885
120 Linear Feature 2
111  44.11142956 -123.21532772 1 101
116  44.11133541 -123.21546162  44.11123864 -123.21545896
120 Linear Feature 2
111  44.11092179 -123.21532308 1 101
116  44.11082776 -123.21545426  44.11073100 -123.21545160
120 Linear Feature 2
111  44.11041885 -123.21531526 1 101
116  44.11032503 -123.21544753  44.11022826 -123.21544486
120 Linear Feature 1
111  44.11155569 -123.21532890 1 101
116  44.11164523 -123.21546161  44.11173089 -123.21546247
120 Linear Feature 1
111  44.11142956 -123.21532772 1 101
116  44.11151917 -123.21546155  44.11160482 -123.21546241
120 Linear Feature 1
111  44.11092179 -123.21532308 1 101
116  44.11101140 -123.21545728  44.11109706 -123.21545813
120 Linear Feature 1
111  44.11041885 -123.21531526 1 101
116  44.11050842 -123.21544923  44.11059408 -123.21545008
120 Linear Feature 3
111  44.11155857 -123.21471006 1 101
112  44.11167429 -123.21460328  44.11176975 -123.21462005 1 101
115  44.11179028 -123.21479988
120 Linear Feature 6
111  44.11188832 -123.21490255 1 101
112  44.11193814 -123.21507662  44.11192260 -123.21518739 1 101
111  44.11187871 -123.21521063 1 101
112  44.11183126 -123.21531919  44.11182147 -123.21538342 1 101
111  44.11182251 -123.21543206 1 101
115  44.11182223 -123.21559314
120 Linear Feature 1
111  44.11155569 -123.21532985 1 101
115  44.11155865 -123.21470995
120 Linear Feature 1
111  44.11142959 -123.21532793 1 101
115  44.11143309 -123.21472326
120 Linear Feature 1
111  44.11092197 -123.21532645 1 101
115  44.11092539 -123.21471389
120 Linear Feature 1
111  44.11041885 -123.21531526 1 101
115  44.11042251 -123.21470791
120 Linear Feature 13
111  44.11005584 -123.21544622 1 101
116  44.10992099 -123.21526336  44.10992392 -123.21507151
120 Linear Feature 12
111  44.11005467 -123.21544704 1 101
116  44.10991810 -123.21566909  44.10991106 -123.21590828
120 Linear Feature 11
111  44.11005500 -123.21544460 1 101
111  44.11057893 -123.21544992 1 101
111  44.11126943 -123.21546161 1 101
111  44.11173806 -123.21546160 1 101
116  44.11182223 -123.21559314  44.11181731 -123.21571560
120 Linear Feature 5
111  44.12199100 -123.21298852 1 101
116  44.12197254 -123.21316293  44.12190209 -123.21321703
120 Linear Feature 5
111  44.12132147 -123.21351371 1 101
116  44.12131192 -123.21369255  44.12124720 -123.21377236
120 Linear Feature 4
111  44.12193477 -123.21286437 1 101
111  44.12199047 -123.21298631 1 101
116  44.12213000 -123.21303878  44.12220957 -123.21297670
120 Linear Feature 4
111  44.12126524 -123.21338956 1 101
111  44.12132094 -123.21351149 1 101
116  44.12146046 -123.21356396  44.12154004 -123.21350188
120 Linear Feature 3
111  44.12125138 -123.21323085 1 101
116  44.12126542 -123.21338986  44.12130379 -123.21345614
120 Linear Feature 20
111  44.12081901 -123.21484060 1 101
116  44.12093520 -123.21493066  44.12093750 -123.21497752
120 Linear Feature 19
111  44.12081865 -123.21484049 1 101
116  44.12093670 -123.21474517  44.12093670 -123.21459377
120 Linear Feature 18
111  44.11991812 -123.21565276 1 101
116  44.12003121 -123.21552655  44.12000809 -123.21537227
120 Linear Feature 17
111  44.12003431 -123.21553996 1 101
116  44.11997410 -123.21589199  44.11986317 -123.21597844
120 Linear Feature 16
111  44.11996132 -123.21522167 1 101
111  44.12003429 -123.21553979 1 101
116  44.12021738 -123.21566974  44.12036848 -123.21566377
120 Linear Feature 15
111  44.11921941 -123.21600937 1 101
116  44.11937539 -123.21582150  44.11938408 -123.21550948
120 Linear Feature 33
111  44.11852007 -123.21485328 3 102
115  44.11863698 -123.21504626
120 Linear Feature 28
111  44.11878904 -123.21484213 1 101
116  44.11870262 -123.21467295  44.11869116 -123.21456602
120 Linear Feature 27
111  44.11878917 -123.21484203 1 101
116  44.11873469 -123.21462281  44.11876214 -123.21447484
120 Linear Feature 11
111  44.11878907 -123.21484195 1 101
111  44.11981539 -123.21560667 1 101
112  44.12001715 -123.21567162  44.12014943 -123.21568461 1 101
111  44.12019410 -123.21567504 1 101
116  44.12034867 -123.21560467  44.12041026 -123.21554880
120 Linear Feature 10
111  44.11874100 -123.21543106 1 101
116  44.11881927 -123.21568120  44.11888630 -123.21573435
120 Linear Feature 9
111  44.11874100 -123.21543106 1 101
116  44.11864354 -123.21553652  44.11854694 -123.21545516
120 Linear Feature 8
111  44.11872488 -123.21467391 1 101
116  44.11870876 -123.21479085  44.11871068 -123.21481637
120 Linear Feature 7
111  44.11885566 -123.21408118 1 101
116  44.11882447 -123.21413202  44.11881871 -123.21416746
120 Linear Feature 6
111  44.11927843 -123.21348823 1 101
116  44.11926201 -123.21374009  44.11915612 -123.21386219
120 Linear Feature 3
111  44.11872482 -123.21467407 1 101
111  44.11883041 -123.21409970 1 101
112  44.11889840 -123.21394865  44.11893161 -123.21389507 1 101
116  44.11893151 -123.21367342  44.11893595 -123.21356224
120 Linear Feature 2
111  44.11926201 -123.21374009 1 101
115  44.11885554 -123.21408117
120 Linear Feature 1
111  44.11874103 -123.21543111 1 101
111  44.11870330 -123.21468235 1 101
115  44.11862451 -123.21380188
120 Linear Feature 20
111  44.12286398 -123.21605008 1 101
116  44.12283062 -123.21567981  44.12264085 -123.21551165
120 Linear Feature 19
111  44.12316354 -123.21562001 1 101
116  44.12280241 -123.21565543  44.12255332 -123.21546614
120 Linear Feature 18
111  44.12322696 -123.21601548 1 101
116  44.12316446 -123.21561933  44.12331468 -123.21540250
120 Linear Feature 17
111  44.12291667 -123.21597442 1 101
116  44.12319047 -123.21598476  44.12332305 -123.21609558
120 Linear Feature 16
111  44.11952998 -123.21638711 1 101
116  44.11938940 -123.21614974  44.11923971 -123.21603423
120 Linear Feature 15
111  44.11964118 -123.21614913 1 101
116  44.11952985 -123.21638741  44.11953501 -123.21657004
120 Linear Feature 14
111  44.11938999 -123.21614943 1 101
116  44.11964158 -123.21614908  44.11977969 -123.21604819
120 Linear Feature 13
111  44.11831568 -123.21543780 1 101
116  44.11839645 -123.21509810  44.11829159 -123.21491700
120 Linear Feature 12
111  44.11831558 -123.21543780 1 101
116  44.11850766 -123.21542501  44.11859078 -123.21549091
120 Linear Feature 11
111  44.12107779 -123.21498494 1 101
116  44.12093519 -123.21493055  44.12093667 -123.21474376
120 Linear Feature 10
111  44.12080446 -123.21524809 1 101
116  44.12093495 -123.21496876  44.12093618 -123.21481814
120 Linear Feature 8
111  44.12078763 -123.21526412 1 101
115  44.12107973 -123.21498309
120 Linear Feature 7
111  44.12090115 -123.21526817 1 101
112  44.12091584 -123.21518559  44.12093574 -123.21514418 1 101
115  44.12093373 -123.21510902
120 Linear Feature 6
111  44.12107973 -123.21498309 1 101
116  44.12089890 -123.21552699  44.12089817 -123.21588918
120 Linear Feature 5
111  44.12144329 -123.21467564 1 101
116  44.12163949 -123.21467989  44.12174818 -123.21475589
120 Linear Feature 4
111  44.12100079 -123.21399585 1 101
116  44.12094321 -123.21393880  44.12094360 -123.21383605
120 Linear Feature 3
111  44.12100078 -123.21399575 1 101
116  44.12094184 -123.21414602  44.12094628 -123.21423845
120 Linear Feature 2
111  44.12100420 -123.21415878 1 101
116  44.12094302 -123.21398550  44.12094302 -123.21387553
120 Linear Feature 1
111  44.12100417 -123.21415871 1 101
116  44.12094089 -123.21420413  44.12094059 -123.21430804
120 Linear Feature 31
111  44.12207747 -123.20545795 3 102
115  44.12356584 -123.20547763
120 Linear Feature 30
111  44.12108794 -123.20638520 3 102
111  44.12109275 -123.20545607 3 102
115  44.12137338 -123.20545916
120 Linear Feature 27
111  44.12578107 -123.20418164 1 101
116  44.12598349 -123.20457707  44.12598236 -123.20494236
120 Linear Feature 27
111  44.12620634 -123.20418643 1 101
116  44.12639998 -123.20458357  44.12639885 -123.20494886
120 Linear Feature 26
111  44.12619801 -123.20418643 1 101
116  44.12598336 -123.20457737  44.12598007 -123.20494083
120 Linear Feature 26
111  44.12662345 -123.20419112 1 101
116  44.12639997 -123.20458231  44.12639667 -123.20494576
120 Linear Feature 25
111  44.12857865 -123.20302649 1 101
116  44.12837418 -123.20269465  44.12815989 -123.20268709
120 Linear Feature 24
111  44.12857863 -123.20302643 1 101
116  44.12882571 -123.20270027  44.12907840 -123.20270265
120 Linear Feature 23
111  44.12857592 -123.20393756 7 101
116  44.12834732 -123.20421747  44.12813405 -123.20421584
120 Linear Feature 22
111  44.12857591 -123.20393751 7 101
116  44.12879779 -123.20422553  44.12900755 -123.20422879
120 Linear Feature 21
111  44.12857863 -123.20302637 1 101
111  44.12857792 -123.20365771 7 101
115  44.12857591 -123.20393749
120 Linear Feature 20
111  44.11670970 -123.20347932 4 104
115  44.11649829 -123.20347910
120 Linear Feature 19
111  44.12182882 -123.20355450 4 104
115  44.12161025 -123.20355298
120 Linear Feature 18
111  44.12875195 -123.20366035 4 104
115  44.12840676 -123.20366009
120 Linear Feature 17
111  44.13296624 -123.20370825 4 104
115  44.13275237 -123.20370954
120 Linear Feature 16
111  44.13267112 -123.20463059 1 101
115  44.13156346 -123.20461651
120 Linear Feature 15
111  44.13276105 -123.20442283 9 101
115  44.13135829 -123.20440071
120 Linear Feature 14
111  44.12170867 -123.20445421 1 101
116  44.12149331 -123.20411430  44.12126749 -123.20410863
120 Linear Feature 13
111  44.12196236 -123.20412424 1 101
116  44.12170849 -123.20445426  44.12170417 -123.20482327
120 Linear Feature 12
111  44.12171803 -123.20292427 1 101
116  44.12141921 -123.20259431  44.12112381 -123.20258977
120 Linear Feature 11
111  44.12171807 -123.20292436 1 101
116  44.12199287 -123.20260249  44.12228175 -123.20260533
120 Linear Feature 10
111  44.12171402 -123.20377573 7 101
116  44.12196241 -123.20412379  44.12221467 -123.20411585
120 Linear Feature 9
111  44.12171400 -123.20377564 7 101
116  44.12149331 -123.20411430  44.12127574 -123.20411273
120 Linear Feature 5
111  44.11660292 -123.20348438 1 101
111  44.11661230 -123.20283449 1 101
116  44.11684808 -123.20252692  44.11707593 -123.20253032
120 Linear Feature 4
111  44.11679852 -123.20398900 7 101
116  44.11660292 -123.20348438  44.11660914 -123.20312859
120 Linear Feature 8
111  44.12171807 -123.20292420 1 101
111  44.12171604 -123.20356562 7 101
111  44.12171074 -123.20411933 1 101
111  44.12170769 -123.20461404 1 101
111  44.12169749 -123.20585637 1 101
112  44.12178703 -123.20616055  44.12188094 -123.20624312 1 101
111  44.12196896 -123.20623862 1 101
111  44.12212637 -123.20624000 1 101
115  44.12575021 -123.20629594
120 Linear Feature 7
111  44.11788790 -123.20441145 1 101
115  44.11678498 -123.20438937
120 Linear Feature 6
111  44.11807682 -123.20420149 9 101
115  44.11669969 -123.20418586
120 Linear Feature 3
111  44.13255347 -123.20427899 1 101
111  44.12999519 -123.20424629 1 101
111  44.12713325 -123.20419692 1 101
111  44.12559696 -123.20417948 1 101
111  44.12206763 -123.20412617 1 101
111  44.12127744 -123.20410992 1 101
111  44.11804955 -123.20405939 1 101
111  44.11691713 -123.20404503 1 101
116  44.11679857 -123.20398893  44.11674424 -123.20394277
120 Linear Feature 2
111  44.13256520 -123.20275525 1 101
112  44.13278188 -123.20286501  44.13287220 -123.20298179 1 101
111  44.13286303 -123.20307724 1 101
111  44.13286547 -123.20372917 7 101
116  44.13255345 -123.20427897  44.13224972 -123.20428485
120 Linear Feature 3
111  44.12138817 -123.21361774 1 101
111  44.12220010 -123.21298677 1 101
111  44.12274737 -123.21254762 1 101
111  44.12365175 -123.21181244 1 101
111  44.12440105 -123.21119166 1 101
111  44.12557867 -123.21022052 1 101
116  44.12571885 -123.21015275  44.12578005 -123.21014851
120 Linear Feature 14
111  44.12107973 -123.21498309 1 101
115  44.12144341 -123.21467548
120 Linear Feature 13
111  44.11683332 -123.21255420 1 101
111  44.11836750 -123.21504471 1 101
115  44.11862634 -123.21552243
120 Linear Feature 12
111  44.11939015 -123.21614954 1 101
115  44.11850766 -123.21542501
120 Linear Feature 11
111  44.12128133 -123.21439300 1 101
115  44.12100413 -123.21415868
120 Linear Feature 10
111  44.12138817 -123.21361774 1 101
115  44.12100064 -123.21399584
120 Linear Feature 9
111  44.12093373 -123.21510902 1 101
115  44.12094671 -123.21352957
120 Linear Feature 8
111  44.11964087 -123.21614918 1 101
115  44.12078773 -123.21526407
120 Linear Feature 5
111  44.12237007 -123.21679201 1 101
116  44.12242868 -123.21707255  44.12270057 -123.21707458
120 Linear Feature 4
111  44.12397298 -123.21710465 1 101
116  44.12403830 -123.21671566  44.12369116 -123.21633941
120 Linear Feature 2
111  44.12123314 -123.21418274 1 101
111  44.12124587 -123.21382194 1 101
116  44.12138815 -123.21361772  44.12153186 -123.21349460
120 Linear Feature 1
111  44.12460509 -123.21711370 1 101
112  44.12450263 -123.21710276  44.12447739 -123.21709201 1 101
111  44.12442480 -123.21705001 1 101
111  44.12327888 -123.21605862 1 101
111  44.12275101 -123.21561234 1 101
111  44.12175850 -123.21477547 1 101
111  44.12128133 -123.21439300 1 101
116  44.12123315 -123.21418272  44.12123820 -123.21401980
120 Linear Feature 23
111  44.12597129 -123.20611699 1 101
116  44.12583083 -123.20629541  44.12567666 -123.20629541
120 Linear Feature 23
111  44.12594592 -123.20997281 1 101
116  44.12580583 -123.21015171  44.12565167 -123.21015171
120 Linear Feature 22
111  44.12596843 -123.20646813 1 101
116  44.12583083 -123.20629541  44.12568403 -123.20629626
120 Linear Feature 22
111  44.12594361 -123.21032356 1 101
116  44.12580600 -123.21015141  44.12565921 -123.21015225
120 Linear Feature 21
111  44.12623560 -123.20629231 1 101
116  44.12638605 -123.20648862  44.12638411 -123.20669560
120 Linear Feature 21
111  44.12620493 -123.21014840 1 101
116  44.12635501 -123.21034445  44.12635307 -123.21055143
120 Linear Feature 20
111  44.12575021 -123.20629594 1 101
111  44.12623560 -123.20629231 1 101
116  44.12638918 -123.20610219  44.12639023 -123.20590690
120 Linear Feature 20
111  44.12571950 -123.21015202 1 101
111  44.12620489 -123.21014839 1 101
116  44.12635772 -123.20996977  44.12635877 -123.20977448
120 Linear Feature 19
111  44.12626225 -123.21125749 1 101
116  44.12611461 -123.21125858  44.12602966 -123.21138082
120 Linear Feature 18
111  44.12627801 -123.21128269 1 101
111  44.12602337 -123.21087772 1 101
116  44.12594158 -123.21059868  44.12594420 -123.21044243
120 Linear Feature 17
111  44.12634595 -123.21145404 1 101
116  44.12627780 -123.21128239  44.12619806 -123.21116726
120 Linear Feature 16
111  44.12586923 -123.21161278 1 101
111  44.12626808 -123.21103846 1 101
116  44.12635093 -123.21084638  44.12635035 -123.21076197
120 Linear Feature 15
111  44.12201780 -123.21706848 1 101
112  44.12220201 -123.21698851  44.12225507 -123.21694246 1 101
111  44.12236989 -123.21679220 1 101
111  44.12285666 -123.21606037 1 101
111  44.12323102 -123.21552370 1 101
111  44.12586922 -123.21161277 1 101
112  44.12591740 -123.21151817  44.12592102 -123.21149091 1 101
111  44.12593552 -123.21136569 1 101
111  44.12594210 -123.21054603 1 101
111  44.12596746 -123.20670850 1 101
115  44.12598332 -123.20457685
120 Linear Feature 2
111  44.11119917 -123.21555693 3 102
111  44.11057851 -123.21555348 3 102
115  44.11057783 -123.21555644
120 Linear Feature 1
111  44.11211013 -123.21354723 3 102
115  44.11207346 -123.21523541
120 Linear Feature 32
111  44.11207409 -123.21523580 3 102
111  44.11202350 -123.21525158 3 102
111  44.11196899 -123.21528935 3 102
111  44.11195344 -123.21537112 3 102
115  44.11193509 -123.21558173
120 Linear Feature 31
111  44.10980537 -123.21557295 3 102
115  44.10981955 -123.21432388
120 Linear Feature 29
111  44.12088776 -123.21676695 1 101
116  44.12108218 -123.21705350  44.12128866 -123.21705755
120 Linear Feature 29
111  44.11952657 -123.21674895 1 101
116  44.11968983 -123.21703464  44.11986595 -123.21703688
120 Linear Feature 28
111  44.12088776 -123.21676695 1 101
116  44.12068889 -123.21704845  44.12048589 -123.21704555
120 Linear Feature 28
111  44.11952659 -123.21674883 1 101
116  44.11932816 -123.21703079  44.11912517 -123.21702789
120 Linear Feature 23
111  44.11566368 -123.21629192 1 101
116  44.11550873 -123.21609474  44.11550821 -123.21589537
120 Linear Feature 22
111  44.11566379 -123.21629224 1 101
116  44.11550701 -123.21646275  44.11550924 -123.21665126
120 Linear Feature 21
111  44.11550609 -123.21684015 1 101
116  44.11543171 -123.21697853  44.11535741 -123.21697574
120 Linear Feature 20
111  44.11550611 -123.21684013 1 101
116  44.11559300 -123.21697966  44.11568035 -123.21698036
120 Linear Feature 17
111  44.11632943 -123.21529491 1 101
111  44.11697087 -123.21627387 1 101
116  44.11703745 -123.21631927  44.11707861 -123.21632032
120 Linear Feature 19
111  44.11815632 -123.21546114 1 101
116  44.11823757 -123.21550171  44.11827957 -123.21546675
120 Linear Feature 19
111  44.11787600 -123.21568960 1 101
116  44.11795805 -123.21573108  44.11800006 -123.21569612
120 Linear Feature 19
111  44.11758548 -123.21592906 1 101
116  44.11766725 -123.21596974  44.11770926 -123.21593477
120 Linear Feature 19
111  44.11730702 -123.21615696 1 101
116  44.11738897 -123.21619801  44.11743097 -123.21616305
120 Linear Feature 18
111  44.11759407 -123.21458918 1 101
111  44.11815631 -123.21546108 1 101
116  44.11815346 -123.21557077  44.11810901 -123.21560670
120 Linear Feature 18
111  44.11731375 -123.21481765 1 101
111  44.11787599 -123.21568954 1 101
116  44.11787372 -123.21580012  44.11782927 -123.21583606
120 Linear Feature 18
111  44.11706070 -123.21511895 1 101
111  44.11758546 -123.21592899 1 101
116  44.11758285 -123.21603893  44.11753840 -123.21607486
120 Linear Feature 18
111  44.11674477 -123.21528501 1 101
111  44.11730701 -123.21615689 1 101
116  44.11730458 -123.21626718  44.11726013 -123.21630312
120 Linear Feature 16
111  44.11686260 -123.21631576 1 101
116  44.11691137 -123.21618338  44.11685315 -123.21606125
120 Linear Feature 16
111  44.11633014 -123.21630518 1 101
116  44.11637892 -123.21617280  44.11632070 -123.21605067
120 Linear Feature 15
111  44.11575913 -123.21520685 1 101
111  44.11643749 -123.21626423 1 101
116  44.11650386 -123.21630884  44.11654709 -123.21630957
120 Linear Feature 14
111  44.11566367 -123.21629199 1 101
111  44.11719501 -123.21632240 1 101
112  44.11723057 -123.21631854  44.11724142 -123.21631451 1 101
111  44.11726600 -123.21629890 1 101
115  44.11831565 -123.21543774
120 Linear Feature 13
111  44.11550610 -123.21684015 1 101
111  44.11550735 -123.21643648 1 101
111  44.11551715 -123.21406043 1 101
112  44.11558579 -123.21385298  44.11566479 -123.21373933 1 101
115  44.11566997 -123.21372850
120 Linear Feature 2
111  44.12630894 -123.21686488 1 101
116  44.12613521 -123.21712821  44.12595173 -123.21712821
120 Linear Feature 1
111  44.12639999 -123.20458212 1 101
111  44.12633812 -123.21242712 1 101
111  44.12631291 -123.21630673 1 101
111  44.12630903 -123.21686461 1 101
116  44.12648556 -123.21713150  44.12666245 -123.21713150
120 Linear Feature 12
111  44.11874255 -123.21561810 1 101
116  44.11888381 -123.21551178  44.11887636 -123.21528408
120 Linear Feature 11
111  44.11902644 -123.21464536 1 101
112  44.11887647 -123.21525546  44.11887647 -123.21554271 1 101
116  44.11896606 -123.21580134  44.11903727 -123.21585714
120 Linear Feature 10
111  44.11902645 -123.21464534 1 101
116  44.11878880 -123.21484249  44.11868706 -123.21476964
120 Linear Feature 9
111  44.11902644 -123.21464525 1 101
116  44.11901900 -123.21501394  44.11913407 -123.21510198
120 Linear Feature 8
111  44.11944628 -123.21506067 1 101
116  44.11930268 -123.21522490  44.11920251 -123.21514850
120 Linear Feature 14
111  44.11952988 -123.21638673 1 101
112  44.11947247 -123.21616338  44.11941433 -123.21605818 1 101
115  44.11939041 -123.21595713
120 Linear Feature 13
111  44.11944622 -123.21506077 1 101
112  44.11937539 -123.21582150  44.11937698 -123.21623872 1 101
115  44.11969142 -123.21611020
120 Linear Feature 7
111  44.11944629 -123.21506075 1 101
116  44.11948417 -123.21536016  44.11954973 -123.21540982
120 Linear Feature 22
111  44.12007336 -123.21273403 1 101
112  44.12016500 -123.21271624  44.12024153 -123.21271677 1 101
111  44.12030478 -123.21274734 1 101
116  44.12050762 -123.21288867  44.12057916 -123.21294847
120 Linear Feature 21
111  44.12094676 -123.21352975 1 101
112  44.12090307 -123.21325427  44.12084917 -123.21316092 1 101
111  44.12080058 -123.21313072 1 101
111  44.12050762 -123.21288867 1 101
116  44.12036038 -123.21292176  44.12030647 -123.21303357
120 Linear Feature 6
111  44.11909968 -123.21452147 1 101
115  44.11902641 -123.21464533
120 Linear Feature 5
111  44.11947704 -123.21486950 1 101
115  44.11947009 -123.21491136
120 Linear Feature 5
111  44.11947704 -123.21486950 1 101
115  44.11944623 -123.21506075
120 Linear Feature 4
111  44.11989447 -123.21496465 1 101
115  44.11991221 -123.21503483
120 Linear Feature 4
111  44.11991221 -123.21503483 1 101
115  44.11996130 -123.21522180
120 Linear Feature 3
111  44.12033086 -123.21457859 1 101
115  44.12038097 -123.21460559
120 Linear Feature 3
111  44.12038097 -123.21460559 1 101
115  44.12081920 -123.21484068
120 Linear Feature 2
111  44.12086602 -123.21353427 1 101
116  44.12094019 -123.21337901  44.12092281 -123.21328161
120 Linear Feature 1
111  44.12086574 -123.21353432 1 101
116  44.12094618 -123.21358243  44.12095198 -123.21368817
120 Linear Feature 2
111  44.12066814 -123.21368351 1 101
115  44.12086649 -123.21353352
120 Linear Feature 1
111  44.12022793 -123.21325941 1 101
115  44.12031683 -123.21303466
120 Linear Feature 1
111  44.12031683 -123.21303466 1 101
115  44.12036038 -123.21292176
120 Linear Feature 2
111  44.12465666 -123.21711443 1 101
111  44.12357807 -123.21709897 1 101
111  44.12256550 -123.21707381 1 101
111  44.12201807 -123.21706844 1 101
111  44.12150746 -123.21705936 1 101
115  44.11727090 -123.21700224
120 Linear Feature 10
111  44.13522016 -123.21821334 54 103
115  44.13544814 -123.21821366
120 Linear Feature 9
111  44.13451029 -123.21819818 54 103
115  44.13476840 -123.21820281
120 Linear Feature 10
111  44.11182698 -123.21668285 1 101
115  44.11182223 -123.21559314
120 Linear Feature 9
111  44.10990902 -123.21643986 1 101
115  44.10992677 -123.21469543
120 Linear Feature 8
111  44.11727102 -123.21700226 1 101
111  44.11566489 -123.21698027 1 101
111  44.11360673 -123.21696390 1 101
111  44.11295249 -123.21695227 1 101
111  44.11210318 -123.21690850 1 101
111  44.11019442 -123.21689672 1 101
116  44.10990903 -123.21643970  44.10991427 -123.21598979
120 Linear Feature 9
111  44.12089705 -123.21572688 1 101
116  44.12055772 -123.21544398  44.12021374 -123.21568817
120 Linear Feature 7
111  44.12088776 -123.21676695 1 101
115  44.12090117 -123.21526805
120 Linear Feature 6
111  44.11952985 -123.21638741 1 101
115  44.11952654 -123.21674897
120 Linear Feature 8
111  44.11346387 -123.21789608 54 103
115  44.11372045 -123.21789908
120 Linear Feature 2
111  44.12039044 -123.21389283 1 101
115  44.12066814 -123.21368351
120 Linear Feature 8
111  44.12007296 -123.21799314 54 103
115  44.12032954 -123.21799614
120 Linear Feature 8
111  44.12473606 -123.21804351 54 103
115  44.12499039 -123.21804840
120 Linear Feature 8
111  44.12816929 -123.21810128 54 103
115  44.12842356 -123.21810079
120 Linear Feature 12
111  44.11182692 -123.21668308 1 101
116  44.11167918 -123.21690608  44.11153188 -123.21690463
120 Linear Feature 11
111  44.11182699 -123.21668278 1 101
116  44.11197085 -123.21690793  44.11211513 -123.21690793
120 Linear Feature 5
111  44.11360164 -123.21721430 1 101
116  44.11377586 -123.21696520  44.11394972 -123.21695597
120 Linear Feature 5
111  44.12020462 -123.21729406 1 101
116  44.12037891 -123.21704435  44.12055277 -123.21703512
120 Linear Feature 5
111  44.12486582 -123.21736220 1 101
116  44.12504040 -123.21711813  44.12521426 -123.21710891
120 Linear Feature 5
111  44.12829898 -123.21741455 1 101
116  44.12847306 -123.21717570  44.12864692 -123.21716647
120 Linear Feature 4
111  44.11383318 -123.21884886 1 101
116  44.11359357 -123.21853419  44.11359702 -123.21822669
120 Linear Feature 4
111  44.12043565 -123.21895274 1 101
116  44.12019603 -123.21863803  44.12019949 -123.21833049
120 Linear Feature 4
111  44.12509641 -123.21902221 1 101
116  44.12485724 -123.21870627  44.12486069 -123.21839871
120 Linear Feature 4
111  44.12852958 -123.21907466 1 101
116  44.12829155 -123.21875843  44.12829500 -123.21845085
120 Linear Feature 3
111  44.11359357 -123.21853419 1 101
111  44.11359701 -123.21788381 7 101
111  44.11360164 -123.21721430 1 101
116  44.11339053 -123.21695954  44.11315871 -123.21695723
120 Linear Feature 3
111  44.11994945 -123.21894451 1 101
112  44.12011804 -123.21885446  44.12018704 -123.21875374 1 101
111  44.12019603 -123.21863803 1 101
111  44.12019947 -123.21798757 7 101
111  44.12020462 -123.21729407 1 101
116  44.11999351 -123.21703928  44.11976170 -123.21703697
120 Linear Feature 3
111  44.12461135 -123.21901503 1 101
112  44.12477924 -123.21892272  44.12484824 -123.21882199 1 101
111  44.12485724 -123.21870627 1 101
111  44.12486067 -123.21805576 7 101
111  44.12486582 -123.21736221 1 101
116  44.12465647 -123.21711439  44.12442466 -123.21711208
120 Linear Feature 3
111  44.12798394 -123.21906527 1 101
112  44.12820971 -123.21896917  44.12827495 -123.21886393 1 101
111  44.12829040 -123.21875870 1 101
111  44.12829383 -123.21810815 7 101
111  44.12829898 -123.21741456 1 101
116  44.12808963 -123.21716672  44.12785782 -123.21716441
120 Linear Feature 2
111  44.13514338 -123.21727460 1 101
111  44.13441745 -123.21725787 1 101
111  44.13392366 -123.21725428 1 101
111  44.12869329 -123.21718036 1 101
111  44.12654835 -123.21713189 1 101
115  44.12465647 -123.21711439
120 Linear Feature 1
111  44.13433304 -123.21916349 1 101
112  44.13456480 -123.21907379  44.13463920 -123.21896814 1 101
111  44.13463061 -123.21881266 1 101
111  44.13463920 -123.21820470 7 101
111  44.13464063 -123.21756086 1 101
116  44.13441745 -123.21725787  44.13421001 -123.21726983
120 Linear Feature 3
111  44.13514126 -123.21917579 1 101
112  44.13528134 -123.21908451  44.13535224 -123.21897754 1 101
111  44.13534349 -123.21887919 1 101
111  44.13534775 -123.21821778 7 101
111  44.13534988 -123.21763348 1 101
116  44.13514339 -123.21727459  44.13493690 -123.21726866
14  44.11774680 -123.21308802 82 0 Eugene
1300  44.11188701 -123.21490123 322.6 gate jets|turboprops|props L1
1301 B general_aviation 
1300  44.11027468 -123.21464282 -0.8 gate jets|turboprops|props L6
1301 B general_aviation 
1300  44.11027169 -123.21500041 -0.8 gate jets|turboprops|props L7
1301 B general_aviation 
1300  44.11129377 -123.21501767 -0.7 gate jets|turboprops|props L3
1301 B general_aviation 
1300  44.11129580 -123.21466047 -0.6 gate jets|turboprops|props L2
1301 B general_aviation 
1300  44.11079550 -123.21465323 -0.8 gate jets|turboprops|props L4
1301 B general_aviation 
1300  44.11079198 -123.21500930 -0.7 gate jets|turboprops|props L5
1301 B general_aviation 
1300  44.12505256 -123.20961779 120.7 gate jets|turboprops|props|fighters 12
1301 B military 
1300  44.12486620 -123.20977016 120.7 gate jets|turboprops|props|fighters 11
1301 B military 
1300  44.12467882 -123.20991409 120.7 gate jets|turboprops|props|fighters 10
1301 B military 
1300  44.12449805 -123.21005911 120.7 gate jets|turboprops|props|fighters 9
1301 B military 
1300  44.12413585 -123.21063603 120.7 gate turboprops|props 8
1301 A general_aviation 
1300  44.12401557 -123.21073794 120.7 gate turboprops|props 7
1301 A general_aviation 
1300  44.12389318 -123.21083691 120.7 gate turboprops|props 6
1301 A general_aviation 
1300  44.12376727 -123.21094273 120.7 gate turboprops|props 5
1301 A general_aviation 
1300  44.12231239 -123.20561754 90.3 gate turboprops|props 21
1301 A general_aviation 
1300  44.12287812 -123.20561251 90.3 gate turboprops|props 17
1301 A general_aviation 
1300  44.12344432 -123.20561675 90.3 gate turboprops|props 13
1301 A general_aviation 
1300  44.12364573 -123.21104033 120.7 gate turboprops|props 4
1301 A general_aviation 
1300  44.12217129 -123.20562487 90.3 gate turboprops|props 22
1301 A general_aviation 
1300  44.12273703 -123.20561985 90.3 gate turboprops|props 18
1301 A general_aviation 
1300  44.12330323 -123.20562408 90.3 gate turboprops|props 14
1301 A general_aviation 
1300  44.12352672 -123.21114615 120.7 gate turboprops|props 3
1301 A general_aviation 
1300  44.11513634 -123.21553119 -180.1 gate turboprops|props AA40
1301 A general_aviation 
1300  44.11603501 -123.21602291 -137.9 gate turboprops|props AA35
1301 A general_aviation 
1300  44.11646907 -123.21596196 -137.9 gate turboprops|props AA30
1301 A general_aviation 
1300  44.11694602 -123.21600463 -137.9 gate turboprops|props AA25
1301 A general_aviation 
1300  44.11732677 -123.21596468 -137.9 gate turboprops|props AA20
1301 A general_aviation 
1300  44.11758510 -123.21572479 -137.9 gate turboprops|props AA15
1301 A general_aviation 
1300  44.11784521 -123.21542851 -137.9 gate turboprops|props AA10
1301 A general_aviation 
1300  44.11810410 -123.21516778 -137.9 gate turboprops|props AA5
1301 A general_aviation 
1300  44.11514005 -123.21532621 -180.1 gate turboprops|props AA39
1301 A general_aviation 
1300  44.11593879 -123.21586772 -137.9 gate turboprops|props AA34
1301 A general_aviation 
1300  44.11637285 -123.21580677 -137.9 gate turboprops|props AA29
1301 A general_aviation 
1300  44.11684979 -123.21584943 -137.9 gate turboprops|props AA24
1301 A general_aviation 
1300  44.11723054 -123.21580948 -137.9 gate turboprops|props AA19
1301 A general_aviation 
1300  44.11748888 -123.21556959 -137.9 gate turboprops|props AA14
1301 A general_aviation 
1300  44.11774899 -123.21527331 -137.9 gate turboprops|props AA9
1301 A general_aviation 
1300  44.11800788 -123.21501259 -137.9 gate turboprops|props AA4
1301 A general_aviation 
1300  44.11514090 -123.21512141 -180.1 gate turboprops|props AA38
1301 A general_aviation 
1300  44.11584054 -123.21571535 -137.9 gate turboprops|props AA33
1301 A general_aviation 
1300  44.11627460 -123.21565440 -137.9 gate turboprops|props AA28
1301 A general_aviation 
1300  44.11675154 -123.21569707 -137.9 gate turboprops|props AA23
1301 A general_aviation 
1300  44.11713229 -123.21565711 -137.9 gate turboprops|props AA18
1301 A general_aviation 
1300  44.11739063 -123.21541722 -137.9 gate turboprops|props AA13
1301 A general_aviation 
1300  44.11765074 -123.21512094 -137.9 gate turboprops|props AA8
1301 A general_aviation 
1300  44.11790963 -123.21486022 -137.9 gate turboprops|props AA3
1301 A general_aviation 
1300  44.11514121 -123.21492165 -180.1 gate turboprops|props AA37
1301 A general_aviation 
1300  44.11574432 -123.21556722 -137.9 gate turboprops|props AA32
1301 A general_aviation 
1300  44.11617838 -123.21550627 -137.9 gate turboprops|props AA27
1301 A general_aviation 
1300  44.11665532 -123.21554893 -137.9 gate turboprops|props AA22
1301 A general_aviation 
1300  44.11703607 -123.21550898 -137.9 gate turboprops|props AA17
1301 A general_aviation 
1300  44.11729441 -123.21526908 -137.9 gate turboprops|props AA12
1301 A general_aviation 
1300  44.11755451 -123.21497280 -137.9 gate turboprops|props AA7
1301 A general_aviation 
1300  44.11781340 -123.21471207 -137.9 gate turboprops|props AA2
1301 A general_aviation 
1300  44.11514286 -123.21472476 -180.1 gate turboprops|props AA36
1301 A general_aviation 
1300  44.11565047 -123.21541996 -137.9 gate turboprops|props AA31
1301 A general_aviation 
1300  44.11608453 -123.21535901 -137.9 gate turboprops|props AA26
1301 A general_aviation 
1300  44.11656147 -123.21540167 -137.9 gate turboprops|props AA21
1301 A general_aviation 
1300  44.11694222 -123.21536172 -137.9 gate turboprops|props AA16
1301 A general_aviation 
1300  44.11720056 -123.21512182 -137.9 gate turboprops|props AA11
1301 A general_aviation 
1300  44.11746067 -123.21482554 -137.9 gate turboprops|props AA6
1301 A general_aviation 
1300  44.11771956 -123.21456481 -137.9 gate turboprops|props AA1
1301 A general_aviation 
1300  44.12203174 -123.20562391 90.3 gate turboprops|props 23
1301 A general_aviation 
1300  44.12259747 -123.20561889 90.3 gate turboprops|props 19
1301 A general_aviation 
1300  44.12316367 -123.20562312 90.3 gate turboprops|props 15
1301 A general_aviation 
1300  44.12340602 -123.21124375 120.7 gate turboprops|props 2
1301 A general_aviation 
1300  44.12245522 -123.20562157 90.3 gate turboprops|props 20
1301 A general_aviation 
1300  44.12302141 -123.20562580 90.3 gate turboprops|props 16
1301 A general_aviation 
1300  44.12328431 -123.21134638 120.7 gate turboprops|props 1
1301 A general_aviation 
1300  44.12149622 -123.21265533 171.5 gate heavy|jets|turboprops|props C2
1301 C cargo 
1300  44.12133489 -123.21280235 74.8 gate heavy|jets|turboprops|props C1
1301 C cargo 
1300  44.11954366 -123.21446363 77.2 gate heavy|jets|turboprops|props A2
1301 C airline 
1300  44.11978780 -123.21455282 109.9 gate heavy|jets|turboprops|props A3
1301 C airline 
1300  44.12003996 -123.21443151 159.8 gate heavy|jets|turboprops|props A4
1301 C airline 
1300  44.12013858 -123.21408245 208.6 gate heavy|jets|turboprops|props A5
1301 D airline 
1300  44.12007495 -123.21364080 -119.0 gate heavy|jets|turboprops|props A6
1301 C airline 
1300  44.11860622 -123.21350381 94.9 gate jets|turboprops|props B3
1301 B airline 
1300  44.11894031 -123.21337433 87.8 gate jets|turboprops|props B2
1301 B airline 
1300  44.11928394 -123.21330097 87.6 gate jets|turboprops|props B1
1301 B airline 
1300  44.11929525 -123.21419229 50.7 gate heavy|jets|turboprops|props A1
1301 D airline 
1300  44.11980813 -123.21296073 -149.1 gate heavy|jets|turboprops|props A6B
1301 B airline 
1200 
1201  44.12548487 -123.20629741 both 0 _stop
1201  44.12638739 -123.20629203 both 1 _split
1201  44.12354628 -123.20627198 both 2 _stop
1201  44.12190013 -123.20623511 both 3 _stop
1201  44.12170985 -123.20604460 both 4 _stop
1201  44.12171114 -123.20411711 both 5 _start
1201  44.12241528 -123.21226806 both 6 _start
1201  44.12243311 -123.21230549 both 7 _split
1201  44.12283331 -123.21190550 both 8 _start
1201  44.12302617 -123.21232087 both 9 _split
1201  44.12362770 -123.21131209 both 10 _start
1201  44.12364307 -123.21134547 both 11 _split
1201  44.12286129 -123.21196576 both 12 _split
1201  44.12379990 -123.21168602 both 13 _split
1201  44.12192923 -123.21279005 both 14 _stop
1201  44.12203511 -123.21311420 both 15 _split
1201  44.12202671 -123.21262794 both 16 _stop
1201  44.12441203 -123.21073535 both 17 _stop
1201  44.12455877 -123.21106324 both 18 _start
1201  44.11149877 -123.21462233 both 19 _start
1201  44.11093821 -123.21457264 both 20 _start
1201  44.11093262 -123.21545720 both 21 _split
1201  44.11042547 -123.21457264 both 22 _start
1201  44.11041709 -123.21545209 both 23 _split
1201  44.11182636 -123.21546642 both 24 _split
1201  44.11149338 -123.21546303 both 25 _split
1201  44.11822391 -123.21556770 both 26 _stop
1201  44.11759658 -123.21458210 both 27 _start
1201  44.11793849 -123.21579547 both 28 _stop
1201  44.11731711 -123.21484299 both 29 _start
1201  44.11765699 -123.21604332 both 30 _stop
1201  44.11706485 -123.21512190 both 31 _start
1201  44.11738074 -123.21628067 both 32 _stop
1201  44.11669734 -123.21519361 both 33 _start
1201  44.11705246 -123.21637558 both 34 _stop
1201  44.11192392 -123.21514821 both 35 _stop
1201  44.11182581 -123.21530556 both 36 _stop
1201  44.11626260 -123.21519606 both 37 _start
1201  44.11701716 -123.21632335 both 38 _split
1201  44.11651546 -123.21636084 both 39 _stop
1201  44.11575154 -123.21519326 both 40 _start
1201  44.11648035 -123.21630717 both 41 _split
1201  44.11551486 -123.21456837 both 42 _start
1201  44.11550498 -123.21627778 both 43 _split
1201  44.11722643 -123.21632965 both 44 _stop
1201  44.11837859 -123.21539046 both 45 _stop
1201  44.11820247 -123.21553402 both 46 _split
1201  44.11791879 -123.21576527 both 47 _split
1201  44.11762973 -123.21600090 both 48 _split
1201  44.11734881 -123.21622989 both 49 _split
1201  44.11845773 -123.21517237 both 50 _stop
1201  44.11840299 -123.21532321 both 51 _split
1201  44.11787618 -123.21424250 both 52 _start
1201  44.12055205 -123.21378732 both 53 _start
1201  44.12085705 -123.21358063 both 54 _split
1201  44.12092986 -123.21404011 both 55 _split
1201  44.12041826 -123.21462596 both 56 _start
1201  44.11995805 -123.21520717 both 57 _start
1201  44.11944325 -123.21512098 both 58 _start
1201  44.11932250 -123.21610662 both 59 _split
1201  44.11923809 -123.21376302 both 60 _stop
1201  44.11884167 -123.21407650 both 61 _stop
1201  44.11864140 -123.21392982 both 62 _stop
1201  44.11874598 -123.21561542 both 63 _split
1201  44.11869595 -123.21480904 both 64 _split
1201  44.11898109 -123.21472111 both 65 _start
1201  44.11885841 -123.21571121 both 66 _split
1201  44.11838081 -123.21530431 both 67 _stop
1201  44.11953104 -123.21628141 both 68 _stop
1201  44.12090039 -123.21573009 both 69 _stop
1201  44.12094320 -123.21497270 both 70 _stop
1201  44.12093919 -123.21504364 both 71 _split
1201  44.12008684 -123.21574151 both 72 _split
1201  44.11947853 -123.21623956 both 73 _split
1201  44.12080502 -123.21325228 both 74 _stop
1201  44.12008694 -123.21261704 both 75 _start
1201  44.12205048 -123.21502310 both 76 _stop
1201  44.12150156 -123.21458320 both 77 _split
1201  44.12094528 -123.21413741 both 78 _split
1201  44.12094340 -123.21489226 both 79 _split
1201  44.12391577 -123.21661156 both 80 _stop
1201  44.12551395 -123.21214225 both 81 _stop
1201  44.12595199 -123.21147064 both 82 _split
1201  44.12420063 -123.21409435 both 83 _stop
1201  44.12261639 -123.21643022 both 84 _stop
1201  44.12301414 -123.21584375 both 85 _split
1201  44.12219946 -123.21707270 both 86 _split
1201  44.12088069 -123.21705252 both 87 _split
1201  44.12640225 -123.20419148 both 88 _split
1201  44.13257019 -123.20427734 both 89 _stop
1201  44.12768871 -123.20421190 both 90 _stop
1201  44.12105262 -123.20410655 both 91 _stop
1201  44.11702240 -123.20404484 both 92 _stop
1201  44.11675558 -123.20399433 both 93 _split
1201  44.10993472 -123.21439170 both 94 _stop
1201  44.10990982 -123.21646008 both 95 _stop
1201  44.10992201 -123.21544706 both 96 _split
1201  44.10994006 -123.21667806 both 97 _stop
1201  44.11006456 -123.21684650 both 98 _stop
1201  44.11024419 -123.21690100 both 99 _stop
1201  44.11211305 -123.21690987 both 100 _stop
1201  44.11183132 -123.21690853 both 101 _split
1201  44.11295086 -123.21695087 both 102 _stop
1201  44.11832330 -123.21701341 both 103 _stop
1201  44.11550091 -123.21698055 both 104 _split
1201  44.12360842 -123.21709425 both 105 _stop
1201  44.13032404 -123.21722701 both 106 _stop
1201  44.11660507 -123.20347962 both 107 _stop
1201  44.11662478 -123.20252205 both 108 _split
1201  44.12172489 -123.20259683 both 109 _split
1201  44.12596539 -123.20418455 both 110 _split
1201  44.12596151 -123.20629457 both 111 _split
1201  44.12595441 -123.21015409 both 112 _split
1201  44.13286089 -123.20393100 both 113 _stop
1201  44.13276030 -123.20413797 both 114 _split
1201  44.13296051 -123.20276157 both 115 _stop
1201  44.11652300 -123.20252056 both 116 _start
1201  44.12857992 -123.20269734 both 117 16L/34R_split
1201  44.12858248 -123.20422388 both 118 _split
1201  44.13284506 -123.20275987 both 119 16L/34R_split
1201  44.13542450 -123.21917789 both 120 _stop
1201  44.11347702 -123.21884697 both 121 _start
1201  44.11360286 -123.21884887 both 122 16R/34L_split
1201  44.11361549 -123.21695861 both 123 _split
1201  44.12019306 -123.21894823 both 124 16R/34L_split
1201  44.12020179 -123.21704214 both 125 _split
1201  44.11950159 -123.21703143 both 126 _split
1201  44.12486084 -123.21901861 both 127 16R/34L_split
1201  44.12487507 -123.21711929 both 128 _split
1201  44.12449801 -123.21711183 both 129 _split
1201  44.12828174 -123.21907019 both 130 16R/34L_split
1201  44.12830034 -123.21718700 both 131 _split
1201  44.12631064 -123.21714767 both 132 _split
1201  44.12635515 -123.21085251 both 133 _split
1201  44.13460929 -123.21916560 both 134 16R/34L_split
1201  44.13465180 -123.21728355 both 135 _split
1201  44.13532584 -123.21917640 both 136 16R/34L_split
1201  44.13536078 -123.21729281 both 137 _split
1201  44.12130837 -123.21369176 both 138 _stop
1201  44.12196124 -123.21317281 both 139 _stop
1201  44.12277266 -123.21252888 both 140 _stop
1201  44.12260347 -123.21266314 both 141 _split
1201  44.12568085 -123.21015414 both 142 _stop
1201  44.12636009 -123.21015401 both 143 _split
1202 0 111 twoway taxiway_A 
1202 111 1 twoway taxiway_A 
1202 2 0 twoway taxiway_A 
1202 3 2 twoway taxiway_A 
1202 4 3 twoway taxiway_A 
1202 5 4 twoway taxiway_A 
1202 6 7 twoway taxiway_A 
1202 7 141 twoway taxiway_A 
1202 8 12 twoway taxiway_A 
1202 12 9 twoway taxiway_A 
1202 10 11 twoway taxiway_A 
1202 11 13 twoway taxiway_A 
1202 14 15 twoway taxiway_C 
1202 16 14 twoway taxiway_A 
1202 17 11 twoway taxiway_A 
1202 11 12 twoway taxiway_A 
1202 12 7 twoway taxiway_A 
1202 7 16 twoway taxiway_A 
1202 18 17 twoway taxiway_A 
1202 19 25 twoway taxiway_B 
1202 20 21 twoway taxiway_B 
1202 22 23 twoway taxiway_B 
1202 24 25 twoway taxiway_B 
1202 25 21 twoway taxiway_B 
1202 21 23 twoway taxiway_B 
1202 23 96 twoway taxiway_B 
1202 27 46 twoway taxiway_A 
1202 46 26 twoway taxiway_A 
1202 29 47 twoway taxiway_A 
1202 47 28 twoway taxiway_A 
1202 31 48 twoway taxiway_A 
1202 48 30 twoway taxiway_A 
1202 33 49 twoway taxiway_A 
1202 49 32 twoway taxiway_A 
1202 37 38 twoway taxiway_A 
1202 38 34 twoway taxiway_A 
1202 36 35 twoway taxiway_B 
1202 101 24 twoway taxiway_B 
1202 24 36 twoway taxiway_B 
1202 40 41 twoway taxiway_A 
1202 41 39 twoway taxiway_A 
1202 42 43 twoway taxiway_B 
1202 43 104 twoway taxiway_B 
1202 44 38 twoway taxiway_B 
1202 38 41 twoway taxiway_B 
1202 41 43 twoway taxiway_B 
1202 45 46 twoway taxiway_B 
1202 46 47 twoway taxiway_B 
1202 47 48 twoway taxiway_B 
1202 48 49 twoway taxiway_B 
1202 49 44 twoway taxiway_B 
1202 50 51 twoway taxiway_B 
1202 51 45 twoway taxiway_B 
1202 52 50 twoway taxiway_B 
1202 53 54 twoway taxiway_C 
1202 56 79 twoway taxiway_C 
1202 57 72 twoway taxiway_C 
1202 58 59 twoway taxiway_C 
1202 61 60 twoway taxiway_B 
1202 64 61 twoway taxiway_B 
1202 63 64 twoway taxiway_B 
1202 64 62 twoway taxiway_B 
1202 68 73 twoway taxiway_D 
1202 73 59 twoway taxiway_D 
1202 59 66 twoway taxiway_D 
1202 66 63 twoway taxiway_D 
1202 65 66 twoway taxiway_D 
1202 63 51 twoway taxiway_B 
1202 51 67 twoway taxiway_B 
1202 126 68 twoway taxiway_D 
1202 69 87 twoway taxiway_D 
1202 70 71 twoway taxiway_D 
1202 71 69 twoway taxiway_D 
1202 74 54 twoway taxiway_C 
1202 54 55 twoway taxiway_D 
1202 55 78 twoway taxiway_D 
1202 78 79 twoway taxiway_D 
1202 79 70 twoway taxiway_D 
1202 77 71 twoway taxiway_D 
1202 71 72 twoway taxiway_D 
1202 72 73 twoway taxiway_D 
1202 75 74 twoway taxiway_C 
1202 76 77 twoway taxiway_D 
1202 77 78 twoway taxiway_D 
1202 80 85 twoway taxiway_D 
1202 85 76 twoway taxiway_D 
1202 129 80 twoway taxiway_D 
1202 81 82 twoway taxiway_D 
1202 82 133 twoway taxiway_D 
1202 83 81 twoway taxiway_D 
1202 84 85 twoway taxiway_D 
1202 85 83 twoway taxiway_D 
1202 86 84 twoway taxiway_D 
1202 132 133 twoway taxiway_D 
1202 133 143 twoway taxiway_D 
1202 143 1 twoway taxiway_D 
1202 1 88 twoway taxiway_D 
1202 89 114 twoway taxiway_D 
1202 90 118 twoway taxiway_D 
1202 118 89 twoway taxiway_D 
1202 91 5 twoway taxiway_D 
1202 5 110 twoway taxiway_D 
1202 110 88 twoway taxiway_D 
1202 88 90 twoway taxiway_D 
1202 92 91 twoway taxiway_D 
1202 93 92 twoway taxiway_D 
1202 110 111 twoway taxiway_C 
1202 111 112 twoway taxiway_C 
1202 112 82 twoway taxiway_C 
1202 95 96 twoway taxiway_B 
1202 96 94 twoway taxiway_B 
1202 97 95 twoway taxiway_B 
1202 98 97 twoway taxiway_B 
1202 99 98 twoway taxiway_B 
1202 100 101 twoway taxiway_B 
1202 101 99 twoway taxiway_B 
1202 102 100 twoway taxiway_B 
1202 103 104 twoway taxiway_D 
1202 104 123 twoway taxiway_D 
1202 123 102 twoway taxiway_B 
1202 105 86 twoway taxiway_D 
1202 86 87 twoway taxiway_D 
1202 87 125 twoway taxiway_D 
1202 125 126 twoway taxiway_D 
1202 126 103 twoway taxiway_D 
1202 106 131 twoway taxiway_D 
1202 131 132 twoway taxiway_D 
1202 132 128 twoway taxiway_D 
1202 128 129 twoway taxiway_D 
1202 129 105 twoway taxiway_D 
1202 137 135 twoway taxiway_D 
1202 135 106 twoway taxiway_D 
1202 107 93 twoway taxiway_D 
1204 departure 16L,34R
1204 arrival 16L,34R
1202 108 107 twoway taxiway_D 
1204 departure 16L,34R
1204 arrival 16L,34R
1202 109 5 twoway taxiway_D 
1204 departure 16L,34R
1204 arrival 16L,34R
1202 117 118 twoway taxiway_D 
1204 departure 16L,34R
1204 arrival 16L,34R
1202 113 114 twoway taxiway_D 
1204 departure 16L,34R
1204 arrival 16L,34R
1202 119 113 twoway taxiway_D 
1204 departure 16L,34R
1204 arrival 16L,34R
1202 116 108 twoway runway 16L/34R
1204 departure 16L,34R
1204 arrival 16L,34R
1204 ils 16L,34R
1202 108 109 twoway runway 16L/34R
1204 departure 16L,34R
1204 arrival 16L,34R
1204 ils 16L,34R
1202 109 117 twoway runway 16L/34R
1204 departure 16L,34R
1204 arrival 16L,34R
1204 ils 16L,34R
1202 117 119 twoway runway 16L/34R
1204 departure 16L,34R
1204 arrival 16L,34R
1204 ils 16L,34R
1202 119 115 twoway runway 16L/34R
1204 departure 16L,34R
1204 arrival 16L,34R
1204 ils 16L,34R
1202 122 123 twoway taxiway_D 
1204 departure 16R,34L
1204 arrival 16R,34L
1202 124 125 twoway taxiway_D 
1204 departure 16R,34L
1204 arrival 16R,34L
1202 127 128 twoway taxiway_D 
1204 departure 16R,34L
1204 arrival 16R,34L
1202 130 131 twoway taxiway_D 
1204 departure 16R,34L
1204 arrival 16R,34L
1202 134 135 twoway taxiway_D 
1204 departure 16R,34L
1204 arrival 16R,34L
1202 136 137 twoway taxiway_D 
1204 departure 16R,34L
1204 arrival 16R,34L
1202 121 122 twoway runway 16R/34L
1204 departure 16R,34L
1204 arrival 16R,34L
1204 ils 16R,34L
1202 122 124 twoway runway 16R/34L
1204 departure 16R,34L
1204 arrival 16R,34L
1204 ils 16R,34L
1202 124 127 twoway runway 16R/34L
1204 departure 16R,34L
1204 arrival 16R,34L
1204 ils 16R,34L
1202 127 130 twoway runway 16R/34L
1204 departure 16R,34L
1204 arrival 16R,34L
1204 ils 16R,34L
1202 130 134 twoway runway 16R/34L
1204 departure 16R,34L
1204 arrival 16R,34L
1204 ils 16R,34L
1202 134 136 twoway runway 16R/34L
1204 departure 16R,34L
1204 arrival 16R,34L
1204 ils 16R,34L
1202 136 120 twoway runway 16R/34L
1204 departure 16R,34L
1204 arrival 16R,34L
1204 ils 16R,34L
1202 138 55 twoway taxiway_C 
1202 139 138 twoway taxiway_C 
1202 140 141 twoway taxiway_C 
1202 141 15 twoway taxiway_C 
1202 15 139 twoway taxiway_C 
1202 18 13 twoway taxiway_C 
1202 13 9 twoway taxiway_C 
1202 9 140 twoway taxiway_C 
1202 142 18 twoway taxiway_C 
1202 143 112 twoway taxiway_C 
1202 112 142 twoway taxiway_C 
99
