I
1200 Generated by WorldEditor 2.5.1r1

1   1781 0 0 SBSR Sao jose do rio preto
1302 city São José Do Rio Preto
1302 country 
1302 datum_lat -20.816111111
1302 datum_lon -49.404722222
1302 faa_code 
1302 gui_label 3D
1302 iata_code SJP
1302 icao_code SBSR
1302 local_code 
1302 region_code SB
1302 state São Paulo
1302 transition_alt 5000
1302 transition_level 
100 35.00 1 0 0.25 1 3 1  07 -20.82157881 -049.41293368 0 61 2 9 0 0 25 -20.81232575 -049.40061143 0 0 2 9 0 0
110 1 0.00 0.0 New Taxiway 6
111 -20.82151370 -049.41310748
111 -20.82179966 -049.41349681
111 -20.82204262 -049.41329658
111 -20.82169736 -049.41283309
113 -20.82145790 -049.41303703
110 2 0.00 0.0 PATIO
111 -20.81303261 -049.40505610
111 -20.81380753 -049.40439015
111 -20.81245566 -049.40259029
113 -20.81167802 -049.40324753
110 2 0.00 0.0 pat 9
111 -20.81470429 -049.40788732
111 -20.81481859 -049.40778649
111 -20.81450659 -049.40736812
111 -20.81448618 -049.40738982
111 -20.81436506 -049.40722922
113 -20.81426851 -049.40731035
110 2 0.00 0.0 pat 9
111 -20.81496909 -049.40787390
111 -20.81484466 -049.40780523
111 -20.81483455 -049.40780872
111 -20.81471817 -049.40791291
111 -20.81487316 -049.40811387
113 -20.81510928 -049.40790571
110 2 0.00 0.0 pat 9
111 -20.81510761 -049.40816027
111 -20.81506130 -049.40810501
111 -20.81514700 -049.40803209
111 -20.81499824 -049.40802963
111 -20.81487973 -049.40813694
111 -20.81505173 -049.40837428
111 -20.81518102 -049.40826697
113 -20.81517565 -049.40809898
110 2 0.00 0.0 pat 8
111 -20.81536652 -049.40876510
111 -20.81554457 -049.40860594
111 -20.81544032 -049.40847888
111 -20.81542890 -049.40848898
111 -20.81538013 -049.40842146
111 -20.81539403 -049.40840936
111 -20.81534139 -049.40833718
113 -20.81516579 -049.40850706
110 2 0.00 0.0 pat 7
111 -20.81552913 -049.40873010
111 -20.81561870 -049.40869926
111 -20.81555842 -049.40862058
111 -20.81538075 -049.40877531
111 -20.81558488 -049.40906880
113 -20.81570491 -049.40896422
110 2 0.00 0.0 pat 6
111 -20.81583367 -049.40940091
111 -20.81594991 -049.40930260
111 -20.81594046 -049.40919509
111 -20.81589466 -049.40913785
111 -20.81580831 -049.40910886
113 -20.81569188 -049.40920134
110 2 0.00 0.0 pat 5
111 -20.81615782 -049.40964469
111 -20.81614799 -049.40949637
111 -20.81608630 -049.40954836
111 -20.81603753 -049.40948084
111 -20.81609999 -049.40943006
111 -20.81597219 -049.40939172
111 -20.81588617 -049.40946882
113 -20.81606370 -049.40971824
110 2 0.00 0.0 pat 4
111 -20.81636036 -049.40978238
111 -20.81631704 -049.40972712
111 -20.81635267 -049.40969561
111 -20.81623190 -049.40965820
111 -20.81613564 -049.40974426
111 -20.81632050 -049.40998964
111 -20.81640910 -049.40991579
113 -20.81639688 -049.40975248
110 2 0.00 0.0 pat 3
111 -20.81650422 -049.41005911
111 -20.81651101 -049.41005346
111 -20.81645333 -049.40997624
111 -20.81633756 -049.41008425
111 -20.81648955 -049.41030280
111 -20.81661714 -049.41020399
111 -20.81656300 -049.41012479
113 -20.81655591 -049.41013083
110 2 0.00 0.0 pat 2
111 -20.81710473 -049.41046436
111 -20.81710670 -049.41048739
111 -20.81707585 -049.41047901
111 -20.81704173 -049.41042249
111 -20.81704238 -049.41039598
111 -20.81705879 -049.41040226
111 -20.81724321 -049.41024386
111 -20.81711588 -049.41007389
111 -20.81680133 -049.41035507
111 -20.81710230 -049.41073276
111 -20.81742362 -049.41047821
113 -20.81729057 -049.41030827
110 2 0.00 0.0 patio de equipamento
111 -20.81182186 -049.40330448
111 -20.81220680 -049.40297999
111 -20.81212392 -049.40287064
111 -20.81174179 -049.40319376
113 -20.81175698 -049.40322129
110 1 0.00 0.0 pista principal 2
111 -20.81400048 -049.40445026 1 102
111 -20.81458694 -049.40523082 1 102
111 -20.81471463 -049.40540278 1 102
111 -20.81473668 -049.40545051 1 102
111 -20.81474376 -049.40549908 1 102
111 -20.81473589 -049.40555099 1 102
111 -20.81472408 -049.40559118 1 102
111 -20.81469730 -049.40562635 1 102
111 -20.81466153 -049.40565882 1 102
111 -20.81435471 -049.40592193 1 102
111 -20.81453297 -049.40616775 1 102
111 -20.81468470 -049.40637073 1 102
111 -20.81468391 -049.40643269 1 102
111 -20.81464768 -049.40653820 1 102
111 -20.81453979 -049.40674585 1 102
111 -20.81448230 -049.40679609 1 102
111 -20.81509118 -049.40761439 1 102
111 -20.81524081 -049.40747958 1 102
111 -20.81528728 -049.40746870 1 102
111 -20.81532823 -049.40747623 1 102
111 -20.81536143 -049.40749153 1 102
112 -20.81545329 -049.40759643 -20.81553835 -049.40768806 1 102
111 -20.81548618 -049.40770977 1 102
111 -20.81554423 -049.40778373 1 102
111 -20.81583325 -049.40816390 1 102
111 -20.81609944 -049.40852505 1 102
111 -20.81636721 -049.40887673 1 102
111 -20.81659094 -049.40917190 1 102
111 -20.81679834 -049.40945665 1 102
111 -20.81703351 -049.40977266 1 102
111 -20.81740095 -049.41025709 1 102
111 -20.81841122 -049.41154529 1 102
111 -20.81899525 -049.41222331 1 102
111 -20.81907857 -049.41231606 1 102
111 -20.81934399 -049.41261513 1 102
111 -20.81960995 -049.41291627 1 102
111 -20.81975738 -049.41305393 1 102
111 -20.81993600 -049.41314336 1 102
111 -20.82017793 -049.41341265 1 102
111 -20.82027567 -049.41331896 1 102
111 -20.82024154 -049.41327569 1 102
111 -20.82023235 -049.41325406 1 102
111 -20.82023891 -049.41322754 1 102
111 -20.82025424 -049.41320904 1 102
111 -20.82026829 -049.41319028 1 102
111 -20.82031838 -049.41318023 1 102
111 -20.82064726 -049.41312597 1 102
111 -20.82096480 -049.41307071 1 102
111 -20.82114720 -049.41304057 1 102
111 -20.82125116 -049.41303554 1 102
111 -20.82135322 -049.41304760 1 102
111 -20.82142513 -049.41306838 1 102
111 -20.82150826 -049.41310849 1 102
111 -20.82098475 -049.41241234 1 102
111 -20.82102811 -049.41252824 1 102
111 -20.82103248 -049.41257941 1 102
111 -20.82103248 -049.41262942 1 102
111 -20.82102428 -049.41268640 1 102
111 -20.82101006 -049.41272944 1 102
111 -20.82097943 -049.41277479 1 102
111 -20.82092788 -049.41280427 1 102
111 -20.82061449 -049.41285338 1 102
111 -20.82041394 -049.41288580 1 102
111 -20.82028258 -049.41290589 1 102
111 -20.82015499 -049.41289685 1 102
111 -20.82002647 -049.41285264 1 102
111 -20.81992629 -049.41278130 1 102
111 -20.81982989 -049.41269689 1 102
111 -20.81954280 -049.41242218 1 102
111 -20.81784179 -049.41039069 1 102
111 -20.81720869 -049.40954447 1 102
111 -20.81675802 -049.40894254 1 102
111 -20.81626379 -049.40828960 1 102
111 -20.81573445 -049.40757274 1 102
111 -20.81535304 -049.40708449 1 102
111 -20.81527744 -049.40697496 1 102
111 -20.81523680 -049.40689860 1 102
111 -20.81522829 -049.40684233 1 102
111 -20.81523680 -049.40674688 1 102
111 -20.81527649 -049.40666247 1 102
111 -20.81530557 -049.40662267 1 102
111 -20.81590996 -049.40612070 1 102
111 -20.81598719 -049.40605652 1 102
111 -20.81603701 -049.40601548 1 102
111 -20.81609671 -049.40600918 1 102
111 -20.81615095 -049.40601742 1 102
111 -20.81621039 -049.40605042 1 102
111 -20.81591632 -049.40566313 1 102
111 -20.81592463 -049.40574802 1 102
111 -20.81589592 -049.40581440 1 102
111 -20.81584898 -049.40585850 1 102
111 -20.81576779 -049.40593176 1 102
111 -20.81571291 -049.40597063 1 102
111 -20.81562670 -049.40599837 1 102
111 -20.81554164 -049.40599957 1 102
111 -20.81546225 -049.40598148 1 102
111 -20.81538514 -049.40593325 1 102
113 -20.81416625 -049.40430663 1 102
110 1 0.00 0.0 pista pat 9
111 -20.81548618 -049.40770977
111 -20.81541312 -049.40778435
111 -20.81536429 -049.40781450
111 -20.81530365 -049.40783459
111 -20.81525246 -049.40783794
111 -20.81517022 -049.40783180
111 -20.81511070 -049.40782790
111 -20.81503982 -049.40781199
111 -20.81496879 -049.40778776
111 -20.81489132 -049.40773769
111 -20.81482675 -049.40767066
111 -20.81423986 -049.40685737
111 -20.81417181 -049.40691524
111 -20.81439092 -049.40720896
111 -20.81436506 -049.40722922
111 -20.81448618 -049.40738982
111 -20.81450659 -049.40736812
111 -20.81483455 -049.40780872
111 -20.81484466 -049.40780523
111 -20.81496909 -049.40787390
111 -20.81510928 -049.40790571
111 -20.81519267 -049.40791503
111 -20.81521190 -049.40791748
111 -20.81522065 -049.40792570
111 -20.81522876 -049.40793444
111 -20.81523013 -049.40795043
111 -20.81522101 -049.40796836
111 -20.81506130 -049.40810501
111 -20.81510761 -049.40816027
111 -20.81517565 -049.40809898
111 -20.81546718 -049.40784750
113 -20.81554423 -049.40778373
110 1 0.00 0.0 pista pat 8
111 -20.81577050 -049.40807865
111 -20.81569087 -049.40815016
111 -20.81538013 -049.40842146
111 -20.81542890 -049.40848898
111 -20.81573850 -049.40820804
113 -20.81582129 -049.40814534
110 1 0.00 0.0 pista pat 7
111 -20.81603568 -049.40843569
111 -20.81580887 -049.40864067
111 -20.81552913 -049.40873010
111 -20.81570491 -049.40896422
111 -20.81584194 -049.40869996
113 -20.81607727 -049.40849397
110 1 0.00 0.0 pista pat 6
111 -20.81630464 -049.40879662
111 -20.81622525 -049.40885992
111 -20.81589466 -049.40913785
111 -20.81594079 -049.40919653
111 -20.81626967 -049.40892121
113 -20.81635262 -049.40885483
110 1 0.00 0.0 pista pat 5
111 -20.81652093 -049.40907932
111 -20.81644429 -049.40915168
111 -20.81603753 -049.40948084
111 -20.81608630 -049.40954836
111 -20.81648890 -049.40921196
113 -20.81657236 -049.40914687
110 1 0.00 0.0 pista pat 4
111 -20.81673437 -049.40936852
111 -20.81665884 -049.40943489
111 -20.81631704 -049.40972712
111 -20.81636036 -049.40978238
111 -20.81670120 -049.40949784
113 -20.81678017 -049.40943157
110 1 0.00 0.0 pista pat 3
111 -20.81696746 -049.40968388
111 -20.81688597 -049.40975144
111 -20.81650422 -049.41005911
111 -20.81655591 -049.41013083
111 -20.81693520 -049.40981118
113 -20.81701508 -049.40974764
110 1 0.00 0.0 pista pat 2
111 -20.81732322 -049.41015455
111 -20.81727734 -049.41019292
111 -20.81722221 -049.41011407
111 -20.81720121 -049.41011617
111 -20.81719267 -049.41009593
111 -20.81720186 -049.41008337
111 -20.81717430 -049.41005476
111 -20.81714476 -049.41005755
111 -20.81714673 -049.41009733
111 -20.81717233 -049.41012035
111 -20.81716905 -049.41013570
111 -20.81723730 -049.41021874
111 -20.81724321 -049.41024386
111 -20.81705879 -049.41040226
111 -20.81704238 -049.41039598
111 -20.81704173 -049.41042249
111 -20.81707585 -049.41047901
111 -20.81710670 -049.41048739
111 -20.81710473 -049.41046436
111 -20.81730228 -049.41029829
113 -20.81738165 -049.41023134
110 1 0.00 0.0 pista principal
111 -20.81245566 -049.40259029 102
111 -20.81381249 -049.40439821 102
111 -20.81385185 -049.40445026 102
111 -20.81387768 -049.40442833 102
111 -20.81390795 -049.40440879 102
111 -20.81393879 -049.40440528 102
111 -20.81395823 -049.40441511 102
111 -20.81397985 -049.40442891 102
111 -20.81400048 -049.40445026 102
111 -20.81416625 -049.40430663 102
111 -20.81365454 -049.40362699 102
111 -20.81357891 -049.40353454 102
111 -20.81353921 -049.40346418 102
111 -20.81353298 -049.40340045 102
111 -20.81354855 -049.40334252 102
111 -20.81358747 -049.40329948 102
111 -20.81364820 -049.40327630 102
111 -20.81382024 -049.40323740 102
111 -20.81393518 -049.40324285 102
111 -20.81400823 -049.40326285 102
111 -20.81409504 -049.40329855 102
111 -20.81417439 -049.40334140 102
111 -20.81379956 -049.40284410 102
111 -20.81380657 -049.40290770 102
111 -20.81379567 -049.40295652 102
111 -20.81376079 -049.40299553 102
111 -20.81368841 -049.40303376 102
111 -20.81362406 -049.40305201 102
111 -20.81355244 -049.40306194 102
111 -20.81343567 -049.40307518 102
111 -20.81331570 -049.40303816 102
111 -20.81324105 -049.40301559 102
111 -20.81312489 -049.40292871 102
111 -20.81287468 -049.40258889 102
111 -20.81252249 -049.40211911 102
111 -20.81229084 -049.40176743 102
111 -20.81210212 -049.40147950 102
111 -20.81207689 -049.40136230 102
111 -20.81207316 -049.40125901 102
111 -20.81210711 -049.40119196 102
111 -20.81214322 -049.40112096 102
111 -20.81223793 -049.40104553 102
111 -20.81230173 -049.40102130 102
111 -20.81237457 -049.40104504 102
111 -20.81247628 -049.40108060 102
111 -20.81220310 -049.40071659 102
111 -20.81198441 -049.40089650 102
111 -20.81185736 -049.40107428 102
111 -20.81181065 -049.40125305 102
111 -20.81180659 -049.40139583 102
111 -20.81184157 -049.40154886 102
111 -20.81191277 -049.40167037 102
111 -20.81224038 -049.40210558 102
112 -20.81244019 -049.40237802 -20.81249533 -049.40246079 102
111 -20.81243762 -049.40251283 102
111 -20.81163787 -049.40318814 102
113 -20.81167802 -049.40324753 102
110 1 0.00 0.0 taxi menor
111 -20.81319377 -049.40499674
111 -20.81338434 -049.40483278
112 -20.81351961 -049.40490612 -20.81361149 -049.40502649
111 -20.81361191 -049.40502508
111 -20.81363816 -049.40506229
111 -20.81387279 -049.40537861
111 -20.81430407 -049.40596928
111 -20.81435471 -049.40592193
111 -20.81440706 -049.40587693
111 -20.81439989 -049.40587159
111 -20.81437889 -049.40587717
111 -20.81434213 -049.40587089
111 -20.81430472 -049.40585275
111 -20.81424025 -049.40576570
111 -20.81392276 -049.40533710
111 -20.81352373 -049.40480471
112 -20.81353555 -049.40470702 -20.81358280 -049.40466794
111 -20.81362283 -049.40463027
111 -20.81369634 -049.40456886
111 -20.81385185 -049.40445026
111 -20.81380704 -049.40439059
113 -20.81315747 -049.40494864
110 1 0.00 0.0 casinha
111 -20.81430407 -049.40596928
111 -20.81426361 -049.40600202
111 -20.81457962 -049.40643772
111 -20.81435947 -049.40661421
111 -20.81443899 -049.40674398
111 -20.81448230 -049.40679609
111 -20.81453979 -049.40674585
111 -20.81464768 -049.40653820
111 -20.81468391 -049.40643269
111 -20.81468470 -049.40637073
113 -20.81435471 -049.40592193
110 1 0.00 0.0 toquinho 
111 -20.82017793 -049.41341265
111 -20.82033264 -049.41357912
111 -20.82033402 -049.41369025
111 -20.82052209 -049.41391131
111 -20.82072622 -049.41371436
111 -20.82053437 -049.41350033
111 -20.82040862 -049.41347270
113 -20.82027567 -049.41331896
110 2 0.00 0.0 corpo bombeiro
111 -20.81363816 -049.40506229
111 -20.81351199 -049.40519308
111 -20.81353795 -049.40523084
111 -20.81356300 -049.40526727
111 -20.81360505 -049.40532845
111 -20.81364383 -049.40529904
111 -20.81368759 -049.40535569
111 -20.81364882 -049.40538945
111 -20.81368737 -049.40544492
111 -20.81377470 -049.40536896
113 -20.81387279 -049.40537861
110 1 0.00 0.0 patio termn inal 3
111 -20.81251309 -049.40436225
111 -20.81250621 -049.40439253
111 -20.81249753 -049.40441179
111 -20.81248395 -049.40443225
111 -20.81246735 -049.40444628
111 -20.81244622 -049.40446072
111 -20.81242471 -049.40446875
111 -20.81240434 -049.40446955
111 -20.81238396 -049.40446072
111 -20.81237359 -049.40445321
111 -20.81222907 -049.40426375
111 -20.81221114 -049.40424122
111 -20.81209108 -049.40408126
111 -20.81207300 -049.40405814
111 -20.81201274 -049.40397625
111 -20.81199571 -049.40395229
111 -20.81198599 -049.40387867
111 -20.81198865 -049.40384824
111 -20.81200426 -049.40380322
111 -20.81205369 -049.40374836
111 -20.81194715 -049.40360673
111 -20.81194002 -049.40389810
111 -20.81193916 -049.40393039
111 -20.81227446 -049.40438924
111 -20.81233207 -049.40446549
111 -20.81235888 -049.40448208
111 -20.81237696 -049.40449324
111 -20.81238809 -049.40449969
111 -20.81239951 -049.40450811
111 -20.81242762 -049.40454547
111 -20.81258061 -049.40452938
113 -20.81263140 -049.40452028
110 2 0.00 0.0 patio terminal 2
111 -20.81254404 -049.40472024
111 -20.81256675 -049.40470645
111 -20.81260621 -049.40472254
111 -20.81283394 -049.40502796
111 -20.81294047 -049.40492868
111 -20.81275808 -049.40469007
111 -20.81274400 -049.40467205
111 -20.81271897 -049.40466623
111 -20.81268716 -049.40466984
111 -20.81265796 -049.40467427
111 -20.81261859 -049.40468314
111 -20.81257714 -049.40468203
111 -20.81254429 -049.40463519
111 -20.81254690 -049.40460664
111 -20.81255394 -049.40458169
111 -20.81258061 -049.40452938
111 -20.81242762 -049.40454547
113 -20.81239951 -049.40450811
110 2 0.00 0.0 patio terminal
111 -20.81304586 -049.40532849
112 -20.81311592 -049.40538022 -20.81315874 -049.40545057
111 -20.81316782 -049.40545540
111 -20.81319507 -049.40542505
111 -20.81311073 -049.40531815
112 -20.81311073 -049.40527124 -20.81313409 -049.40525538
111 -20.81313409 -049.40525538
111 -20.81308997 -049.40518365
112 -20.81311138 -049.40507399 -20.81315225 -049.40504295
111 -20.81319377 -049.40499674
111 -20.81315747 -049.40494864
111 -20.81304522 -049.40506519
111 -20.81302983 -049.40506399
111 -20.81301819 -049.40507676
111 -20.81301181 -049.40507556
111 -20.81295099 -049.40499222
113 -20.81285594 -049.40506311
130 zona do aeroporto
111 -20.81312790 -049.39868027
111 -20.81162992 -049.40013372
111 -20.81127215 -049.40144182
111 -20.81112381 -049.40287052
111 -20.81192660 -049.40389103
111 -20.81164737 -049.40408585
111 -20.81287193 -049.40575577
111 -20.81286902 -049.40595678
111 -20.81359911 -049.40714428
111 -20.81347112 -049.40742878
111 -20.81537341 -049.41007596
111 -20.81578644 -049.41010378
111 -20.82072540 -049.41568278
111 -20.82226410 -049.41743630
111 -20.82251737 -049.41772320
111 -20.82267907 -049.41766727
111 -20.82277746 -049.41750673
113 -20.82342700 -049.41392137
120 Linear Feature 11
111 -20.82027567 -049.41331896 1 102
111 -20.82040862 -049.41347270 1 102
111 -20.82053437 -049.41350033 1 102
111 -20.82072622 -049.41371436 1 102
111 -20.82052209 -049.41391131 1 102
111 -20.82033402 -049.41369025 1 102
111 -20.82033264 -049.41357912 1 102
115 -20.82017793 -049.41341265
120 Linear Feature 35
111 -20.81591632 -049.40566313 1 102
111 -20.81592463 -049.40574802 1 102
111 -20.81589592 -049.40581440 1 102
111 -20.81584898 -049.40585850 1 102
111 -20.81576779 -049.40593176 1 102
111 -20.81571291 -049.40597063 1 102
111 -20.81562670 -049.40599837 1 102
111 -20.81554164 -049.40599957 1 102
111 -20.81546225 -049.40598148 1 102
111 -20.81538514 -049.40593325 1 102
111 -20.81482481 -049.40518426 1 102
115 -20.81416625 -049.40430663
120 Linear Feature 34
111 -20.81621039 -049.40605042 1 102
111 -20.81615095 -049.40601742 1 102
111 -20.81609671 -049.40600918 1 102
111 -20.81603701 -049.40601548 1 102
111 -20.81598719 -049.40605652 1 102
111 -20.81590996 -049.40612070 1 102
111 -20.81530557 -049.40662267 1 102
111 -20.81527649 -049.40666247 1 102
111 -20.81523680 -049.40674688 1 102
111 -20.81522829 -049.40684233 1 102
111 -20.81523680 -049.40689860 1 102
111 -20.81527744 -049.40697496 1 102
111 -20.81535304 -049.40708449 1 102
111 -20.81573445 -049.40757274 1 102
111 -20.81626379 -049.40828960 1 102
111 -20.81675206 -049.40893044 1 102
111 -20.81720869 -049.40954447 1 102
111 -20.81784179 -049.41039069 1 102
111 -20.81954280 -049.41242218 1 102
111 -20.81982989 -049.41269689 1 102
111 -20.81992629 -049.41278130 1 102
111 -20.82002647 -049.41285264 1 102
111 -20.82015499 -049.41289685 1 102
111 -20.82028258 -049.41290589 1 102
111 -20.82041583 -049.41288469 1 102
111 -20.82061449 -049.41285338 1 102
111 -20.82092788 -049.41280427 1 102
111 -20.82097943 -049.41277479 1 102
111 -20.82101006 -049.41272944 1 102
111 -20.82102428 -049.41268640 1 102
111 -20.82103248 -049.41262942 1 102
111 -20.82103248 -049.41257941 1 102
111 -20.82102811 -049.41252824 1 102
115 -20.82098475 -049.41241234
120 Linear Feature 6
111 -20.81433436 -049.40738908 1
111 -20.81442624 -049.40731020 1
112 -20.81445885 -049.40728394 -20.81447542 -049.40727614 1
115 -20.81449833 -049.40728415
120 Linear Feature 5
111 -20.81447840 -049.40758106 1
111 -20.81459208 -049.40747912 1
112 -20.81461360 -049.40746762 -20.81462178 -049.40746746 1
115 -20.81463758 -049.40747103
120 Linear Feature 4
111 -20.81464068 -049.40781101 1
111 -20.81475720 -049.40770584 1
112 -20.81478157 -049.40769283 -20.81479423 -049.40769078 1
115 -20.81480936 -049.40770221
120 Linear Feature 3
111 -20.81483996 -049.40797762 1
111 -20.81496321 -049.40787102 1
112 -20.81498143 -049.40785562 -20.81498528 -049.40785298 1
115 -20.81500454 -049.40784662
120 Linear Feature 2
111 -20.81523255 -049.40800461 1
112 -20.81525960 -049.40791605 -20.81524415 -049.40788108 1
115 -20.81518089 -049.40787696
120 Linear Feature 1
111 -20.81542271 -049.40783987 1
112 -20.81533323 -049.40787283 -20.81529250 -049.40788579 1
111 -20.81518089 -049.40787696 1
111 -20.81500454 -049.40784662 1
112 -20.81488060 -049.40777758 -20.81483095 -049.40773875 1
111 -20.81480936 -049.40770221 1
111 -20.81463758 -049.40747103 1
111 -20.81449833 -049.40728415 1
115 -20.81422725 -049.40692131
120 Linear Feature 51
111 -20.81738780 -049.41017988 1
112 -20.81741716 -049.41010394 -20.81742071 -049.41007126 1
115 -20.81740013 -049.41002075
120 Linear Feature 50
111 -20.81706207 -049.41044729 1
111 -20.81738780 -049.41017988 1
112 -20.81746238 -049.41016184 -20.81749579 -049.41016486 1
115 -20.81753444 -049.41020135
120 Linear Feature 49
111 -20.81703472 -049.40953284 1
112 -20.81705193 -049.40961244 -20.81704720 -049.40966104 1
115 -20.81702677 -049.40968320
120 Linear Feature 48
111 -20.81653401 -049.41009152 1
111 -20.81702677 -049.40968320 1
112 -20.81709488 -049.40967341 -20.81711615 -049.40967551 1
115 -20.81716113 -049.40970224
120 Linear Feature 47
111 -20.81679604 -049.40937359 1
112 -20.81685934 -049.40936240 -20.81690623 -049.40936198 1
115 -20.81693043 -049.40939470
120 Linear Feature 46
111 -20.81634403 -049.40974783 1
111 -20.81679604 -049.40937359 1
112 -20.81681748 -049.40930118 -20.81682340 -049.40925090 1
115 -20.81679638 -049.40921504
120 Linear Feature 45
111 -20.81658965 -049.40893573 1
112 -20.81660571 -049.40902338 -20.81659840 -049.40907620 1
115 -20.81656759 -049.40909942
120 Linear Feature 44
111 -20.81606655 -049.40951224 1
111 -20.81656759 -049.40909942 1
112 -20.81665054 -049.40907931 -20.81669065 -049.40908402 1
115 -20.81672264 -049.40911424
120 Linear Feature 43
111 -20.81636448 -049.40863753 1
112 -20.81638681 -049.40872994 -20.81638206 -049.40877839 1
115 -20.81635188 -049.40880440
120 Linear Feature 42
111 -20.81592242 -049.40916613 1
111 -20.81635188 -049.40880440 1
112 -20.81641239 -049.40878552 -20.81644982 -049.40878133 1
115 -20.81650142 -049.40882093
120 Linear Feature 41
111 -20.81609915 -049.40828613 1
112 -20.81611591 -049.40836558 -20.81611258 -049.40839794 1
115 -20.81609107 -049.40843432
120 Linear Feature 40
111 -20.81562337 -049.40884193 1
111 -20.81609107 -049.40843432 1
112 -20.81614869 -049.40842411 -20.81618103 -049.40842360 1
115 -20.81622161 -049.40844713
120 Linear Feature 39
111 -20.81583273 -049.40793007 1
112 -20.81585502 -049.40800330 -20.81585478 -049.40804333 1
115 -20.81582241 -049.40809031
120 Linear Feature 38
111 -20.81540570 -049.40845413 1
111 -20.81582241 -049.40809031 1
112 -20.81590183 -049.40807339 -20.81594701 -049.40808097 1
115 -20.81596941 -049.40811067
120 Linear Feature 37
111 -20.81554877 -049.40773065 1
112 -20.81558023 -049.40764918 -20.81558452 -049.40759651 1
115 -20.81556117 -049.40756263
120 Linear Feature 36
111 -20.81508917 -049.40812882 1
111 -20.81523255 -049.40800461 1
111 -20.81542271 -049.40783987 1
111 -20.81554877 -049.40773065 1
112 -20.81562192 -049.40771126 -20.81566486 -049.40771267 1
115 -20.81569604 -049.40774694
120 Linear Feature 33
111 -20.81463878 -049.40679755 1
112 -20.81482209 -049.40672495 -20.81494661 -049.40679584 1
115 -20.81510691 -049.40689474
120 Linear Feature 32
111 -20.81475815 -049.40695749 1
112 -20.81486814 -049.40684938 -20.81494658 -049.40685042 1
115 -20.81512682 -049.40696530
120 Linear Feature 29
111 -20.81488361 -049.40711806 1
112 -20.81497125 -049.40698994 -20.81503499 -049.40694512 1
115 -20.81516664 -049.40703687
120 Linear Feature 28
111 -20.81500248 -049.40727551 1
112 -20.81509755 -049.40711774 -20.81517501 -049.40711461 1
115 -20.81526808 -049.40717698
120 Linear Feature 27
111 -20.81512344 -049.40743740 1
112 -20.81525752 -049.40728430 -20.81535650 -049.40729759 1
115 -20.81537521 -049.40731794
120 Linear Feature 26
111 -20.81463182 -049.40679506 1
111 -20.81463878 -049.40679755 1
115 -20.81464588 -049.40679926
120 Linear Feature 10
111 -20.81363718 -049.40316202 1 101
111 -20.81380464 -049.40313076 1 101
112 -20.81388822 -049.40312195 -20.81393941 -049.40311817
111 -20.81388822 -049.40312195
112 -20.81388822 -049.40312195 -20.81399709 -049.40311391 1 101
112 -20.81436964 -049.40333515 -20.81455667 -049.40355982
111 -20.81436964 -049.40333515
112 -20.81436964 -049.40333515 -20.81460574 -049.40365143 1 101
115 -20.81470615 -049.40378549
120 Linear Feature 9
111 -20.81380464 -049.40313076 1 101
112 -20.81387294 -049.40266884 -20.81363558 -049.40234990 1 101
115 -20.81357972 -049.40227673
120 Linear Feature 8
111 -20.81416625 -049.40430663 1 102
111 -20.81365454 -049.40362699 1 102
111 -20.81357891 -049.40353454 1 102
111 -20.81353921 -049.40346418 1 102
111 -20.81353298 -049.40340045 1 102
111 -20.81354855 -049.40334252 1 102
111 -20.81358747 -049.40329948 1 102
111 -20.81364820 -049.40327630 1 102
111 -20.81382024 -049.40323740 1 102
111 -20.81393518 -049.40324285 1 102
111 -20.81400823 -049.40326285 1 102
111 -20.81409504 -049.40329855 1 102
115 -20.81417439 -049.40334140
120 Linear Feature 24
111 -20.81463521 -049.40682271 1
115 -20.81463878 -049.40679755
120 Linear Feature 23
111 -20.81475450 -049.40695633 1
111 -20.81475818 -049.40695711 1
115 -20.81476246 -049.40695811
120 Linear Feature 22
111 -20.81475363 -049.40698439 1
115 -20.81475818 -049.40695711
120 Linear Feature 21
111 -20.81488825 -049.40712018 1
111 -20.81488361 -049.40711806 1
115 -20.81488361 -049.40711806
120 Linear Feature 20
111 -20.81487647 -049.40714184 1
115 -20.81488361 -049.40711806
120 Linear Feature 19
111 -20.81499347 -049.40727157 1
111 -20.81500248 -049.40727551 1
115 -20.81501139 -049.40728022
120 Linear Feature 18
111 -20.81499865 -049.40730013 1
115 -20.81500248 -049.40727551
120 Linear Feature 17
111 -20.81511785 -049.40743704 1
111 -20.81512344 -049.40743740 1
115 -20.81513006 -049.40743774
120 Linear Feature 16
111 -20.81512186 -049.40745724 1
115 -20.81512344 -049.40743740
120 Linear Feature 8
111 -20.81724321 -049.41024386 1
111 -20.81723730 -049.41021874 1
111 -20.81716905 -049.41013570 1
111 -20.81717233 -049.41012035 1
111 -20.81714673 -049.41009733 1
111 -20.81714442 -049.41005661 1
111 -20.81717430 -049.41005476 1
111 -20.81720186 -049.41008337 1
111 -20.81719267 -049.41009593 1
111 -20.81720121 -049.41011617 1
111 -20.81722221 -049.41011407 1
115 -20.81727734 -049.41019292
120 luzes azuis
111 -20.81226622 -049.40265725 1 102
111 -20.81243762 -049.40251283 1 102
112 -20.81244019 -049.40237802 -20.81238373 -049.40229558 1 102
111 -20.81224038 -049.40210558 1 102
111 -20.81191277 -049.40167037 1 102
111 -20.81184157 -049.40154886 1 102
111 -20.81180659 -049.40139583 1 102
111 -20.81181065 -049.40125305 1 102
111 -20.81185736 -049.40107428 1 102
111 -20.81198441 -049.40089650 1 102
111 -20.81220310 -049.40071659 1 102
111 -20.81247628 -049.40108060 1 102
111 -20.81237457 -049.40104504 1 102
111 -20.81230173 -049.40102130 1 102
111 -20.81223793 -049.40104553 1 102
111 -20.81215178 -049.40111420 1 102
111 -20.81214322 -049.40112096 1 102
111 -20.81210711 -049.40119196 1 102
111 -20.81207316 -049.40125901 1 102
111 -20.81207689 -049.40136230 1 102
111 -20.81210212 -049.40147950 1 102
111 -20.81229084 -049.40176743 1 102
111 -20.81252249 -049.40211911 1 102
111 -20.81287468 -049.40258889 1 102
111 -20.81312489 -049.40292871 1 102
111 -20.81324105 -049.40301559 1 102
111 -20.81331570 -049.40303816 1 102
111 -20.81343567 -049.40307518 1 102
111 -20.81355244 -049.40306194 1 102
111 -20.81362406 -049.40305201 1 102
111 -20.81368841 -049.40303376 1 102
111 -20.81376079 -049.40299553 1 102
111 -20.81379567 -049.40295652 1 102
111 -20.81380657 -049.40290770 1 102
115 -20.81379956 -049.40284410
120 Linear Feature 28
111 -20.82017793 -049.41341265 54 103
111 -20.82023095 -049.41336598 54 103
115 -20.82027567 -049.41331896
120 Linear Feature 27
111 -20.82014829 -049.41327319 1 101
111 -20.82023095 -049.41336598 1 101
115 -20.82037372 -049.41351783
120 Linear Feature 26
111 -20.81364820 -049.40327630 54 103
111 -20.81363718 -049.40316202 54 103
115 -20.81362406 -049.40305201
120 Linear Feature 25
111 -20.81590979 -049.40612195 54 103
111 -20.81583129 -049.40601585 54 103
115 -20.81576779 -049.40593176
120 Linear Feature 24
111 -20.82096480 -049.41307071 54 103
111 -20.82094605 -049.41293467 54 103
115 -20.82092788 -049.41280427
120 Linear Feature 19
111 -20.81598963 -049.40588452 1 101
111 -20.81605542 -049.40585182 1 101
111 -20.81609019 -049.40584174 1 101
111 -20.81613996 -049.40583754 1 101
111 -20.81618262 -049.40584762 1 101
111 -20.81623003 -049.40586106 1 101
111 -20.81627032 -049.40588710 1 101
111 -20.81630824 -049.40592574 1 101
111 -20.81634933 -049.40597866 1 101
115 -20.81665588 -049.40638690
120 Linear Feature 18
111 -20.81583129 -049.40601585 1 101
111 -20.81598963 -049.40588452 1 101
111 -20.81601066 -049.40585778 1 101
111 -20.81603398 -049.40582473 1 101
111 -20.81605273 -049.40578729 1 101
111 -20.81606370 -049.40575716 1 101
111 -20.81606736 -049.40571097 1 101
111 -20.81606827 -049.40566577 1 101
111 -20.81605227 -049.40559965 1 101
111 -20.81602941 -049.40555250 1 101
111 -20.81599283 -049.40550146 1 101
115 -20.81577337 -049.40521173
120 Linear Feature 17
111 -20.82046068 -049.41301512 59 101
115 -20.82089155 -049.41294395
120 Linear Feature 15
111 -20.82094605 -049.41293467 1 101
111 -20.82101371 -049.41292572 1 101
111 -20.82107375 -049.41289632 1 101
111 -20.82110772 -049.41286356 1 101
111 -20.82114565 -049.41281231 1 101
111 -20.82117409 -049.41275519 1 101
111 -20.82119147 -049.41269135 1 101
111 -20.82120016 -049.41263255 1 101
111 -20.82120569 -049.41255862 1 101
111 -20.82119147 -049.41248554 1 101
111 -20.82116619 -049.41240742 1 101
111 -20.82112432 -049.41234273 1 101
115 -20.82078300 -049.41188912
120 Linear Feature 14
111 -20.82014829 -049.41327319 1 101
111 -20.82014061 -049.41323352 1 101
111 -20.82014281 -049.41318861 1 101
111 -20.82015159 -049.41315127 1 101
111 -20.82017024 -049.41311219 1 101
111 -20.82019767 -049.41307952 1 101
115 -20.82022919 -049.41304704
120 Linear Feature 13
111 -20.82014829 -049.41327319 1 101
115 -20.81986813 -049.41295380
120 Linear Feature 12
111 -20.81575967 -049.40607499 1 101
111 -20.81529425 -049.40647044 1 101
111 -20.81521310 -049.40654093 1 101
111 -20.81516285 -049.40660343 1 101
111 -20.81513061 -049.40666391 1 101
111 -20.81510881 -049.40673447 1 101
111 -20.81510027 -049.40680704 1 101
111 -20.81510691 -049.40689474 1 101
111 -20.81512682 -049.40696530 1 101
111 -20.81516664 -049.40703687 1 101
111 -20.81526808 -049.40717698 1 101
111 -20.81537521 -049.40731794 1 101
111 -20.81556117 -049.40756263 1 101
111 -20.81569604 -049.40774694 1 101
111 -20.81583273 -049.40793007 1 101
111 -20.81596941 -049.40811067 1 101
111 -20.81609915 -049.40828613 1 101
111 -20.81622161 -049.40844713 1 101
111 -20.81636448 -049.40863753 1 101
111 -20.81650142 -049.40882093 1 101
111 -20.81658965 -049.40893573 1 101
111 -20.81672264 -049.40911424 1 101
111 -20.81679638 -049.40921504 1 101
111 -20.81693201 -049.40939494 1 101
111 -20.81703472 -049.40953284 1 101
111 -20.81716113 -049.40970224 1 101
111 -20.81740013 -049.41002075 1 101
111 -20.81753444 -049.41020135 1 101
111 -20.81767622 -049.41038911 1 101
111 -20.81848859 -049.41143886 1 101
111 -20.81897777 -049.41199643 1 101
111 -20.81911809 -049.41215570 1 101
111 -20.81969036 -049.41280427 1 101
111 -20.81974488 -049.41286056 1 101
111 -20.81986813 -049.41295380 1 101
111 -20.81996688 -049.41299748 1 101
111 -20.82004589 -049.41302520 1 101
111 -20.82011779 -049.41304200 1 101
111 -20.82022919 -049.41304704 1 101
111 -20.82029951 -049.41304200 1 101
115 -20.82046068 -049.41301512
120 Linear Feature 11
111 -20.81532470 -049.40602362 1 101
111 -20.81534884 -049.40606846 1 101
111 -20.81536895 -049.40611075 1 101
111 -20.81537993 -049.40616082 1 101
111 -20.81538679 -049.40621916 1 101
111 -20.81538496 -049.40626534 1 101
111 -20.81537490 -049.40632270 1 101
111 -20.81535981 -049.40636596 1 101
111 -20.81534198 -049.40640388 1 101
111 -20.81532277 -049.40643256 1 101
115 -20.81529425 -049.40647044
120 Linear Feature 10
111 -20.81408602 -049.40437303 1 101
111 -20.81532470 -049.40602362 1 101
111 -20.81537842 -049.40606478 1 101
111 -20.81544558 -049.40610090 1 101
111 -20.81550800 -049.40612022 1 101
111 -20.81556172 -049.40612694 1 101
111 -20.81561229 -049.40612694 1 101
111 -20.81566917 -049.40611434 1 101
111 -20.81572500 -049.40609282 1 101
111 -20.81575967 -049.40607499 1 101
115 -20.81578406 -049.40605555
120 Linear Feature 3
111 -20.81302309 -049.40334641 10
111 -20.81305093 -049.40332177 10
111 -20.81307951 -049.40330726 10
111 -20.81310713 -049.40329477 10
111 -20.81312491 -049.40329004 10
111 -20.81316778 -049.40328700 10
111 -20.81320366 -049.40328937 10
111 -20.81324938 -049.40330456 10
111 -20.81327764 -049.40332312 10
115 -20.81330946 -049.40334166
120 Linear Feature 2
111 -20.81280920 -049.40305593 10
111 -20.81282774 -049.40304239 10
111 -20.81285975 -049.40302489 10
111 -20.81289587 -049.40301711 10
111 -20.81293199 -049.40301323 10
111 -20.81296948 -049.40301517 10
111 -20.81300469 -049.40302100 10
111 -20.81304446 -049.40303510 10
111 -20.81306575 -049.40304235 10
115 -20.81309092 -049.40305628
120 Linear Feature 83
111 -20.81370283 -049.40418617 2
111 -20.81371688 -049.40416618 2
111 -20.81373417 -049.40413743 2
111 -20.81374895 -049.40410635 2
111 -20.81375775 -049.40407292 2
111 -20.81376247 -049.40403982 2
111 -20.81376373 -049.40400606 2
111 -20.81375901 -049.40397096 2
111 -20.81374769 -049.40393821 2
115 -20.81373850 -049.40391028
120 Linear Feature 82
111 -20.81326970 -049.40360934 2
111 -20.81329863 -049.40356717 2
111 -20.81331296 -049.40353588 2
111 -20.81332353 -049.40350660 2
111 -20.81332843 -049.40347130 2
111 -20.81332881 -049.40341875 2
111 -20.81332202 -049.40338786 2
111 -20.81331247 -049.40335521 2
115 -20.81330946 -049.40334166
120 Linear Feature 4
111 -20.81324208 -049.40363286 10
111 -20.81326970 -049.40360934 10
111 -20.81331505 -049.40358795 10
111 -20.81333699 -049.40357861 10
111 -20.81338089 -049.40357570 10
111 -20.81342259 -049.40358036 10
111 -20.81346264 -049.40359261 10
115 -20.81352581 -049.40362923
120 Linear Feature 81
111 -20.81305093 -049.40332177 2
111 -20.81307417 -049.40329503 2
111 -20.81309092 -049.40326326 2
111 -20.81310631 -049.40322572 2
111 -20.81311356 -049.40318721 2
111 -20.81311356 -049.40313715 2
111 -20.81310495 -049.40309671 2
111 -20.81309092 -049.40305628 2
115 -20.81306243 -049.40301260
120 Linear Feature 79
111 -20.81282774 -049.40304239 2
111 -20.81284758 -049.40301168 2
111 -20.81286105 -049.40298649 2
111 -20.81287191 -049.40295876 2
111 -20.81287626 -049.40293450 2
111 -20.81288061 -049.40290389 2
111 -20.81288061 -049.40287847 2
111 -20.81287680 -049.40285132 2
111 -20.81287463 -049.40282937 2
111 -20.81286539 -049.40278605 2
115 -20.81284878 -049.40273106
120 Linear Feature 78
111 -20.81261870 -049.40274580
111 -20.81263621 -049.40272492
111 -20.81264798 -049.40270518
111 -20.81265975 -049.40268304
111 -20.81266835 -049.40266138
111 -20.81267560 -049.40263635
111 -20.81267877 -049.40261565
111 -20.81268058 -049.40258821
111 -20.81267967 -049.40256222
111 -20.81267696 -049.40254297
111 -20.81267152 -049.40251842
111 -20.81266428 -049.40250061
115 -20.81263822 -049.40244788
120 Linear Feature 70
111 -20.81197667 -049.40149837 59 101
111 -20.81195643 -049.40141713 59 101
111 -20.81195265 -049.40135985 59 101
111 -20.81195643 -049.40129957 59 101
111 -20.81196493 -049.40124430 59 101
111 -20.81197627 -049.40119507 59 101
111 -20.81199139 -049.40114483 59 101
111 -20.81201313 -049.40109962 59 101
115 -20.81203865 -049.40106244
120 Linear Feature 66
111 -20.81198441 -049.40089650 54 103
115 -20.81215178 -049.40111420
120 Linear Feature 11
111 -20.81360058 -049.40411629 1
115 -20.81322033 -049.40444669
120 Linear Feature 62
111 -20.81363292 -049.40377379 1
111 -20.81365411 -049.40382477 1
111 -20.81367159 -049.40387646 1
111 -20.81367766 -049.40392088 1
111 -20.81367310 -049.40395641 1
111 -20.81366057 -049.40400002 1
111 -20.81363550 -049.40404686 1
111 -20.81361144 -049.40409085 1
111 -20.81362414 -049.40410758 1
111 -20.81363626 -049.40409936 1
111 -20.81368260 -049.40408765 1
111 -20.81371830 -049.40408684 1
111 -20.81376730 -049.40408724 1
111 -20.81380148 -049.40409249 1
111 -20.81384553 -049.40410865 1
111 -20.81389339 -049.40413772 1
115 -20.81393106 -049.40416871
120 Linear Feature 61
111 -20.81342555 -049.40349517 10
111 -20.81343236 -049.40358047 10
111 -20.81343190 -049.40363280 10
111 -20.81342370 -049.40367689 10
111 -20.81340775 -049.40372632 10
111 -20.81339453 -049.40375394 10
111 -20.81338365 -049.40377121 10
111 -20.81339936 -049.40379136 10
111 -20.81341869 -049.40378253 10
111 -20.81346426 -049.40377090 10
111 -20.81351531 -049.40376848 10
111 -20.81357319 -049.40377914 10
111 -20.81361786 -049.40379610 10
111 -20.81366252 -049.40382517 10
115 -20.81369293 -049.40385011
120 Linear Feature 60
111 -20.81316272 -049.40315033 10
111 -20.81318685 -049.40320678 10
111 -20.81319730 -049.40324447 10
111 -20.81320046 -049.40330302 10
111 -20.81319318 -049.40335955 10
111 -20.81317578 -049.40341676 10
111 -20.81315615 -049.40345680 10
111 -20.81315053 -049.40346586 10
111 -20.81316475 -049.40348182 10
111 -20.81320141 -049.40346858 10
111 -20.81324414 -049.40345949 10
111 -20.81328813 -049.40346151 10
111 -20.81335270 -049.40347464 10
111 -20.81338308 -049.40348843 10
111 -20.81342771 -049.40351535 10
115 -20.81346922 -049.40355292
120 Linear Feature 59
111 -20.81293013 -049.40283863 10
111 -20.81295886 -049.40291246 10
111 -20.81296752 -049.40296915 10
111 -20.81296752 -049.40302343 10
111 -20.81295795 -049.40306946 10
111 -20.81294109 -049.40311840 10
111 -20.81292075 -049.40315334 10
111 -20.81293461 -049.40317162 10
111 -20.81296706 -049.40316055 10
111 -20.81303133 -049.40315135 10
111 -20.81308875 -049.40315765 10
111 -20.81312658 -049.40316782 10
111 -20.81316122 -049.40318527 10
111 -20.81317990 -049.40319641 10
115 -20.81320602 -049.40320363
120 Linear Feature 58
111 -20.81270178 -049.40253382 10
111 -20.81272828 -049.40261343 10
111 -20.81273536 -049.40267902 10
111 -20.81273077 -049.40273833 10
111 -20.81270911 -049.40281160 10
111 -20.81268409 -049.40284571 10
111 -20.81270046 -049.40286752 10
111 -20.81271961 -049.40286184 10
111 -20.81278065 -049.40284439 10
111 -20.81283906 -049.40284369 10
111 -20.81290917 -049.40286305 10
115 -20.81299027 -049.40292141
120 Linear Feature 57
111 -20.81367330 -049.40421059 1
111 -20.81370283 -049.40418617 1
111 -20.81375643 -049.40416058 1
111 -20.81380893 -049.40415012 1
111 -20.81387730 -049.40416000 1
111 -20.81391066 -049.40417512 1
115 -20.81397284 -049.40422201
120 Linear Feature 50
111 -20.81207394 -049.40100993 1 101
111 -20.81211686 -049.40097170 1 101
111 -20.81215781 -049.40094240 1 101
111 -20.81221924 -049.40091393 1 101
111 -20.81226334 -049.40089969 1 101
111 -20.81231060 -049.40088964 1 101
111 -20.81237833 -049.40089048 1 101
111 -20.81244527 -049.40089718 1 101
111 -20.81250827 -049.40092062 1 101
111 -20.81257600 -049.40096919 1 101
111 -20.81263586 -049.40102361 1 101
111 -20.81270280 -049.40111069 1 101
115 -20.81298868 -049.40149586
120 Linear Feature 56
111 -20.81330946 -049.40334166 1 101
115 -20.81350300 -049.40318388
120 Linear Feature 55
111 -20.81342555 -049.40349517 1 101
111 -20.81342463 -049.40343362 1 101
111 -20.81343119 -049.40335861 1 101
111 -20.81345635 -049.40329232 1 101
111 -20.81350120 -049.40323127 1 101
111 -20.81355042 -049.40319057 1 101
115 -20.81357898 -049.40317265
120 Linear Feature 64
111 -20.81320602 -049.40320363 1 101
111 -20.81325546 -049.40320694 1 101
111 -20.81331380 -049.40320888 1 101
111 -20.81337259 -049.40320501 1 101
115 -20.81346470 -049.40318724
120 Linear Feature 63
111 -20.81306243 -049.40301260 1 101
111 -20.81316272 -049.40315033 1 101
111 -20.81320602 -049.40320363 1 101
111 -20.81330946 -049.40334166 1 101
111 -20.81342555 -049.40349517 1 101
111 -20.81346922 -049.40355292 1 101
111 -20.81352581 -049.40362923 1 101
111 -20.81363292 -049.40377379 1 101
111 -20.81369293 -049.40385011 1 101
111 -20.81373850 -049.40391028 1 101
111 -20.81393106 -049.40416871 1 101
111 -20.81397284 -049.40422201 1 101
115 -20.81408602 -049.40437303
120 Linear Feature 49
111 -20.81357898 -049.40317265 10 101
111 -20.81350300 -049.40318388 10 101
111 -20.81346470 -049.40318724 10 101
111 -20.81339064 -049.40318119 10 101
111 -20.81330803 -049.40316403 10 101
111 -20.81318017 -049.40310480 10 101
111 -20.81311054 -049.40305534 10 101
111 -20.81306243 -049.40301260 10 101
111 -20.81299027 -049.40292141 10 101
111 -20.81293013 -049.40283863 10 101
111 -20.81287569 -049.40276729 10 101
111 -20.81270178 -049.40253382 10 101
111 -20.81263822 -049.40244788 10 101
111 -20.81223736 -049.40190446 10 101
111 -20.81201605 -049.40159466 10 101
115 -20.81197667 -049.40149837
120 Linear Feature 1
111 -20.81259347 -049.40276855 10
111 -20.81261870 -049.40274580 10
111 -20.81264120 -049.40273180 10
111 -20.81267961 -049.40271721 10
111 -20.81271856 -049.40271021 10
111 -20.81275203 -049.40271255 10
111 -20.81281732 -049.40272888 10
111 -20.81285079 -049.40274988 10
115 -20.81287569 -049.40276729
120 Linear Feature 9
111 -20.81303945 -049.40510060 22
112 -20.81297551 -049.40511344 -20.81295058 -049.40511132 22
115 -20.81293217 -049.40506084
120 Linear Feature 8
111 -20.81317853 -049.40496419 22
111 -20.81303945 -049.40510060 22
112 -20.81301730 -049.40518596 -20.81301779 -049.40524844 22
115 -20.81305414 -049.40527294
120 Linear Feature 15
111 -20.81266784 -049.40287698 1
115 -20.81229503 -049.40319203
120 Linear Feature 14
111 -20.81290038 -049.40318429 1
115 -20.81252271 -049.40350472
120 Linear Feature 13
111 -20.81313170 -049.40349452 1
115 -20.81274680 -049.40381209
120 Linear Feature 12
111 -20.81336451 -049.40380048 1
115 -20.81297472 -049.40412779
21 -20.81939441 -049.41075198 2 48.5 3.00 New Light Fixture 7
21 -20.81400238 -049.40202116 2 230.6 3.00 New Light Fixture 12
1300 -20.81463756 -049.40680248 96.3 gate heavy|jets|turboprops|props A5
1301 A general_aviation 
1300 -20.81475689 -049.40696319 99.8 gate heavy|jets|turboprops|props A4
1301 A general_aviation 
1300 -20.81488185 -049.40712232 108.8 gate heavy|jets|turboprops|props A3
1301 A general_aviation 
1300 -20.81500141 -049.40728134 99.7 gate heavy|jets|turboprops|props A2
1301 A general_aviation 
1300 -20.81512245 -049.40744592 94.1 gate heavy|jets|turboprops|props A1
1301 A general_aviation 
1300 -20.81297876 -049.40464830 -38.7 gate heavy|jets|turboprops|props 5
1301 C airline 
1300 -20.81273576 -049.40432779 -38.2 gate heavy|jets|turboprops|props 4
1301 C airline 
1300 -20.81250675 -049.40401104 -37.7 gate heavy|jets|turboprops|props 3
1301 C airline 
1300 -20.81229638 -049.40369117 -38.1 gate heavy|jets|turboprops|props 2
1301 C airline 
1300 -20.81205861 -049.40339024 -38.3 gate heavy|jets|turboprops|props 1
1301 C airline 
1200 
1201 -20.81272230 -049.40114289 both 0 N_stop
1201 -20.81257809 -049.40097136 both 1 N_stop
1201 -20.81238611 -049.40089183 both 2 N_stop
1201 -20.81220314 -049.40092249 both 3 N_stop
1201 -20.81385805 -049.40265605 both 4 N_stop
1201 -20.81394843 -049.40281085 both 5 N_stop
1201 -20.81393383 -049.40301160 both 6 N_stop
1201 -20.81435566 -049.40331834 both 7 N_stop
1201 -20.81425201 -049.40321772 both 8 N_stop
1201 -20.81404290 -049.40312669 both 9 N_stop
1201 -20.81380856 -049.40312956 both 10 N_stop
1201 -20.81638144 -049.40601531 both 11 N_stop
1201 -20.81627708 -049.40589398 both 12 N_stop
1201 -20.81613524 -049.40583619 both 13 N_stop
1201 -20.82105375 -049.41223755 both 14 N_stop
1201 -20.82120675 -049.41255856 both 15 N_stop
1201 -20.82115810 -049.41278955 both 16 N_stop
1201 -20.82107813 -049.41289442 both 17 N_stop
1201 -20.81604213 -049.40557320 both 18 N_stop
1201 -20.81606522 -049.40575207 both 19 N_stop
1201 -20.81599155 -049.40588300 both 20 N_stop
1201 -20.81570627 -049.40610254 both 21 N_stop
1201 -20.81582713 -049.40601911 both 22 N_split
1201 -20.81558727 -049.40612825 both 23 N_stop
1201 -20.81544728 -049.40610321 both 24 N_stop
1201 -20.82093414 -049.41293603 both 25 N_split
1201 -20.82157882 -049.41293369 both 26 N_stop
1201 -20.81232575 -049.40061144 both 27 N_start
1201 -20.81284636 -049.40129983 both 28 07/25_split
1201 -20.81372659 -049.40247818 both 29 07/25_split
1201 -20.81444339 -049.40343078 both 30 07/25_split
1201 -20.81594851 -049.40543584 both 31 07/25_split
1201 -20.81650271 -049.40616447 both 32 07/25_split
1201 -20.82090955 -049.41204725 both 33 07/25_split
1201 -20.82098970 -049.41214916 both 34 07/25_split
1201 -20.81536872 -049.40611067 both 35 N_stop
1201 -20.81532643 -049.40602536 both 36 N_stop
1201 -20.81330933 -049.40334165 both 37 N_stop
1201 -20.81342488 -049.40349538 both 38 N_split
1201 -20.81201600 -049.40159468 both 39 N_stop
1201 -20.81307182 -049.40302083 both 40 N_split
1201 -20.81197675 -049.40149856 both 41 N_start
1201 -20.82034773 -049.41303460 both 42 N_stop
1201 -20.82046124 -049.41301565 both 43 N_split
1201 -20.82023029 -049.41304659 both 44 N_stop
1201 -20.82007252 -049.41303175 both 45 N_stop
1201 -20.81974731 -049.41286639 both 46 N_stop
1201 -20.81848486 -049.41143392 both 47 N_stop
1201 -20.81537518 -049.40731804 both 48 N_stop
1201 -20.81516221 -049.40703035 both 49 N_stop
1201 -20.81510668 -049.40675693 both 50 N_stop
1201 -20.81521383 -049.40653737 both 51 N_stop
1201 -20.81528689 -049.40647937 both 52 N_stop
1201 -20.81537359 -049.40632195 both 53 N_stop
1201 -20.81328275 -049.40315393 both 54 N_stop
1201 -20.81206987 -049.40102006 both 55 N_stop
1201 -20.81199226 -049.40113918 both 56 N_stop
1201 -20.81196097 -049.40126429 both 57 N_stop
1201 -20.81195471 -049.40139405 both 58 N_stop
1201 -20.81351369 -049.40318227 both 59 N_stop
1201 -20.81367438 -049.40315369 both 60 N_split
1201 -20.81345733 -049.40328901 both 61 N_stop
1202 0 28 twoway taxiway_C N
1204 departure 07,25
1204 arrival 07,25
1202 1 0 twoway taxiway_C N
1204 departure 07,25
1204 arrival 07,25
1202 2 1 twoway taxiway_C N
1204 departure 07,25
1204 arrival 07,25
1202 3 2 twoway taxiway_C N
1204 departure 07,25
1204 arrival 07,25
1202 55 3 twoway taxiway_C N
1204 departure 07,25
1204 arrival 07,25
1202 4 29 twoway taxiway_C N
1204 departure 07,25
1204 arrival 07,25
1202 5 4 twoway taxiway_C N
1204 departure 07,25
1204 arrival 07,25
1202 6 5 twoway taxiway_C N
1204 departure 07,25
1204 arrival 07,25
1202 10 6 twoway taxiway_C N
1204 departure 07,25
1204 arrival 07,25
1202 7 30 twoway taxiway_C N
1204 departure 07,25
1204 arrival 07,25
1202 8 7 twoway taxiway_C N
1204 departure 07,25
1204 arrival 07,25
1202 9 8 twoway taxiway_C N
1204 departure 07,25
1204 arrival 07,25
1202 10 9 twoway taxiway_C N
1204 departure 07,25
1204 arrival 07,25
1202 60 10 twoway taxiway_C N
1204 departure 07,25
1204 arrival 07,25
1202 11 32 twoway taxiway_C N
1204 departure 07,25
1204 arrival 07,25
1202 12 11 twoway taxiway_C N
1204 departure 07,25
1204 arrival 07,25
1202 13 12 twoway taxiway_C N
1204 departure 07,25
1204 arrival 07,25
1202 20 13 twoway taxiway_C N
1204 departure 07,25
1204 arrival 07,25
1202 14 33 twoway taxiway_C N
1204 departure 07,25
1204 arrival 07,25
1202 15 14 twoway taxiway_C N
1204 departure 07,25
1204 arrival 07,25
1202 16 15 twoway taxiway_C N
1204 departure 07,25
1204 arrival 07,25
1202 17 16 twoway taxiway_C N
1204 departure 07,25
1204 arrival 07,25
1202 25 17 twoway taxiway_C N
1204 departure 07,25
1204 arrival 07,25
1202 18 31 twoway taxiway_C N
1204 departure 07,25
1204 arrival 07,25
1202 19 18 twoway taxiway_C N
1204 departure 07,25
1204 arrival 07,25
1202 20 19 twoway taxiway_C N
1204 departure 07,25
1204 arrival 07,25
1202 22 20 twoway taxiway_C N
1204 departure 07,25
1204 arrival 07,25
1202 21 22 twoway taxiway_C N
1204 ils 07,25
1202 23 21 twoway taxiway_C N
1204 ils 07,25
1202 24 23 twoway taxiway_C N
1204 ils 07,25
1202 36 24 twoway taxiway_C N
1204 ils 07,25
1202 27 28 twoway runway 07/25
1204 departure 07,25
1204 arrival 07,25
1204 ils 07,25
1202 28 29 twoway runway 07/25
1204 departure 07,25
1204 arrival 07,25
1204 ils 07,25
1202 29 30 twoway runway 07/25
1204 departure 07,25
1204 arrival 07,25
1204 ils 07,25
1202 30 31 twoway runway 07/25
1204 departure 07,25
1204 arrival 07,25
1204 ils 07,25
1202 31 32 twoway runway 07/25
1204 departure 07,25
1204 arrival 07,25
1204 ils 07,25
1202 32 33 twoway runway 07/25
1204 departure 07,25
1204 arrival 07,25
1204 ils 07,25
1202 33 34 twoway runway 07/25
1204 departure 07,25
1204 arrival 07,25
1204 ils 07,25
1202 34 26 twoway runway 07/25
1204 departure 07,25
1204 arrival 07,25
1204 ils 07,25
1202 37 38 twoway taxiway_C N
1202 38 36 twoway taxiway_C N
1202 39 40 twoway taxiway_C N
1202 40 37 twoway taxiway_C N
1202 41 39 twoway taxiway_C N
1202 42 43 twoway taxiway_C N
1202 44 42 twoway taxiway_C N
1202 45 44 twoway taxiway_C N
1202 46 45 twoway taxiway_C N
1202 47 46 twoway taxiway_C N
1202 48 47 twoway taxiway_C N
1202 49 48 twoway taxiway_C N
1202 50 49 twoway taxiway_C N
1202 51 50 twoway taxiway_C N
1202 52 51 twoway taxiway_C N
1202 53 52 twoway taxiway_C N
1202 35 53 twoway taxiway_C N
1202 36 35 twoway taxiway_C N
1202 54 40 twoway taxiway_C N
1204 ils 07,25
1202 59 54 twoway taxiway_C N
1204 ils 07,25
1202 56 55 twoway taxiway_C N
1204 ils 07,25
1202 57 56 twoway taxiway_C N
1204 ils 07,25
1202 58 57 twoway taxiway_C N
1204 ils 07,25
1202 41 58 twoway taxiway_C N
1204 ils 07,25
1202 59 60 twoway taxiway_C N
1204 ils 07,25
1202 61 59 twoway taxiway_C N
1204 ils 07,25
1202 38 61 twoway taxiway_C N
1204 ils 07,25
1202 25 43 twoway taxiway_C N
1204 ils 07,25
99
